{
"type": "FeatureCollection",
"name": "10_3",
"crs": { "type": "name", "properties": { "name": "urn:ogc:def:crs:OGC:1.3:CRS84" } },
"features": [
{ "type": "Feature", "properties": { "Name": "10 mars 2020 14:42:55", "description": "", "timestamp": null, "begin": "2020\/03\/10 13:42:55", "end": "2020\/03\/10 17:14:13", "altitudeMode": null, "tessellate": -1, "extrude": 0, "visibility": -1, "drawOrder": null, "icon": null }, "geometry": { "type": "MultiLineString", "coordinates": [ [ [ -0.593419, 44.853548 ], [ -0.59315, 44.853628 ], [ -0.593057, 44.853559 ], [ -0.593016, 44.853468 ], [ -0.592933, 44.853388 ], [ -0.592851, 44.853317 ], [ -0.59272, 44.853316 ], [ -0.592626, 44.85338 ], [ -0.592522, 44.853325 ], [ -0.592492, 44.853228 ], [ -0.592442, 44.853142 ], [ -0.592459, 44.853049 ], [ -0.592353, 44.852991 ], [ -0.59225, 44.852937 ], [ -0.592121, 44.852947 ], [ -0.592093, 44.852852 ], [ -0.592002, 44.852788 ], [ -0.591905, 44.852727 ], [ -0.591826, 44.852647 ], [ -0.591724, 44.852589 ], [ -0.591622, 44.852534 ], [ -0.591533, 44.852465 ], [ -0.591413, 44.852417 ], [ -0.591318, 44.852343 ], [ -0.591224, 44.852281 ], [ -0.591141, 44.852207 ], [ -0.591047, 44.852133 ], [ -0.590955, 44.852061 ], [ -0.590848, 44.852008 ], [ -0.590586, 44.85217 ], [ -0.590658, 44.852065 ], [ -0.590714, 44.851979 ], [ -0.590678, 44.851885 ], [ -0.590578, 44.851825 ], [ -0.590528, 44.851738 ], [ -0.590411, 44.851683 ], [ -0.590281, 44.851643 ], [ -0.590167, 44.8516 ], [ -0.590041, 44.851576 ], [ -0.589911, 44.851564 ], [ -0.589771, 44.851552 ], [ -0.589652, 44.851508 ], [ -0.589651, 44.851609 ], [ -0.589522, 44.851611 ], [ -0.589491, 44.851519 ], [ -0.589366, 44.851478 ], [ -0.589249, 44.851443 ], [ -0.589178, 44.851366 ], [ -0.589158, 44.851268 ], [ -0.589024, 44.851232 ], [ -0.588901, 44.851402 ], [ -0.588863, 44.851315 ], [ -0.588761, 44.851253 ], [ -0.588607, 44.851254 ], [ -0.5885, 44.85117 ], [ -0.588385, 44.851127 ], [ -0.588436, 44.850876 ], [ -0.588351, 44.851033 ], [ -0.588135, 44.851031 ], [ -0.587923, 44.851278 ], [ -0.588047, 44.851314 ], [ -0.588023, 44.851184 ], [ -0.588057, 44.851065 ], [ -0.587962, 44.850999 ], [ -0.587858, 44.850944 ], [ -0.587758, 44.850877 ], [ -0.587682, 44.850798 ], [ -0.587551, 44.850792 ], [ -0.587515, 44.850705 ], [ -0.587507, 44.850614 ], [ -0.587372, 44.850587 ], [ -0.587235, 44.850566 ], [ -0.58711, 44.850551 ], [ -0.586989, 44.850509 ], [ -0.586885, 44.850448 ], [ -0.586765, 44.850398 ], [ -0.586632, 44.850378 ], [ -0.586534, 44.850311 ], [ -0.586418, 44.850274 ], [ -0.586359, 44.850194 ], [ -0.5865, 44.85016 ], [ -0.586637, 44.850186 ], [ -0.58675, 44.850232 ], [ -0.586823, 44.850318 ], [ -0.58692, 44.850378 ], [ -0.58699, 44.850466 ], [ -0.587123, 44.85046 ], [ -0.587206, 44.850532 ], [ -0.587326, 44.850587 ], [ -0.5875, 44.850585 ], [ -0.587591, 44.850649 ], [ -0.587681, 44.85072 ], [ -0.587789, 44.850769 ], [ -0.587916, 44.850819 ], [ -0.588037, 44.850864 ], [ -0.58809, 44.850952 ], [ -0.588182, 44.851016 ], [ -0.58831, 44.851047 ], [ -0.588455, 44.851067 ], [ -0.588546, 44.851133 ], [ -0.588659, 44.851199 ], [ -0.588787, 44.851232 ], [ -0.588909, 44.851261 ], [ -0.589003, 44.851327 ], [ -0.589108, 44.851382 ], [ -0.589238, 44.851417 ], [ -0.589351, 44.851477 ], [ -0.589493, 44.851487 ], [ -0.589611, 44.851535 ], [ -0.589747, 44.851577 ], [ -0.589879, 44.851609 ], [ -0.590011, 44.851626 ], [ -0.590146, 44.851628 ], [ -0.590279, 44.85163 ], [ -0.590395, 44.851677 ], [ -0.590534, 44.851682 ], [ -0.590649, 44.851721 ], [ -0.590578, 44.851645 ], [ -0.590713, 44.851646 ], [ -0.590718, 44.851746 ], [ -0.590853, 44.851789 ], [ -0.590968, 44.851832 ], [ -0.591101, 44.851874 ], [ -0.591195, 44.851944 ], [ -0.591288, 44.852017 ], [ -0.591398, 44.852078 ], [ -0.591548, 44.852009 ], [ -0.591797, 44.852027 ], [ -0.591854, 44.852125 ], [ -0.591952, 44.852214 ], [ -0.592046, 44.852275 ], [ -0.592143, 44.852349 ], [ -0.59229, 44.852353 ], [ -0.592414, 44.852402 ], [ -0.592514, 44.852469 ], [ -0.592623, 44.852529 ], [ -0.592709, 44.852607 ], [ -0.592824, 44.852663 ], [ -0.592918, 44.852748 ], [ -0.593074, 44.852785 ], [ -0.59295, 44.85285 ], [ -0.592797, 44.852821 ], [ -0.592663, 44.852761 ], [ -0.59264, 44.85266 ], [ -0.592617, 44.852558 ], [ -0.592552, 44.852416 ], [ -0.592512, 44.852313 ], [ -0.591813, 44.851763 ], [ -0.591757, 44.851683 ], [ -0.591813, 44.851808 ], [ -0.591963, 44.852022 ], [ -0.592036, 44.852109 ], [ -0.592137, 44.852167 ], [ -0.592268, 44.852257 ], [ -0.592396, 44.85231 ], [ -0.592616, 44.852476 ], [ -0.592704, 44.852629 ], [ -0.592859, 44.852684 ], [ -0.592992, 44.852723 ], [ -0.592966, 44.852629 ], [ -0.592929, 44.852539 ], [ -0.592951, 44.852631 ], [ -0.592879, 44.852544 ], [ -0.593005, 44.852622 ], [ -0.593142, 44.852672 ], [ -0.593204, 44.852754 ], [ -0.593348, 44.852766 ], [ -0.593466, 44.852829 ], [ -0.593518, 44.852927 ], [ -0.593602, 44.853002 ], [ -0.593671, 44.853079 ], [ -0.59367, 44.85317 ], [ -0.593559, 44.853111 ], [ -0.593493, 44.853028 ], [ -0.593391, 44.852958 ], [ -0.593247, 44.852927 ], [ -0.59314, 44.852862 ], [ -0.59301, 44.852839 ], [ -0.59289, 44.852779 ], [ -0.592828, 44.852683 ], [ -0.592724, 44.852627 ], [ -0.592623, 44.852569 ], [ -0.592562, 44.852476 ], [ -0.592596, 44.852374 ], [ -0.59264, 44.852278 ], [ -0.592551, 44.852213 ], [ -0.592608, 44.852129 ], [ -0.592654, 44.852035 ], [ -0.592516, 44.852002 ], [ -0.592408, 44.851933 ], [ -0.592286, 44.851909 ], [ -0.592332, 44.851821 ], [ -0.592453, 44.851763 ], [ -0.592559, 44.851711 ], [ -0.592669, 44.851666 ], [ -0.592792, 44.851645 ], [ -0.59292, 44.851651 ], [ -0.593047, 44.851641 ], [ -0.593183, 44.851638 ], [ -0.593319, 44.851637 ], [ -0.593438, 44.851597 ], [ -0.593575, 44.851582 ], [ -0.593718, 44.851574 ], [ -0.593847, 44.851572 ], [ -0.593984, 44.851576 ], [ -0.594118, 44.85158 ], [ -0.594258, 44.851584 ], [ -0.594399, 44.851599 ], [ -0.594527, 44.851579 ], [ -0.594655, 44.851605 ], [ -0.594794, 44.851586 ], [ -0.594919, 44.851567 ], [ -0.594949, 44.851479 ], [ -0.594894, 44.851387 ], [ -0.594755, 44.85138 ], [ -0.594711, 44.851472 ], [ -0.594606, 44.851526 ], [ -0.594478, 44.85151 ], [ -0.594378, 44.851597 ], [ -0.59426, 44.851636 ], [ -0.594135, 44.851622 ], [ -0.594006, 44.851578 ], [ -0.593883, 44.851554 ], [ -0.593761, 44.851527 ], [ -0.593631, 44.851536 ], [ -0.593555, 44.85161 ], [ -0.59343, 44.851658 ], [ -0.593337, 44.851723 ], [ -0.593209, 44.851697 ], [ -0.593055, 44.851698 ], [ -0.592936, 44.851647 ], [ -0.592807, 44.851674 ], [ -0.59266, 44.851643 ], [ -0.592533, 44.851663 ], [ -0.592395, 44.851657 ], [ -0.592264, 44.851657 ], [ -0.59215, 44.851606 ], [ -0.592111, 44.851516 ], [ -0.59212, 44.851422 ], [ -0.59204, 44.851348 ], [ -0.591983, 44.851266 ], [ -0.59197, 44.851167 ], [ -0.59195, 44.851076 ], [ -0.591884, 44.850999 ], [ -0.591947, 44.85088 ], [ -0.592068, 44.85085 ], [ -0.592066, 44.850753 ], [ -0.592031, 44.850658 ], [ -0.592017, 44.850568 ], [ -0.592174, 44.850564 ], [ -0.592231, 44.850655 ], [ -0.592251, 44.850753 ], [ -0.592238, 44.850874 ], [ -0.592212, 44.850977 ], [ -0.592174, 44.851072 ], [ -0.592098, 44.850952 ], [ -0.591981, 44.850908 ], [ -0.591888, 44.850837 ], [ -0.591879, 44.850738 ], [ -0.591987, 44.850681 ], [ -0.59203, 44.85059 ], [ -0.59215, 44.850542 ], [ -0.592072, 44.850452 ], [ -0.592048, 44.850346 ], [ -0.591995, 44.850264 ], [ -0.592113, 44.850228 ], [ -0.592202, 44.850305 ], [ -0.592351, 44.850345 ], [ -0.592493, 44.850354 ], [ -0.592619, 44.850388 ], [ -0.59275, 44.850402 ], [ -0.592772, 44.850309 ], [ -0.592771, 44.850216 ], [ -0.592806, 44.850127 ], [ -0.592825, 44.85003 ], [ -0.592881, 44.849928 ], [ -0.592881, 44.849834 ], [ -0.592924, 44.849744 ], [ -0.593026, 44.849688 ], [ -0.593062, 44.8496 ], [ -0.593036, 44.849508 ], [ -0.593105, 44.84943 ], [ -0.593089, 44.849335 ], [ -0.593066, 44.849239 ], [ -0.593119, 44.849323 ], [ -0.593078, 44.849409 ], [ -0.593034, 44.849497 ], [ -0.593026, 44.849597 ], [ -0.593011, 44.849702 ], [ -0.592995, 44.849799 ], [ -0.592963, 44.849895 ], [ -0.593046, 44.849973 ], [ -0.593173, 44.85001 ], [ -0.593281, 44.850061 ], [ -0.593406, 44.850091 ], [ -0.593515, 44.850138 ], [ -0.593658, 44.850144 ], [ -0.593779, 44.850178 ], [ -0.593923, 44.850199 ], [ -0.59402, 44.850263 ], [ -0.594158, 44.850281 ], [ -0.594035, 44.850211 ], [ -0.594181, 44.850231 ], [ -0.594263, 44.850147 ], [ -0.594393, 44.850171 ], [ -0.594508, 44.850213 ], [ -0.594633, 44.850253 ], [ -0.594752, 44.850298 ], [ -0.594892, 44.850326 ], [ -0.594889, 44.85042 ], [ -0.594975, 44.850487 ], [ -0.595046, 44.850562 ], [ -0.595145, 44.850621 ], [ -0.595253, 44.850677 ], [ -0.595357, 44.850735 ], [ -0.595497, 44.850784 ], [ -0.595643, 44.850683 ], [ -0.595516, 44.850676 ], [ -0.59538, 44.850691 ], [ -0.595292, 44.850605 ], [ -0.595159, 44.850597 ], [ -0.595093, 44.850513 ], [ -0.594988, 44.850458 ], [ -0.595001, 44.850559 ], [ -0.594893, 44.850641 ], [ -0.594849, 44.850725 ], [ -0.594779, 44.850811 ], [ -0.594737, 44.8509 ], [ -0.594794, 44.851012 ], [ -0.594719, 44.851089 ], [ -0.594675, 44.851175 ], [ -0.594673, 44.851274 ], [ -0.594755, 44.851346 ], [ -0.594739, 44.851445 ], [ -0.594702, 44.851535 ], [ -0.594581, 44.851573 ], [ -0.594559, 44.851484 ], [ -0.5945, 44.851398 ], [ -0.594555, 44.851309 ], [ -0.594592, 44.851221 ], [ -0.594531, 44.851141 ], [ -0.594603, 44.851066 ], [ -0.594668, 44.850979 ], [ -0.594747, 44.850897 ], [ -0.594837, 44.850828 ], [ -0.59483, 44.850734 ], [ -0.594767, 44.85064 ], [ -0.594821, 44.850552 ], [ -0.594744, 44.850473 ], [ -0.594628, 44.85043 ], [ -0.594495, 44.850411 ], [ -0.594382, 44.850368 ], [ -0.594252, 44.850338 ], [ -0.594135, 44.850294 ], [ -0.59398, 44.850285 ], [ -0.593847, 44.850256 ], [ -0.5939, 44.850162 ], [ -0.594019, 44.850102 ], [ -0.594016, 44.850004 ], [ -0.594087, 44.849927 ], [ -0.594163, 44.849834 ], [ -0.594239, 44.849754 ], [ -0.594312, 44.849668 ], [ -0.59443, 44.84961 ], [ -0.594553, 44.849561 ], [ -0.594545, 44.849466 ], [ -0.594599, 44.849374 ], [ -0.594667, 44.849295 ], [ -0.594682, 44.849205 ], [ -0.594698, 44.849113 ], [ -0.594747, 44.849026 ], [ -0.594798, 44.848939 ], [ -0.594905, 44.848869 ], [ -0.59499, 44.848796 ], [ -0.595075, 44.848713 ], [ -0.59516, 44.848635 ], [ -0.595255, 44.848573 ], [ -0.595413, 44.84857 ], [ -0.595285, 44.848597 ], [ -0.595088, 44.848547 ], [ -0.594914, 44.848503 ], [ -0.594526, 44.848402 ], [ -0.594708, 44.848484 ], [ -0.594874, 44.848526 ], [ -0.595022, 44.848542 ], [ -0.594869, 44.848525 ], [ -0.594881, 44.848408 ], [ -0.594983, 44.848473 ], [ -0.595012, 44.848579 ], [ -0.595193, 44.848626 ], [ -0.595308, 44.848567 ], [ -0.595431, 44.848519 ], [ -0.595515, 44.848446 ], [ -0.595586, 44.848366 ], [ -0.595693, 44.848306 ], [ -0.5958, 44.848254 ], [ -0.595847, 44.84816 ], [ -0.595902, 44.848076 ], [ -0.596003, 44.847976 ], [ -0.596095, 44.847903 ], [ -0.59614, 44.847816 ], [ -0.596025, 44.847864 ], [ -0.595877, 44.847879 ], [ -0.595766, 44.847835 ], [ -0.595692, 44.847919 ], [ -0.595609, 44.847995 ], [ -0.595588, 44.848088 ], [ -0.595487, 44.848151 ], [ -0.595412, 44.84823 ], [ -0.595336, 44.848313 ], [ -0.595253, 44.848386 ], [ -0.595153, 44.848445 ], [ -0.595096, 44.848548 ], [ -0.595084, 44.848637 ], [ -0.595026, 44.848724 ], [ -0.594984, 44.848819 ], [ -0.594899, 44.848894 ], [ -0.59479, 44.848944 ], [ -0.594679, 44.849009 ], [ -0.594598, 44.849087 ], [ -0.594458, 44.849088 ], [ -0.594432, 44.849182 ], [ -0.594504, 44.849086 ], [ -0.594627, 44.849118 ], [ -0.594741, 44.849169 ], [ -0.594909, 44.849453 ], [ -0.594905, 44.84956 ], [ -0.595045, 44.849576 ], [ -0.59518, 44.849625 ], [ -0.595284, 44.849695 ], [ -0.595356, 44.849787 ], [ -0.595422, 44.849879 ], [ -0.595559, 44.849869 ], [ -0.595657, 44.849806 ], [ -0.595785, 44.84983 ], [ -0.595894, 44.849894 ], [ -0.595968, 44.849969 ], [ -0.59603, 44.850049 ], [ -0.596013, 44.849954 ], [ -0.595902, 44.849905 ], [ -0.595796, 44.849854 ], [ -0.595721, 44.849776 ], [ -0.595743, 44.849683 ], [ -0.595775, 44.84958 ], [ -0.595797, 44.849474 ], [ -0.595797, 44.849378 ], [ -0.595883, 44.84931 ], [ -0.595945, 44.849227 ], [ -0.596052, 44.849177 ], [ -0.596111, 44.849084 ], [ -0.59618, 44.849002 ], [ -0.596054, 44.849038 ], [ -0.595957, 44.849109 ], [ -0.595876, 44.849193 ], [ -0.595852, 44.84929 ], [ -0.595814, 44.849384 ], [ -0.595694, 44.849421 ], [ -0.595577, 44.849463 ], [ -0.595487, 44.849529 ], [ -0.595362, 44.84951 ], [ -0.595236, 44.849497 ], [ -0.595154, 44.849567 ], [ -0.595027, 44.849556 ], [ -0.594912, 44.849511 ], [ -0.594814, 44.849446 ], [ -0.594711, 44.849389 ], [ -0.594579, 44.849384 ], [ -0.594548, 44.849491 ], [ -0.594641, 44.849559 ], [ -0.594499, 44.849586 ], [ -0.594525, 44.849498 ], [ -0.594408, 44.849563 ], [ -0.594282, 44.849601 ], [ -0.594302, 44.849701 ], [ -0.594157, 44.849707 ], [ -0.594084, 44.849782 ], [ -0.593989, 44.849857 ], [ -0.594024, 44.849946 ], [ -0.593903, 44.850015 ], [ -0.593776, 44.850059 ], [ -0.593697, 44.850145 ], [ -0.593713, 44.850047 ], [ -0.593803, 44.849978 ], [ -0.593881, 44.849897 ], [ -0.593975, 44.849822 ], [ -0.594123, 44.849768 ], [ -0.594254, 44.849736 ], [ -0.594328, 44.849662 ], [ -0.594336, 44.849572 ], [ -0.5942, 44.849547 ], [ -0.594063, 44.849507 ], [ -0.593962, 44.849444 ], [ -0.593832, 44.849455 ], [ -0.59371, 44.849418 ], [ -0.593583, 44.849391 ], [ -0.59347, 44.849335 ], [ -0.593342, 44.849342 ], [ -0.593224, 44.849302 ], [ -0.593095, 44.849283 ], [ -0.593035, 44.849179 ], [ -0.593018, 44.849296 ], [ -0.592853, 44.84932 ], [ -0.592926, 44.84924 ], [ -0.592784, 44.84924 ], [ -0.592728, 44.849155 ], [ -0.592599, 44.849153 ], [ -0.592472, 44.849131 ], [ -0.592354, 44.849096 ], [ -0.592243, 44.849044 ], [ -0.592134, 44.849 ], [ -0.592017, 44.84896 ], [ -0.591948, 44.848878 ], [ -0.591946, 44.848783 ], [ -0.591933, 44.848681 ], [ -0.591801, 44.848641 ], [ -0.591846, 44.848734 ], [ -0.591863, 44.848825 ], [ -0.591887, 44.848919 ], [ -0.591931, 44.849013 ], [ -0.591949, 44.849102 ], [ -0.591934, 44.849197 ], [ -0.591951, 44.84929 ], [ -0.591977, 44.849387 ], [ -0.591958, 44.849481 ], [ -0.591945, 44.849573 ], [ -0.591958, 44.849669 ], [ -0.591948, 44.849765 ], [ -0.592024, 44.849838 ], [ -0.592154, 44.849832 ], [ -0.592017, 44.8499 ], [ -0.591943, 44.849973 ], [ -0.591941, 44.850073 ], [ -0.592021, 44.850143 ], [ -0.592011, 44.850234 ], [ -0.592031, 44.850131 ], [ -0.592031, 44.850033 ], [ -0.592017, 44.849934 ], [ -0.592038, 44.849842 ], [ -0.59208, 44.849754 ], [ -0.592196, 44.849796 ], [ -0.592315, 44.849849 ], [ -0.592433, 44.849892 ], [ -0.592555, 44.849915 ], [ -0.592691, 44.849928 ], [ -0.592808, 44.849962 ], [ -0.592934, 44.84998 ], [ -0.592806, 44.849988 ], [ -0.592678, 44.849964 ], [ -0.592578, 44.849898 ], [ -0.592442, 44.849877 ], [ -0.592309, 44.849849 ], [ -0.59219, 44.8498 ], [ -0.592055, 44.849771 ], [ -0.591954, 44.849709 ], [ -0.591827, 44.849684 ], [ -0.591706, 44.849638 ], [ -0.591604, 44.849574 ], [ -0.591488, 44.849648 ], [ -0.591358, 44.849614 ], [ -0.591218, 44.849596 ], [ -0.591114, 44.849542 ], [ -0.590989, 44.849514 ], [ -0.590968, 44.849605 ], [ -0.590859, 44.849658 ], [ -0.590849, 44.849751 ], [ -0.590823, 44.849845 ], [ -0.59094, 44.84981 ], [ -0.590824, 44.849899 ], [ -0.590749, 44.849978 ], [ -0.590758, 44.850076 ], [ -0.590689, 44.850155 ], [ -0.590627, 44.850241 ], [ -0.590645, 44.850345 ], [ -0.590102, 44.850281 ], [ -0.590241, 44.850315 ], [ -0.590369, 44.850343 ], [ -0.590489, 44.85037 ], [ -0.590558, 44.850455 ], [ -0.590408, 44.850489 ], [ -0.590254, 44.850573 ], [ -0.590163, 44.850648 ], [ -0.590301, 44.850597 ], [ -0.590427, 44.850638 ], [ -0.590378, 44.850727 ], [ -0.590337, 44.850818 ], [ -0.590228, 44.850871 ], [ -0.59011, 44.850913 ], [ -0.590227, 44.850863 ], [ -0.590257, 44.850955 ], [ -0.590349, 44.851023 ], [ -0.590309, 44.851123 ], [ -0.590281, 44.851032 ], [ -0.59017, 44.851075 ], [ -0.590171, 44.850969 ], [ -0.590241, 44.850887 ], [ -0.590127, 44.851006 ], [ -0.590104, 44.851096 ], [ -0.59, 44.851034 ], [ -0.589929, 44.850958 ], [ -0.589997, 44.85088 ], [ -0.590117, 44.850916 ], [ -0.590122, 44.851014 ], [ -0.590177, 44.85093 ], [ -0.590184, 44.851029 ], [ -0.590144, 44.851121 ], [ -0.590076, 44.851201 ], [ -0.590131, 44.851287 ], [ -0.590133, 44.85138 ], [ -0.590123, 44.851289 ], [ -0.5902, 44.851214 ], [ -0.590228, 44.85112 ], [ -0.590275, 44.851033 ], [ -0.590331, 44.850946 ], [ -0.590389, 44.850865 ], [ -0.590447, 44.850777 ], [ -0.59048, 44.850688 ], [ -0.590519, 44.850595 ], [ -0.590571, 44.850512 ], [ -0.590645, 44.850429 ], [ -0.590693, 44.85034 ], [ -0.590696, 44.850242 ], [ -0.590731, 44.85015 ], [ -0.590774, 44.85006 ] ], [ [ -0.591874, 44.850257 ], [ -0.591743, 44.850233 ], [ -0.591615, 44.850195 ], [ -0.591496, 44.850153 ], [ -0.591391, 44.850086 ], [ -0.591271, 44.850047 ], [ -0.591156, 44.850002 ], [ -0.591029, 44.849976 ], [ -0.590903, 44.849949 ], [ -0.590773, 44.84996 ], [ -0.590644, 44.849945 ], [ -0.590514, 44.849938 ], [ -0.59041, 44.849879 ], [ -0.590312, 44.849821 ], [ -0.590275, 44.849908 ], [ -0.590142, 44.849892 ], [ -0.590014, 44.849891 ], [ -0.589885, 44.849879 ], [ -0.589853, 44.849781 ], [ -0.58973, 44.849754 ], [ -0.589625, 44.849695 ], [ -0.589508, 44.849659 ], [ -0.589391, 44.849623 ], [ -0.589265, 44.849611 ], [ -0.589144, 44.849558 ], [ -0.589016, 44.849544 ], [ -0.588893, 44.849512 ], [ -0.588766, 44.849493 ], [ -0.588641, 44.849469 ], [ -0.588504, 44.849473 ], [ -0.588382, 44.849431 ], [ -0.58825, 44.849403 ], [ -0.588128, 44.849375 ], [ -0.588002, 44.849341 ], [ -0.587869, 44.849305 ], [ -0.587731, 44.849287 ], [ -0.587614, 44.849251 ], [ -0.587475, 44.849243 ], [ -0.587336, 44.849222 ], [ -0.587208, 44.849222 ], [ -0.587089, 44.849253 ], [ -0.587054, 44.849342 ], [ -0.586988, 44.84943 ], [ -0.586921, 44.849507 ], [ -0.58685, 44.849599 ], [ -0.586771, 44.849681 ], [ -0.586675, 44.849752 ], [ -0.5866, 44.849834 ], [ -0.586547, 44.849923 ], [ -0.586468, 44.849996 ], [ -0.586405, 44.850075 ], [ -0.586301, 44.850135 ], [ -0.586368, 44.850048 ], [ -0.586441, 44.849974 ], [ -0.586533, 44.849912 ], [ -0.586611, 44.849828 ], [ -0.586687, 44.849754 ], [ -0.586734, 44.849668 ], [ -0.586836, 44.849608 ], [ -0.586921, 44.84954 ], [ -0.586988, 44.849463 ], [ -0.587053, 44.849381 ], [ -0.587125, 44.849297 ], [ -0.587137, 44.849202 ], [ -0.587147, 44.849106 ], [ -0.587199, 44.849016 ], [ -0.587251, 44.848921 ], [ -0.587274, 44.84883 ], [ -0.587402, 44.84883 ], [ -0.587513, 44.848877 ], [ -0.587623, 44.848928 ], [ -0.587753, 44.848953 ], [ -0.587876, 44.848982 ], [ -0.587996, 44.849016 ], [ -0.588124, 44.849051 ], [ -0.588261, 44.849057 ], [ -0.588387, 44.84909 ], [ -0.588512, 44.849128 ], [ -0.588621, 44.849186 ], [ -0.588513, 44.849133 ], [ -0.588393, 44.849081 ], [ -0.588281, 44.849031 ], [ -0.58815, 44.849015 ], [ -0.588026, 44.848984 ], [ -0.5879, 44.848953 ], [ -0.587776, 44.848926 ], [ -0.587652, 44.848904 ], [ -0.587523, 44.848877 ], [ -0.587396, 44.848836 ], [ -0.587261, 44.848842 ], [ -0.587167, 44.848911 ], [ -0.587157, 44.849014 ], [ -0.587155, 44.849108 ], [ -0.587173, 44.849205 ], [ -0.587305, 44.84924 ], [ -0.587438, 44.849261 ], [ -0.587563, 44.849291 ], [ -0.587678, 44.84933 ], [ -0.587789, 44.849378 ], [ -0.587913, 44.849406 ], [ -0.588036, 44.849433 ], [ -0.588168, 44.849454 ], [ -0.588296, 44.849471 ], [ -0.588426, 44.849484 ], [ -0.588548, 44.84952 ], [ -0.588681, 44.849537 ], [ -0.588816, 44.849561 ], [ -0.588958, 44.849572 ], [ -0.589085, 44.849526 ], [ -0.589214, 44.849529 ], [ -0.589349, 44.849557 ], [ -0.589466, 44.849595 ], [ -0.589582, 44.849633 ], [ -0.589693, 44.849687 ], [ -0.589802, 44.849739 ], [ -0.589902, 44.849806 ], [ -0.590022, 44.849843 ], [ -0.590151, 44.849865 ], [ -0.590278, 44.849896 ], [ -0.590409, 44.849895 ], [ -0.590529, 44.849942 ], [ -0.590653, 44.849966 ], [ -0.590631, 44.850061 ], [ -0.590593, 44.850152 ], [ -0.590557, 44.850241 ], [ -0.590518, 44.850336 ], [ -0.590458, 44.850421 ], [ -0.590396, 44.850505 ], [ -0.590348, 44.850593 ], [ -0.590326, 44.850686 ], [ -0.590316, 44.850783 ], [ -0.590253, 44.850871 ], [ -0.590245, 44.850966 ], [ -0.590215, 44.851064 ], [ -0.590156, 44.851147 ], [ -0.590093, 44.85123 ], [ -0.590075, 44.851329 ], [ -0.590038, 44.851427 ], [ -0.590015, 44.851517 ], [ -0.590065, 44.851601 ], [ -0.590135, 44.851709 ], [ -0.590203, 44.85179 ], [ -0.59027, 44.851875 ], [ -0.590399, 44.851913 ], [ -0.590502, 44.85198 ], [ -0.590604, 44.852035 ], [ -0.590713, 44.8521 ], [ -0.590795, 44.85218 ], [ -0.590917, 44.852253 ], [ -0.591022, 44.852318 ], [ -0.591118, 44.8524 ], [ -0.591224, 44.852452 ], [ -0.591332, 44.852503 ], [ -0.591418, 44.852573 ], [ -0.59152, 44.852636 ], [ -0.591624, 44.852697 ], [ -0.591723, 44.852758 ], [ -0.591837, 44.852818 ], [ -0.591944, 44.852877 ], [ -0.592027, 44.852958 ], [ -0.59213, 44.853023 ], [ -0.592239, 44.853083 ], [ -0.592334, 44.853144 ], [ -0.592445, 44.853196 ], [ -0.59255, 44.85326 ], [ -0.592617, 44.853339 ], [ -0.592671, 44.853428 ], [ -0.592736, 44.853509 ], [ -0.592809, 44.853586 ], [ -0.592729, 44.85367 ], [ -0.592622, 44.853731 ], [ -0.592749, 44.853791 ], [ -0.592419, 44.853743 ] ] ] } }
]
}
