{
"type": "FeatureCollection",
"name": "10_8",
"crs": { "type": "name", "properties": { "name": "urn:ogc:def:crs:OGC:1.3:CRS84" } },
"features": [
{ "type": "Feature", "properties": { "Name": "10 mars 2020 10:50:13", "description": "", "timestamp": null, "begin": "2020\/03\/10 09:50:13", "end": "2020\/03\/10 14:50:29", "altitudeMode": null, "tessellate": -1, "extrude": 0, "visibility": -1, "drawOrder": null, "icon": null }, "geometry": { "type": "MultiLineString", "coordinates": [ [ [ -0.567664, 44.838204 ], [ -0.567539, 44.838125 ], [ -0.56767, 44.838134 ], [ -0.567558, 44.838182 ], [ -0.567673, 44.838121 ], [ -0.567794, 44.838152 ], [ -0.567821, 44.838054 ], [ -0.567947, 44.83805 ], [ -0.56794, 44.837956 ], [ -0.568178, 44.83849 ], [ -0.568136, 44.838399 ], [ -0.568053, 44.838006 ], [ -0.568134, 44.838077 ], [ -0.568223, 44.838145 ], [ -0.568296, 44.838218 ], [ -0.568393, 44.838291 ], [ -0.568457, 44.838373 ], [ -0.56844, 44.838485 ], [ -0.568554, 44.838531 ], [ -0.56888, 44.838419 ], [ -0.568904, 44.838517 ], [ -0.568869, 44.838618 ], [ -0.568816, 44.838722 ], [ -0.568691, 44.838756 ], [ -0.568824, 44.838779 ], [ -0.569042, 44.839166 ], [ -0.568903, 44.838867 ] ], [ [ -0.568939, 44.8389 ], [ -0.569024, 44.838978 ], [ -0.569002, 44.839072 ], [ -0.568994, 44.839341 ], [ -0.568957, 44.839437 ], [ -0.568918, 44.839525 ], [ -0.569234, 44.839511 ], [ -0.569383, 44.839475 ], [ -0.569554, 44.839469 ], [ -0.569667, 44.83958 ], [ -0.569558, 44.839644 ], [ -0.569605, 44.839546 ], [ -0.569687, 44.839477 ], [ -0.569571, 44.839522 ], [ -0.569462, 44.839571 ], [ -0.569501, 44.839657 ], [ -0.569566, 44.839741 ], [ -0.569554, 44.839832 ], [ -0.569494, 44.840403 ], [ -0.569563, 44.839885 ], [ -0.569569, 44.840308 ], [ -0.569573, 44.839935 ], [ -0.56945, 44.840385 ], [ -0.569574, 44.839949 ], [ -0.569491, 44.840041 ], [ -0.569494, 44.840146 ], [ -0.569484, 44.84025 ], [ -0.569426, 44.840342 ], [ -0.569345, 44.840273 ], [ -0.569256, 44.840206 ], [ -0.569152, 44.840133 ], [ -0.569128, 44.840042 ], [ -0.569164, 44.839949 ], [ -0.569319, 44.839876 ], [ -0.569565, 44.839822 ], [ -0.56932, 44.83984 ], [ -0.569209, 44.839896 ], [ -0.569096, 44.839938 ], [ -0.568568, 44.840204 ], [ -0.568967, 44.839934 ], [ -0.569085, 44.839896 ], [ -0.569309, 44.839785 ], [ -0.569176, 44.839785 ], [ -0.568996, 44.839801 ], [ -0.568936, 44.839711 ], [ -0.568877, 44.83957 ], [ -0.568936, 44.839703 ], [ -0.568904, 44.839616 ], [ -0.568793, 44.839545 ], [ -0.568731, 44.839448 ], [ -0.56866, 44.83935 ], [ -0.568637, 44.839248 ], [ -0.568588, 44.839163 ], [ -0.568466, 44.83922 ], [ -0.568497, 44.839128 ], [ -0.568614, 44.839214 ], [ -0.568483, 44.839143 ], [ -0.568587, 44.838997 ], [ -0.568454, 44.839007 ], [ -0.568514, 44.838914 ], [ -0.568777, 44.839112 ], [ -0.568627, 44.838863 ], [ -0.568506, 44.838822 ], [ -0.568386, 44.838863 ], [ -0.568256, 44.838852 ], [ -0.568354, 44.838794 ], [ -0.568457, 44.838736 ], [ -0.568343, 44.838783 ], [ -0.568272, 44.838589 ], [ -0.568263, 44.83868 ], [ -0.568163, 44.838621 ], [ -0.568032, 44.838593 ], [ -0.567974, 44.838513 ], [ -0.567878, 44.838451 ], [ -0.567808, 44.838372 ], [ -0.567811, 44.838464 ], [ -0.567923, 44.838519 ], [ -0.567992, 44.838608 ], [ -0.568093, 44.838666 ], [ -0.56817, 44.838761 ], [ -0.568254, 44.838849 ], [ -0.568296, 44.838934 ], [ -0.568355, 44.839016 ], [ -0.568533, 44.83903 ], [ -0.568208, 44.839064 ], [ -0.568075, 44.839084 ], [ -0.568202, 44.83905 ], [ -0.568117, 44.838969 ], [ -0.568301, 44.839052 ], [ -0.568096, 44.839161 ], [ -0.568237, 44.839179 ], [ -0.568597, 44.839234 ], [ -0.56847, 44.839143 ], [ -0.568206, 44.839178 ], [ -0.568344, 44.839163 ], [ -0.568448, 44.839216 ], [ -0.568511, 44.839323 ], [ -0.568585, 44.839403 ], [ -0.568708, 44.83946 ], [ -0.568767, 44.839547 ], [ -0.568864, 44.839607 ], [ -0.568906, 44.839692 ], [ -0.568966, 44.839774 ], [ -0.569006, 44.839864 ], [ -0.569067, 44.839967 ], [ -0.569086, 44.840064 ], [ -0.569135, 44.840152 ], [ -0.569217, 44.840231 ], [ -0.569259, 44.840323 ], [ -0.569328, 44.840402 ], [ -0.569388, 44.840492 ], [ -0.569447, 44.840589 ], [ -0.569521, 44.840674 ], [ -0.569563, 44.840779 ], [ -0.569594, 44.840881 ], [ -0.569606, 44.840973 ], [ -0.569728, 44.841022 ], [ -0.569868, 44.840995 ], [ -0.569997, 44.840973 ], [ -0.570128, 44.841018 ], [ -0.570239, 44.84109 ], [ -0.57028, 44.841187 ], [ -0.570412, 44.841205 ], [ -0.570517, 44.841265 ], [ -0.57064, 44.84122 ], [ -0.57133, 44.840734 ], [ -0.571386, 44.840971 ], [ -0.571335, 44.841095 ], [ -0.571335, 44.8412 ], [ -0.571347, 44.84129 ], [ -0.571214, 44.841299 ], [ -0.571137, 44.841228 ], [ -0.571005, 44.841208 ], [ -0.570861, 44.841182 ], [ -0.571038, 44.841173 ], [ -0.57089, 44.841198 ], [ -0.57103, 44.841098 ], [ -0.570853, 44.841162 ], [ -0.570929, 44.841071 ], [ -0.57105, 44.84103 ], [ -0.571171, 44.840981 ], [ -0.571287, 44.841157 ], [ -0.571316, 44.841028 ], [ -0.571315, 44.840935 ], [ -0.571256, 44.840825 ], [ -0.571294, 44.840727 ], [ -0.57134, 44.840634 ], [ -0.571044, 44.840326 ], [ -0.570876, 44.84035 ], [ -0.570817, 44.840237 ], [ -0.570879, 44.84015 ], [ -0.570899, 44.840061 ], [ -0.570745, 44.840094 ], [ -0.570667, 44.839875 ], [ -0.57031, 44.839847 ], [ -0.570213, 44.839768 ], [ -0.570231, 44.83966 ], [ -0.570277, 44.839571 ], [ -0.570553, 44.839709 ], [ -0.570641, 44.83979 ], [ -0.570719, 44.839883 ], [ -0.57081, 44.839977 ], [ -0.570686, 44.839944 ], [ -0.570607, 44.839863 ], [ -0.570404, 44.839707 ], [ -0.570482, 44.839631 ], [ -0.570349, 44.83963 ], [ -0.57038, 44.839252 ], [ -0.570182, 44.839326 ], [ -0.570328, 44.839326 ], [ -0.570474, 44.839356 ], [ -0.570239, 44.839305 ], [ -0.570202, 44.839204 ], [ -0.570313, 44.838923 ], [ -0.570267, 44.839011 ], [ -0.570173, 44.839086 ], [ -0.570184, 44.839182 ], [ -0.57031, 44.839191 ], [ -0.570237, 44.83928 ], [ -0.570157, 44.839381 ], [ -0.570081, 44.839456 ], [ -0.570082, 44.839547 ], [ -0.569977, 44.83962 ], [ -0.569848, 44.839666 ], [ -0.569703, 44.83965 ], [ -0.569795, 44.839769 ], [ -0.569867, 44.839847 ], [ -0.569739, 44.839853 ], [ -0.56978, 44.839726 ], [ -0.569737, 44.839829 ], [ -0.569651, 44.839907 ], [ -0.569545, 44.839957 ], [ -0.569667, 44.839912 ], [ -0.569789, 44.839942 ], [ -0.569974, 44.840353 ], [ -0.569792, 44.839958 ], [ -0.569849, 44.840053 ], [ -0.570469, 44.84075 ], [ -0.569856, 44.840061 ] ], [ [ -0.570167, 44.840156 ], [ -0.570372, 44.840193 ], [ -0.570506, 44.840211 ], [ -0.570663, 44.840198 ], [ -0.570796, 44.840189 ], [ -0.570897, 44.840248 ], [ -0.570967, 44.840334 ], [ -0.571073, 44.840393 ], [ -0.571196, 44.840357 ], [ -0.57114, 44.840276 ], [ -0.571076, 44.840191 ], [ -0.571188, 44.840554 ], [ -0.571057, 44.84052 ], [ -0.570895, 44.840975 ], [ -0.570854, 44.840824 ], [ -0.570991, 44.84084 ], [ -0.571124, 44.840821 ], [ -0.571235, 44.84071 ], [ -0.571146, 44.840614 ], [ -0.571045, 44.840544 ], [ -0.570944, 44.840475 ], [ -0.57088, 44.840389 ], [ -0.571081, 44.840382 ], [ -0.57121, 44.840375 ], [ -0.57121, 44.840283 ], [ -0.571252, 44.840191 ], [ -0.571266, 44.840287 ], [ -0.571279, 44.840377 ], [ -0.57142, 44.840402 ], [ -0.571545, 44.840371 ], [ -0.571676, 44.840332 ], [ -0.571585, 44.840407 ], [ -0.571636, 44.840299 ], [ -0.571667, 44.840205 ], [ -0.571724, 44.840293 ], [ -0.571674, 44.840381 ], [ -0.571657, 44.840472 ], [ -0.571704, 44.840568 ], [ -0.571773, 44.840645 ], [ -0.571842, 44.840724 ], [ -0.571746, 44.840794 ], [ -0.571868, 44.840832 ], [ -0.571884, 44.840922 ], [ -0.571968, 44.840848 ], [ -0.571932, 44.840751 ], [ -0.572068, 44.840756 ], [ -0.572188, 44.840794 ], [ -0.572314, 44.840768 ], [ -0.572336, 44.840679 ], [ -0.572868, 44.840531 ], [ -0.572373, 44.840655 ], [ -0.572499, 44.840591 ], [ -0.572628, 44.840567 ], [ -0.572762, 44.840612 ], [ -0.5729, 44.840631 ], [ -0.573025, 44.840663 ], [ -0.57314, 44.840609 ], [ -0.573264, 44.840629 ], [ -0.573403, 44.840641 ], [ -0.573527, 44.840711 ], [ -0.573626, 44.840595 ], [ -0.573098, 44.84016 ], [ -0.573033, 44.840082 ], [ -0.573135, 44.84024 ], [ -0.573007, 44.840219 ], [ -0.573038, 44.840309 ], [ -0.572961, 44.840237 ], [ -0.572615, 44.840281 ], [ -0.572909, 44.840226 ], [ -0.572783, 44.840202 ], [ -0.572656, 44.840238 ], [ -0.572555, 44.840159 ], [ -0.572416, 44.840258 ], [ -0.572467, 44.840175 ], [ -0.57239, 44.840089 ], [ -0.572459, 44.840179 ], [ -0.572243, 44.83995 ], [ -0.572453, 44.840175 ], [ -0.572037, 44.84016 ], [ -0.572442, 44.840168 ], [ -0.572324, 44.840102 ], [ -0.572193, 44.840102 ], [ -0.572051, 44.840134 ], [ -0.572006, 44.840221 ], [ -0.571911, 44.84016 ], [ -0.57194, 44.840259 ], [ -0.571886, 44.840351 ], [ -0.571927, 44.84025 ], [ -0.571961, 44.840146 ], [ -0.571983, 44.840052 ], [ -0.571849, 44.840046 ] ], [ [ -0.5684, 44.838001 ], [ -0.568527, 44.837961 ], [ -0.568613, 44.838033 ], [ -0.568752, 44.838016 ], [ -0.568881, 44.837992 ], [ -0.568927, 44.837902 ], [ -0.568999, 44.837826 ], [ -0.569142, 44.837802 ], [ -0.569052, 44.837902 ], [ -0.569139, 44.837804 ], [ -0.569057, 44.837906 ], [ -0.569276, 44.837921 ], [ -0.569115, 44.837912 ], [ -0.569251, 44.837934 ], [ -0.569388, 44.837942 ], [ -0.569529, 44.837922 ], [ -0.569655, 44.837942 ], [ -0.56975, 44.838013 ], [ -0.569871, 44.838042 ], [ -0.569976, 44.83799 ], [ -0.569857, 44.838054 ], [ -0.569783, 44.838129 ], [ -0.569744, 44.838239 ], [ -0.569661, 44.838308 ], [ -0.569568, 44.83837 ], [ -0.569777, 44.83854 ], [ -0.569659, 44.838494 ], [ -0.569452, 44.838259 ], [ -0.569576, 44.83831 ], [ -0.569685, 44.838356 ], [ -0.569572, 44.838309 ], [ -0.56942, 44.838331 ], [ -0.56928, 44.838361 ], [ -0.569164, 44.838402 ], [ -0.56908, 44.838473 ], [ -0.569227, 44.838543 ], [ -0.569086, 44.838544 ], [ -0.568994, 44.83848 ], [ -0.568989, 44.838576 ], [ -0.56889, 44.838666 ], [ -0.568986, 44.83873 ], [ -0.569015, 44.83864 ], [ -0.569058, 44.838538 ], [ -0.569169, 44.838588 ], [ -0.5693, 44.838613 ], [ -0.569421, 44.838562 ], [ -0.569502, 44.838485 ], [ -0.569631, 44.838462 ], [ -0.569564, 44.838254 ], [ -0.569597, 44.838344 ], [ -0.569641, 44.838429 ], [ -0.569684, 44.838518 ], [ -0.569589, 44.838432 ], [ -0.569724, 44.838392 ], [ -0.569832, 44.83844 ], [ -0.569787, 44.838354 ], [ -0.569825, 44.838226 ], [ -0.56987, 44.838367 ], [ -0.569972, 44.838306 ], [ -0.570116, 44.838365 ], [ -0.570163, 44.83827 ], [ -0.570295, 44.838241 ], [ -0.570337, 44.838146 ], [ -0.570634, 44.838117 ], [ -0.570456, 44.838223 ], [ -0.570562, 44.83815 ], [ -0.570584, 44.83806 ], [ -0.570688, 44.837992 ], [ -0.570758, 44.838159 ], [ -0.571034, 44.838153 ], [ -0.570908, 44.838169 ] ] ] } }
]
}
