{
"type": "FeatureCollection",
"name": "29 févr 2020 09:10:16",
"crs": { "type": "name", "properties": { "name": "urn:ogc:def:crs:OGC:1.3:CRS84" } },
"features": [
{ "type": "Feature", "properties": { "Name": "29 févr 2020 09:10:16", "description": "", "begin": "2020\/02\/29 08:10:16.703+00", "end": "2020\/02\/29 12:16:32.965+00" }, "geometry": { "type": "MultiLineString", "coordinates": [ [ [ 3.900771, 43.600873 ], [ 3.900656, 43.600792 ], [ 3.900433, 43.600626 ], [ 3.900412, 43.600717 ], [ 3.900497, 43.600649 ], [ 3.900535, 43.60056 ], [ 3.900449, 43.600478 ], [ 3.900339, 43.600436 ], [ 3.900211, 43.600419 ], [ 3.900206, 43.600311 ], [ 3.90022, 43.600201 ], [ 3.900351, 43.600241 ], [ 3.900371, 43.600359 ], [ 3.900389, 43.600493 ], [ 3.900412, 43.600621 ], [ 3.900443, 43.60074 ], [ 3.900477, 43.600852 ], [ 3.900515, 43.600942 ], [ 3.900406, 43.600876 ], [ 3.90037, 43.600775 ], [ 3.900278, 43.600711 ], [ 3.90019, 43.600624 ], [ 3.900233, 43.600716 ], [ 3.900277, 43.600827 ], [ 3.900309, 43.600925 ], [ 3.900328, 43.601017 ], [ 3.900264, 43.601099 ], [ 3.900244, 43.601192 ], [ 3.900189, 43.601286 ], [ 3.900275, 43.601208 ], [ 3.90039, 43.601249 ] ], [ [ 3.899317, 43.603128 ], [ 3.899323, 43.603222 ], [ 3.899258, 43.603142 ], [ 3.899145, 43.60308 ], [ 3.899022, 43.603044 ], [ 3.898947, 43.602963 ], [ 3.8989, 43.602872 ], [ 3.898773, 43.602884 ], [ 3.898509, 43.602922 ], [ 3.899135, 43.602468 ], [ 3.898984, 43.602506 ], [ 3.899058, 43.602591 ], [ 3.898242, 43.603444 ], [ 3.898498, 43.603105 ], [ 3.898815, 43.602696 ], [ 3.899002, 43.602704 ], [ 3.898933, 43.602784 ], [ 3.898847, 43.602861 ], [ 3.898755, 43.602792 ], [ 3.89862, 43.602822 ], [ 3.898709, 43.602908 ], [ 3.898728, 43.603004 ], [ 3.898727, 43.603098 ], [ 3.898756, 43.603189 ], [ 3.898797, 43.603101 ], [ 3.898817, 43.602991 ], [ 3.898848, 43.602868 ], [ 3.898846, 43.602729 ], [ 3.898856, 43.602564 ], [ 3.898879, 43.602395 ], [ 3.898914, 43.602245 ], [ 3.898925, 43.602115 ], [ 3.898927, 43.602002 ], [ 3.898927, 43.601905 ], [ 3.898908, 43.601812 ], [ 3.898894, 43.601688 ], [ 3.898959, 43.601594 ], [ 3.898998, 43.601479 ], [ 3.898887, 43.601379 ], [ 3.898741, 43.601303 ], [ 3.898572, 43.601229 ], [ 3.898394, 43.601173 ], [ 3.89821, 43.601115 ], [ 3.898032, 43.601058 ], [ 3.897839, 43.601018 ], [ 3.897662, 43.600975 ], [ 3.897554, 43.600904 ], [ 3.897746, 43.600941 ], [ 3.897932, 43.60101 ], [ 3.898131, 43.6011 ], [ 3.898234, 43.601152 ], [ 3.898448, 43.601229 ], [ 3.898667, 43.601291 ], [ 3.898881, 43.601365 ], [ 3.898993, 43.601406 ], [ 3.899116, 43.60145 ], [ 3.899239, 43.601494 ], [ 3.899365, 43.601527 ], [ 3.8995, 43.601548 ], [ 3.899644, 43.601558 ], [ 3.899781, 43.601575 ], [ 3.899902, 43.6016 ], [ 3.900116, 43.601661 ], [ 3.900304, 43.601694 ], [ 3.900448, 43.601696 ], [ 3.900604, 43.601676 ], [ 3.900488, 43.601641 ] ], [ [ 3.909938, 43.605065 ], [ 3.909893, 43.604903 ], [ 3.909828, 43.604985 ], [ 3.909952, 43.604953 ], [ 3.909955, 43.604849 ], [ 3.909817, 43.604843 ], [ 3.909898, 43.604931 ], [ 3.909917, 43.60474 ], [ 3.910021, 43.60481 ], [ 3.90991, 43.604855 ], [ 3.910021, 43.60481 ] ], [ [ 3.910346, 43.604787 ], [ 3.910237, 43.6045 ], [ 3.910237, 43.604745 ], [ 3.910146, 43.60462 ], [ 3.910049, 43.604502 ], [ 3.909933, 43.604365 ], [ 3.909804, 43.604227 ], [ 3.909678, 43.604103 ], [ 3.909582, 43.604006 ], [ 3.909702, 43.603966 ], [ 3.909959, 43.603963 ], [ 3.910123, 43.603967 ], [ 3.91027, 43.603935 ], [ 3.910407, 43.603908 ], [ 3.910611, 43.603911 ], [ 3.910813, 43.603918 ], [ 3.911019, 43.603925 ], [ 3.911208, 43.603923 ], [ 3.911377, 43.603915 ], [ 3.911509, 43.603889 ], [ 3.911621, 43.603828 ], [ 3.911622, 43.603728 ], [ 3.911467, 43.603687 ], [ 3.911261, 43.603647 ], [ 3.91102, 43.603606 ], [ 3.910883, 43.603585 ], [ 3.910745, 43.603562 ], [ 3.910597, 43.603542 ], [ 3.910443, 43.603523 ], [ 3.910286, 43.603507 ], [ 3.910127, 43.603489 ], [ 3.909961, 43.603466 ], [ 3.909791, 43.603447 ], [ 3.909614, 43.603434 ], [ 3.90943, 43.603428 ], [ 3.909242, 43.603426 ], [ 3.909052, 43.603424 ], [ 3.908864, 43.603422 ], [ 3.908678, 43.603423 ], [ 3.908498, 43.603434 ], [ 3.908318, 43.603443 ], [ 3.908138, 43.603455 ], [ 3.90796, 43.603474 ], [ 3.907795, 43.603492 ], [ 3.907654, 43.603514 ], [ 3.907444, 43.603537 ], [ 3.90732, 43.603593 ], [ 3.907172, 43.603641 ], [ 3.906985, 43.603632 ], [ 3.906747, 43.603586 ], [ 3.906618, 43.603556 ], [ 3.906497, 43.603509 ], [ 3.906386, 43.603451 ], [ 3.906272, 43.603389 ], [ 3.906141, 43.603338 ], [ 3.906003, 43.603294 ], [ 3.905851, 43.603259 ], [ 3.905689, 43.603226 ], [ 3.905362, 43.603156 ], [ 3.905203, 43.603121 ], [ 3.905053, 43.603086 ], [ 3.904914, 43.603051 ], [ 3.904783, 43.60302 ], [ 3.904665, 43.602994 ], [ 3.904482, 43.602947 ], [ 3.904345, 43.602888 ], [ 3.904157, 43.602828 ], [ 3.903957, 43.602769 ], [ 3.903728, 43.602695 ], [ 3.903597, 43.602646 ], [ 3.903459, 43.602598 ], [ 3.903315, 43.602545 ], [ 3.903167, 43.602494 ], [ 3.90302, 43.602452 ], [ 3.902876, 43.602412 ], [ 3.902735, 43.602372 ], [ 3.902597, 43.602337 ], [ 3.902469, 43.602307 ], [ 3.90225, 43.602254 ], [ 3.902095, 43.602215 ], [ 3.901959, 43.602179 ], [ 3.901831, 43.602165 ], [ 3.901668, 43.602138 ], [ 3.901532, 43.602121 ], [ 3.901403, 43.602176 ], [ 3.901262, 43.602237 ], [ 3.90107, 43.602305 ], [ 3.900867, 43.602337 ], [ 3.900695, 43.602301 ], [ 3.900584, 43.602228 ], [ 3.900502, 43.602132 ], [ 3.900436, 43.602022 ], [ 3.900358, 43.601945 ], [ 3.900229, 43.601853 ], [ 3.900063, 43.601796 ], [ 3.899863, 43.601752 ], [ 3.899649, 43.601691 ], [ 3.899435, 43.601606 ], [ 3.89927, 43.60153 ], [ 3.899193, 43.601439 ], [ 3.899185, 43.601341 ], [ 3.899045, 43.601332 ], [ 3.898905, 43.601329 ], [ 3.89873, 43.601298 ], [ 3.898526, 43.601234 ], [ 3.898321, 43.601171 ], [ 3.898123, 43.601113 ], [ 3.897947, 43.601073 ], [ 3.897787, 43.601025 ], [ 3.89762, 43.600995 ], [ 3.897506, 43.600894 ], [ 3.897451, 43.600795 ], [ 3.897375, 43.600695 ], [ 3.897228, 43.600643 ], [ 3.89707, 43.600564 ], [ 3.896939, 43.600487 ], [ 3.896799, 43.6004 ], [ 3.896646, 43.60032 ], [ 3.896504, 43.600251 ], [ 3.896369, 43.600188 ], [ 3.896237, 43.600117 ], [ 3.896125, 43.600044 ], [ 3.895982, 43.599964 ], [ 3.895824, 43.599889 ], [ 3.895666, 43.599834 ], [ 3.895486, 43.599818 ], [ 3.895302, 43.599825 ], [ 3.895142, 43.599878 ], [ 3.895012, 43.599947 ], [ 3.894904, 43.600004 ], [ 3.894757, 43.600071 ], [ 3.89462, 43.600108 ], [ 3.894489, 43.600049 ], [ 3.894415, 43.599964 ], [ 3.89434, 43.599838 ], [ 3.89429, 43.599753 ], [ 3.894236, 43.599668 ], [ 3.894178, 43.599583 ], [ 3.894117, 43.599498 ], [ 3.894044, 43.599422 ], [ 3.893973, 43.599343 ], [ 3.893914, 43.599258 ], [ 3.893849, 43.599163 ], [ 3.893789, 43.59906 ], [ 3.893727, 43.598954 ], [ 3.893665, 43.598852 ], [ 3.893607, 43.598745 ], [ 3.893552, 43.598637 ], [ 3.893494, 43.598536 ], [ 3.893435, 43.598441 ], [ 3.893374, 43.598353 ], [ 3.893314, 43.598269 ], [ 3.89326, 43.598181 ], [ 3.893205, 43.598093 ], [ 3.893153, 43.598009 ], [ 3.893065, 43.597855 ], [ 3.892995, 43.597744 ], [ 3.892946, 43.597653 ], [ 3.892901, 43.597565 ], [ 3.89285, 43.59747 ], [ 3.892724, 43.597393 ], [ 3.892554, 43.597445 ], [ 3.892392, 43.597507 ], [ 3.892213, 43.597564 ], [ 3.892043, 43.59762 ], [ 3.891904, 43.597652 ], [ 3.891753, 43.597701 ], [ 3.891616, 43.597782 ], [ 3.891494, 43.597856 ], [ 3.891377, 43.597893 ], [ 3.891143, 43.59786 ], [ 3.891302, 43.597972 ], [ 3.891416, 43.597872 ], [ 3.891321, 43.597963 ], [ 3.891211, 43.598054 ], [ 3.891073, 43.598148 ], [ 3.89095, 43.598164 ], [ 3.891103, 43.598106 ], [ 3.891207, 43.598038 ], [ 3.891316, 43.597971 ], [ 3.891431, 43.597903 ], [ 3.891538, 43.597836 ], [ 3.891642, 43.597755 ], [ 3.891765, 43.597741 ], [ 3.891898, 43.597688 ], [ 3.892063, 43.597621 ], [ 3.892208, 43.597575 ], [ 3.892346, 43.597533 ], [ 3.892473, 43.597485 ], [ 3.892594, 43.597442 ], [ 3.892722, 43.597382 ], [ 3.892772, 43.597273 ], [ 3.892698, 43.597165 ], [ 3.89265, 43.597075 ], [ 3.89259, 43.59695 ], [ 3.892521, 43.596798 ], [ 3.89244, 43.596627 ], [ 3.892392, 43.596538 ], [ 3.892333, 43.596452 ], [ 3.89226, 43.596371 ], [ 3.892179, 43.596291 ], [ 3.892098, 43.596211 ], [ 3.892015, 43.596133 ], [ 3.891937, 43.596055 ], [ 3.89186, 43.595976 ], [ 3.891784, 43.595902 ], [ 3.891704, 43.595827 ], [ 3.891622, 43.595749 ], [ 3.89154, 43.595667 ], [ 3.891455, 43.595589 ], [ 3.891367, 43.595509 ], [ 3.891278, 43.595426 ], [ 3.891186, 43.595339 ], [ 3.89109, 43.595255 ], [ 3.890993, 43.595171 ], [ 3.890898, 43.595087 ], [ 3.890808, 43.594999 ], [ 3.890719, 43.594908 ], [ 3.890617, 43.59482 ], [ 3.890506, 43.594741 ], [ 3.890396, 43.594657 ], [ 3.8903, 43.594562 ], [ 3.890231, 43.594451 ], [ 3.890177, 43.594331 ], [ 3.890129, 43.594213 ], [ 3.89008, 43.594097 ], [ 3.890036, 43.593981 ], [ 3.889991, 43.593877 ], [ 3.889965, 43.593787 ], [ 3.889937, 43.593626 ], [ 3.889912, 43.593466 ], [ 3.889899, 43.593304 ], [ 3.88987, 43.593158 ], [ 3.889827, 43.593046 ], [ 3.889732, 43.592959 ], [ 3.889663, 43.592849 ], [ 3.889691, 43.592707 ], [ 3.889729, 43.592528 ], [ 3.889734, 43.592436 ], [ 3.889734, 43.592346 ], [ 3.889744, 43.592174 ], [ 3.889752, 43.592001 ], [ 3.889756, 43.591823 ], [ 3.889769, 43.591656 ], [ 3.889783, 43.591505 ], [ 3.889795, 43.591388 ], [ 3.889828, 43.591294 ], [ 3.889824, 43.591189 ], [ 3.889698, 43.591147 ], [ 3.889634, 43.591065 ], [ 3.88964, 43.590949 ], [ 3.889681, 43.590861 ] ], [ [ 3.892743, 43.59727 ], [ 3.892539, 43.597231 ], [ 3.892277, 43.597244 ], [ 3.892649, 43.597394 ], [ 3.892757, 43.597448 ], [ 3.892813, 43.597532 ], [ 3.892847, 43.597622 ], [ 3.892923, 43.597714 ], [ 3.892968, 43.597804 ], [ 3.893046, 43.597907 ], [ 3.893113, 43.597992 ], [ 3.89315, 43.598078 ], [ 3.893232, 43.598146 ], [ 3.893255, 43.598242 ], [ 3.893312, 43.598328 ], [ 3.893355, 43.598423 ], [ 3.893448, 43.598487 ], [ 3.893489, 43.598574 ], [ 3.893498, 43.598665 ], [ 3.893596, 43.59873 ], [ 3.893704, 43.598786 ], [ 3.893798, 43.59885 ], [ 3.893822, 43.598949 ] ], [ [ 3.889948, 43.597059 ], [ 3.889567, 43.597113 ], [ 3.889705, 43.597095 ], [ 3.889849, 43.59707 ], [ 3.889864, 43.596974 ], [ 3.889744, 43.597008 ], [ 3.889633, 43.597069 ], [ 3.889518, 43.597109 ], [ 3.889494, 43.597199 ], [ 3.889368, 43.597225 ], [ 3.889234, 43.597251 ] ], [ [ 3.889146, 43.597317 ], [ 3.889324, 43.597201 ], [ 3.889084, 43.597276 ], [ 3.889203, 43.59723 ], [ 3.889314, 43.597171 ], [ 3.889415, 43.597107 ], [ 3.889515, 43.597047 ], [ 3.889571, 43.596964 ], [ 3.889611, 43.596874 ], [ 3.889729, 43.596906 ], [ 3.889838, 43.59696 ], [ 3.889969, 43.596979 ], [ 3.890074, 43.596921 ], [ 3.890173, 43.596858 ], [ 3.890274, 43.5968 ], [ 3.890375, 43.596733 ], [ 3.890475, 43.596679 ], [ 3.89053, 43.596597 ], [ 3.890466, 43.596509 ], [ 3.890373, 43.596436 ], [ 3.890275, 43.596372 ], [ 3.890166, 43.596419 ], [ 3.890057, 43.596472 ], [ 3.889945, 43.596512 ], [ 3.889819, 43.596467 ], [ 3.889726, 43.596396 ], [ 3.889657, 43.596311 ], [ 3.889576, 43.596226 ], [ 3.889505, 43.596145 ], [ 3.889396, 43.596083 ], [ 3.889286, 43.596041 ], [ 3.88917, 43.595985 ], [ 3.889266, 43.596062 ], [ 3.889363, 43.596132 ], [ 3.889434, 43.596216 ], [ 3.889549, 43.596164 ], [ 3.889641, 43.596092 ], [ 3.889741, 43.596035 ], [ 3.889851, 43.595989 ], [ 3.889998, 43.595948 ], [ 3.890115, 43.595893 ], [ 3.890216, 43.595836 ], [ 3.890309, 43.595776 ], [ 3.89041, 43.595705 ], [ 3.890509, 43.595634 ], [ 3.890596, 43.595563 ], [ 3.890693, 43.595494 ], [ 3.890817, 43.59546 ], [ 3.890944, 43.595446 ], [ 3.891077, 43.595461 ], [ 3.891192, 43.595511 ], [ 3.891299, 43.595573 ], [ 3.891389, 43.595639 ], [ 3.891312, 43.595723 ], [ 3.891214, 43.595778 ], [ 3.891106, 43.595831 ], [ 3.891018, 43.5959 ], [ 3.890922, 43.595962 ], [ 3.890831, 43.596024 ], [ 3.890707, 43.596012 ], [ 3.890661, 43.595917 ], [ 3.890756, 43.595977 ], [ 3.890696, 43.596065 ], [ 3.890625, 43.596151 ], [ 3.890536, 43.596218 ], [ 3.890428, 43.596279 ], [ 3.890314, 43.596341 ], [ 3.89028, 43.596429 ], [ 3.890352, 43.596511 ], [ 3.890438, 43.596589 ], [ 3.890552, 43.596629 ], [ 3.890676, 43.596622 ], [ 3.890776, 43.596561 ], [ 3.890887, 43.596503 ] ], [ [ 3.892432, 43.596558 ], [ 3.892381, 43.596474 ], [ 3.892316, 43.596391 ], [ 3.892237, 43.596315 ], [ 3.892167, 43.596235 ], [ 3.892102, 43.596152 ], [ 3.892009, 43.596073 ], [ 3.891903, 43.596017 ], [ 3.891801, 43.595947 ], [ 3.891748, 43.595864 ], [ 3.891724, 43.595767 ], [ 3.891658, 43.595688 ], [ 3.891557, 43.595606 ], [ 3.891589, 43.595513 ], [ 3.89152, 43.595428 ], [ 3.891646, 43.5954 ], [ 3.891721, 43.595316 ], [ 3.89176, 43.595213 ], [ 3.891863, 43.595161 ], [ 3.89184, 43.595252 ], [ 3.891793, 43.595336 ], [ 3.89189, 43.595271 ], [ 3.89192, 43.595178 ], [ 3.891961, 43.595089 ], [ 3.892053, 43.595028 ], [ 3.892114, 43.594944 ], [ 3.892214, 43.594886 ], [ 3.892336, 43.594937 ], [ 3.892185, 43.594963 ], [ 3.892061, 43.594987 ], [ 3.891967, 43.595057 ], [ 3.891875, 43.595119 ], [ 3.891766, 43.595168 ], [ 3.891683, 43.595237 ], [ 3.891594, 43.595304 ], [ 3.891528, 43.595388 ], [ 3.891428, 43.595441 ], [ 3.891301, 43.595413 ], [ 3.891205, 43.595349 ], [ 3.891144, 43.595267 ], [ 3.891112, 43.595179 ], [ 3.890971, 43.595194 ], [ 3.890856, 43.595145 ], [ 3.890735, 43.595193 ], [ 3.890653, 43.595269 ], [ 3.890542, 43.595314 ], [ 3.890518, 43.595409 ], [ 3.890576, 43.595317 ], [ 3.890711, 43.595319 ], [ 3.890598, 43.59536 ], [ 3.890526, 43.595452 ], [ 3.890429, 43.595511 ], [ 3.890309, 43.595539 ], [ 3.890208, 43.595593 ], [ 3.890197, 43.595702 ], [ 3.890255, 43.595621 ], [ 3.890127, 43.595669 ], [ 3.890025, 43.595726 ], [ 3.889915, 43.595771 ], [ 3.889799, 43.595814 ], [ 3.88979, 43.595717 ] ], [ [ 3.89136, 43.597839 ] ] ] } }
]
}
