{
"type": "FeatureCollection",
"name": "4 mars 2020 15:01:41",
"crs": { "type": "name", "properties": { "name": "urn:ogc:def:crs:OGC:1.3:CRS84" } },
"features": [
{ "type": "Feature", "properties": { "Name": "4 mars 2020 15:01:41", "description": "", "begin": "2020\/03\/04 14:01:41.368+00", "end": "2020\/03\/04 18:36:10.134+00" }, "geometry": { "type": "MultiLineString", "coordinates": [ [ [ 3.881045, 43.597347 ], [ 3.881089, 43.597433 ], [ 3.881189, 43.597525 ], [ 3.881272, 43.597595 ], [ 3.881318, 43.597681 ], [ 3.881392, 43.59776 ], [ 3.881532, 43.597778 ], [ 3.881564, 43.597875 ], [ 3.881648, 43.597789 ], [ 3.881728, 43.597718 ], [ 3.881828, 43.597661 ], [ 3.881893, 43.597581 ], [ 3.882025, 43.597605 ], [ 3.882134, 43.597554 ], [ 3.882285, 43.59752 ], [ 3.882416, 43.597506 ], [ 3.882541, 43.59749 ], [ 3.882638, 43.597424 ], [ 3.882617, 43.597334 ], [ 3.882747, 43.597341 ], [ 3.882676, 43.597419 ], [ 3.882601, 43.597497 ], [ 3.88271, 43.597552 ], [ 3.882833, 43.597534 ], [ 3.882951, 43.597485 ] ], [ [ 3.883614, 43.597106 ], [ 3.883674, 43.596968 ], [ 3.883568, 43.597123 ], [ 3.883494, 43.597028 ], [ 3.883348, 43.597022 ], [ 3.883198, 43.597024 ], [ 3.883025, 43.597024 ], [ 3.882826, 43.597027 ], [ 3.882612, 43.597024 ], [ 3.882385, 43.597023 ], [ 3.882137, 43.597027 ], [ 3.882011, 43.597027 ], [ 3.881884, 43.597029 ], [ 3.881647, 43.597035 ], [ 3.881434, 43.597039 ], [ 3.881245, 43.597039 ], [ 3.881074, 43.597042 ], [ 3.880921, 43.597044 ], [ 3.880785, 43.597048 ], [ 3.88066, 43.597066 ], [ 3.88067, 43.597176 ], [ 3.88076, 43.597246 ], [ 3.880905, 43.597273 ], [ 3.881029, 43.597326 ], [ 3.88109, 43.597407 ], [ 3.881153, 43.597493 ], [ 3.8812, 43.597584 ], [ 3.881253, 43.597694 ], [ 3.881274, 43.597784 ], [ 3.881283, 43.597874 ], [ 3.881161, 43.597908 ], [ 3.881036, 43.597899 ], [ 3.880904, 43.597917 ], [ 3.880766, 43.597975 ], [ 3.880655, 43.59802 ], [ 3.880542, 43.598062 ], [ 3.88041, 43.598078 ], [ 3.880299, 43.598017 ], [ 3.880298, 43.597922 ], [ 3.880222, 43.597845 ], [ 3.88014, 43.597764 ], [ 3.880094, 43.59767 ], [ 3.880047, 43.597579 ], [ 3.880078, 43.597481 ], [ 3.880195, 43.597443 ], [ 3.880311, 43.597411 ], [ 3.880441, 43.597377 ], [ 3.880553, 43.597325 ], [ 3.880537, 43.597234 ], [ 3.880429, 43.597169 ], [ 3.880405, 43.597264 ], [ 3.880374, 43.597354 ], [ 3.880255, 43.597394 ], [ 3.880121, 43.59744 ], [ 3.880002, 43.597472 ], [ 3.879881, 43.597521 ], [ 3.879767, 43.597559 ], [ 3.879641, 43.597577 ] ], [ [ 3.87796, 43.598298 ], [ 3.877704, 43.598054 ], [ 3.877838, 43.598047 ], [ 3.877967, 43.598022 ], [ 3.878102, 43.597991 ], [ 3.878226, 43.597961 ], [ 3.878369, 43.597944 ], [ 3.878513, 43.597963 ], [ 3.878645, 43.597942 ], [ 3.878765, 43.59791 ], [ 3.878896, 43.5979 ], [ 3.879009, 43.597859 ], [ 3.879068, 43.597947 ], [ 3.879097, 43.59804 ], [ 3.879138, 43.598128 ], [ 3.879184, 43.598221 ], [ 3.879228, 43.598312 ], [ 3.879246, 43.598412 ], [ 3.879294, 43.598499 ], [ 3.879187, 43.59856 ], [ 3.879087, 43.598628 ], [ 3.878964, 43.598658 ], [ 3.879131, 43.598603 ], [ 3.879271, 43.598574 ], [ 3.879392, 43.598552 ], [ 3.87936, 43.598644 ], [ 3.879431, 43.598719 ], [ 3.879521, 43.598798 ], [ 3.879586, 43.598898 ], [ 3.879654, 43.598981 ], [ 3.879734, 43.599058 ], [ 3.879772, 43.599154 ], [ 3.879827, 43.599244 ], [ 3.879833, 43.599345 ], [ 3.879805, 43.599441 ], [ 3.879919, 43.599485 ], [ 3.880009, 43.599564 ], [ 3.880082, 43.599642 ], [ 3.880152, 43.599718 ], [ 3.880144, 43.599811 ], [ 3.880156, 43.599901 ], [ 3.880162, 43.599995 ], [ 3.880228, 43.600077 ], [ 3.880167, 43.599889 ], [ 3.880082, 43.599716 ], [ 3.880028, 43.599614 ], [ 3.87997, 43.599521 ], [ 3.879832, 43.59931 ], [ 3.879545, 43.599333 ], [ 3.87972, 43.59928 ], [ 3.879881, 43.599247 ], [ 3.880052, 43.599198 ], [ 3.88017, 43.599158 ], [ 3.880312, 43.599106 ], [ 3.880482, 43.599054 ], [ 3.880651, 43.599005 ], [ 3.880803, 43.598952 ], [ 3.880923, 43.598903 ], [ 3.881074, 43.598854 ], [ 3.881205, 43.598815 ], [ 3.88136, 43.598764 ], [ 3.881505, 43.598719 ], [ 3.881644, 43.598672 ], [ 3.881763, 43.598638 ], [ 3.881892, 43.598604 ], [ 3.882053, 43.59855 ], [ 3.882175, 43.598512 ], [ 3.881938, 43.598583 ], [ 3.882085, 43.598563 ], [ 3.881957, 43.598583 ], [ 3.88184, 43.598627 ], [ 3.881669, 43.598673 ], [ 3.881515, 43.598713 ], [ 3.881323, 43.598769 ], [ 3.881126, 43.598831 ], [ 3.881007, 43.598873 ], [ 3.880863, 43.598838 ], [ 3.880787, 43.598729 ], [ 3.880704, 43.598599 ], [ 3.880607, 43.598437 ], [ 3.88051, 43.598286 ], [ 3.880442, 43.598149 ], [ 3.880368, 43.598014 ], [ 3.880291, 43.597866 ], [ 3.880206, 43.59771 ], [ 3.880122, 43.5976 ], [ 3.880011, 43.597529 ], [ 3.879883, 43.597572 ], [ 3.879748, 43.597616 ], [ 3.879621, 43.597631 ], [ 3.879501, 43.597675 ], [ 3.879344, 43.597705 ], [ 3.879172, 43.59775 ], [ 3.879007, 43.597798 ], [ 3.879031, 43.597899 ], [ 3.879106, 43.59802 ], [ 3.879195, 43.59819 ], [ 3.879245, 43.598277 ], [ 3.87931, 43.598377 ], [ 3.879349, 43.598464 ], [ 3.879478, 43.598427 ], [ 3.879644, 43.598379 ], [ 3.879836, 43.598327 ], [ 3.87995, 43.598291 ], [ 3.880068, 43.598252 ], [ 3.880181, 43.598211 ], [ 3.880321, 43.598168 ], [ 3.880481, 43.598132 ], [ 3.880645, 43.598083 ], [ 3.880866, 43.598025 ], [ 3.881067, 43.59797 ], [ 3.881184, 43.597933 ], [ 3.880991, 43.597953 ], [ 3.880849, 43.598001 ], [ 3.880688, 43.598048 ], [ 3.880564, 43.598088 ], [ 3.880432, 43.598069 ], [ 3.880342, 43.597937 ], [ 3.880297, 43.597835 ], [ 3.880222, 43.597733 ], [ 3.880129, 43.597607 ], [ 3.880146, 43.597487 ], [ 3.880282, 43.597429 ], [ 3.880427, 43.597349 ], [ 3.880531, 43.59729 ], [ 3.88068, 43.597254 ], [ 3.880813, 43.597252 ], [ 3.881002, 43.597229 ], [ 3.881158, 43.597222 ], [ 3.881283, 43.597174 ], [ 3.881158, 43.597209 ], [ 3.881082, 43.597283 ], [ 3.881107, 43.597404 ], [ 3.881199, 43.597567 ], [ 3.88128, 43.597712 ], [ 3.881342, 43.597806 ], [ 3.881387, 43.597929 ], [ 3.881469, 43.598107 ], [ 3.881517, 43.598203 ], [ 3.881565, 43.598303 ], [ 3.881609, 43.598399 ], [ 3.881658, 43.598488 ], [ 3.881717, 43.59858 ], [ 3.881801, 43.598692 ], [ 3.88187, 43.598799 ], [ 3.881982, 43.598915 ], [ 3.882074, 43.599058 ], [ 3.882162, 43.599169 ], [ 3.882127, 43.599278 ], [ 3.882015, 43.599336 ], [ 3.88185, 43.599424 ], [ 3.881735, 43.599506 ], [ 3.881601, 43.599578 ], [ 3.881456, 43.599651 ], [ 3.881293, 43.599729 ], [ 3.881118, 43.599808 ], [ 3.880943, 43.599891 ], [ 3.880779, 43.599967 ], [ 3.880637, 43.600036 ], [ 3.880524, 43.600091 ], [ 3.88036, 43.600175 ], [ 3.88022, 43.600243 ], [ 3.880085, 43.60029 ], [ 3.879939, 43.600361 ], [ 3.879856, 43.600438 ], [ 3.879728, 43.600477 ], [ 3.879598, 43.600527 ], [ 3.879473, 43.600585 ], [ 3.879327, 43.600562 ], [ 3.879276, 43.600425 ], [ 3.879281, 43.600264 ], [ 3.879252, 43.600164 ], [ 3.879233, 43.600058 ], [ 3.879209, 43.599959 ], [ 3.87918, 43.599862 ], [ 3.879157, 43.599765 ], [ 3.879131, 43.599664 ], [ 3.879101, 43.599555 ], [ 3.879067, 43.599444 ], [ 3.87903, 43.599328 ], [ 3.878979, 43.599215 ], [ 3.878933, 43.5991 ], [ 3.878888, 43.59899 ], [ 3.878854, 43.598881 ], [ 3.878815, 43.59878 ], [ 3.878782, 43.598675 ], [ 3.87874, 43.598567 ], [ 3.878695, 43.598456 ], [ 3.87865, 43.598348 ], [ 3.878595, 43.598244 ], [ 3.878536, 43.598151 ], [ 3.878473, 43.59807 ], [ 3.878412, 43.597989 ], [ 3.878348, 43.597903 ], [ 3.878275, 43.597812 ], [ 3.878197, 43.597716 ], [ 3.878126, 43.597617 ], [ 3.878062, 43.597522 ], [ 3.878007, 43.597433 ], [ 3.877935, 43.597296 ], [ 3.877893, 43.597203 ], [ 3.877868, 43.597108 ], [ 3.87784, 43.597014 ], [ 3.877925, 43.596934 ], [ 3.878091, 43.596952 ], [ 3.878217, 43.596973 ], [ 3.878339, 43.597008 ], [ 3.878519, 43.597023 ], [ 3.87867, 43.597037 ], [ 3.878864, 43.59705 ], [ 3.879091, 43.597044 ], [ 3.879319, 43.597071 ], [ 3.87957, 43.597075 ], [ 3.879703, 43.597075 ], [ 3.879836, 43.597073 ], [ 3.880071, 43.597067 ], [ 3.880252, 43.597044 ], [ 3.880362, 43.597 ], [ 3.880494, 43.59698 ], [ 3.880606, 43.597055 ], [ 3.88064, 43.597148 ], [ 3.880707, 43.597229 ], [ 3.880866, 43.597258 ], [ 3.880998, 43.597315 ], [ 3.88102, 43.597437 ], [ 3.881115, 43.597593 ], [ 3.881189, 43.597756 ], [ 3.881293, 43.597903 ], [ 3.881375, 43.598006 ], [ 3.881464, 43.598106 ], [ 3.881534, 43.598203 ], [ 3.881591, 43.598314 ], [ 3.881655, 43.598419 ], [ 3.8817, 43.598518 ], [ 3.881784, 43.598685 ], [ 3.881816, 43.598776 ], [ 3.881868, 43.598867 ], [ 3.88192, 43.598959 ], [ 3.88197, 43.599048 ], [ 3.882038, 43.599197 ], [ 3.882056, 43.599294 ], [ 3.882177, 43.599338 ], [ 3.882345, 43.599279 ], [ 3.88251, 43.599215 ], [ 3.882705, 43.599144 ], [ 3.882824, 43.599101 ], [ 3.882954, 43.599045 ], [ 3.883097, 43.59899 ], [ 3.883255, 43.598939 ], [ 3.883411, 43.598881 ], [ 3.883573, 43.598815 ], [ 3.883743, 43.598748 ], [ 3.883923, 43.598685 ], [ 3.8841, 43.598614 ], [ 3.884277, 43.598543 ], [ 3.884455, 43.598475 ], [ 3.884622, 43.598409 ], [ 3.884774, 43.598351 ], [ 3.884907, 43.598288 ], [ 3.885041, 43.59823 ], [ 3.885185, 43.598165 ], [ 3.885307, 43.598072 ], [ 3.885421, 43.597979 ], [ 3.885525, 43.597895 ], [ 3.885614, 43.597824 ], [ 3.885744, 43.597725 ], [ 3.885819, 43.597652 ], [ 3.885918, 43.597597 ], [ 3.886126, 43.597632 ], [ 3.886277, 43.597644 ], [ 3.886375, 43.597571 ], [ 3.88645, 43.597472 ], [ 3.886523, 43.597368 ], [ 3.886603, 43.597272 ], [ 3.886695, 43.597173 ], [ 3.886803, 43.597045 ], [ 3.886944, 43.596893 ], [ 3.887015, 43.596811 ], [ 3.887084, 43.596726 ], [ 3.887163, 43.596638 ], [ 3.887313, 43.596453 ], [ 3.887463, 43.596265 ], [ 3.887597, 43.596074 ], [ 3.887655, 43.595986 ], [ 3.887723, 43.595907 ], [ 3.887833, 43.59579 ], [ 3.887893, 43.595705 ], [ 3.887923, 43.595561 ], [ 3.887987, 43.59546 ], [ 3.888069, 43.59536 ], [ 3.888149, 43.595272 ], [ 3.888185, 43.595359 ], [ 3.888115, 43.595462 ], [ 3.88801, 43.595606 ], [ 3.887909, 43.595755 ], [ 3.887816, 43.595881 ], [ 3.887746, 43.595978 ], [ 3.887698, 43.596068 ], [ 3.887613, 43.59617 ], [ 3.887549, 43.596249 ], [ 3.887467, 43.596335 ], [ 3.887391, 43.596428 ], [ 3.887315, 43.596526 ], [ 3.887221, 43.596623 ], [ 3.887114, 43.59673 ], [ 3.887018, 43.596871 ], [ 3.886903, 43.597023 ], [ 3.886795, 43.597168 ], [ 3.886686, 43.597306 ], [ 3.886555, 43.597429 ], [ 3.886421, 43.597549 ], [ 3.886327, 43.597654 ], [ 3.8862, 43.597698 ], [ 3.886049, 43.597681 ], [ 3.885923, 43.597683 ], [ 3.885794, 43.597722 ], [ 3.885676, 43.597788 ], [ 3.885541, 43.597871 ], [ 3.885412, 43.597957 ], [ 3.885292, 43.59806 ], [ 3.885176, 43.598174 ], [ 3.885087, 43.598255 ], [ 3.885106, 43.598376 ], [ 3.885171, 43.598474 ], [ 3.885264, 43.598555 ], [ 3.885343, 43.598634 ], [ 3.885414, 43.598715 ], [ 3.885521, 43.598631 ], [ 3.885602, 43.598513 ], [ 3.88566, 43.598426 ], [ 3.88573, 43.598329 ], [ 3.885807, 43.598229 ], [ 3.885886, 43.598134 ], [ 3.885962, 43.598045 ], [ 3.886031, 43.597963 ], [ 3.886098, 43.597887 ], [ 3.88619, 43.597771 ], [ 3.886222, 43.59766 ], [ 3.886075, 43.597633 ], [ 3.885878, 43.597687 ], [ 3.885744, 43.597781 ], [ 3.885569, 43.597898 ], [ 3.885471, 43.597974 ], [ 3.88536, 43.598046 ], [ 3.885248, 43.598123 ], [ 3.885141, 43.598201 ], [ 3.885042, 43.598278 ], [ 3.884929, 43.598339 ], [ 3.884804, 43.598386 ], [ 3.884677, 43.598432 ], [ 3.884541, 43.59847 ], [ 3.884416, 43.59851 ], [ 3.884295, 43.598549 ], [ 3.884093, 43.598622 ], [ 3.883978, 43.598665 ], [ 3.884046, 43.598761 ], [ 3.884199, 43.598818 ], [ 3.884407, 43.598892 ], [ 3.884613, 43.598957 ], [ 3.884786, 43.599023 ], [ 3.884958, 43.599074 ], [ 3.885098, 43.599099 ], [ 3.88497, 43.599096 ], [ 3.884848, 43.599074 ], [ 3.884714, 43.599105 ], [ 3.88465, 43.599203 ], [ 3.88457, 43.599326 ], [ 3.884518, 43.599429 ], [ 3.884393, 43.599463 ], [ 3.884176, 43.599395 ], [ 3.884025, 43.599348 ], [ 3.883849, 43.599314 ], [ 3.88367, 43.599278 ], [ 3.883499, 43.599235 ], [ 3.883332, 43.599197 ], [ 3.883188, 43.599171 ], [ 3.883, 43.599136 ], [ 3.882863, 43.599111 ], [ 3.882693, 43.599158 ], [ 3.88255, 43.599205 ], [ 3.882426, 43.599259 ], [ 3.88227, 43.599319 ], [ 3.882185, 43.599427 ], [ 3.882207, 43.599541 ], [ 3.882342, 43.599599 ], [ 3.882563, 43.599642 ], [ 3.882696, 43.599674 ], [ 3.882838, 43.599709 ], [ 3.882984, 43.599748 ], [ 3.883144, 43.599774 ] ] ] } }
]
}
