{
"type": "FeatureCollection",
"name": "2 mars 2020 08:44:39",
"crs": { "type": "name", "properties": { "name": "urn:ogc:def:crs:OGC:1.3:CRS84" } },
"features": [
{ "type": "Feature", "properties": { "Name": "2 mars 2020 08:44:39", "description": "", "begin": "2020\/03\/02 07:44:39.509+00", "end": "2020\/03\/02 07:49:30.616+00" }, "geometry": { "type": "MultiLineString", "coordinates": [ [ [ 3.881228, 43.615903 ], [ 3.880975, 43.615757 ], [ 3.880713, 43.615698 ], [ 3.880981, 43.61587 ], [ 3.881107, 43.615883 ], [ 3.8813, 43.615812 ], [ 3.881481, 43.61582 ], [ 3.881768, 43.615836 ], [ 3.880976, 43.615788 ], [ 3.881304, 43.615807 ], [ 3.8816, 43.615824 ], [ 3.882235, 43.616007 ], [ 3.882126, 43.615943 ], [ 3.881966, 43.615891 ], [ 3.881522, 43.615859 ], [ 3.881183, 43.615843 ], [ 3.881246, 43.615765 ], [ 3.881162, 43.615677 ], [ 3.880989, 43.615671 ], [ 3.881184, 43.615737 ] ], [ [ 3.881093, 43.615824 ], [ 3.881158, 43.615955 ], [ 3.881142, 43.615848 ], [ 3.881241, 43.615913 ], [ 3.88133, 43.615978 ], [ 3.881457, 43.615997 ], [ 3.881566, 43.615937 ], [ 3.881691, 43.615912 ], [ 3.881801, 43.615847 ], [ 3.881906, 43.615797 ], [ 3.88202, 43.615699 ], [ 3.882135, 43.615637 ], [ 3.882108, 43.615543 ], [ 3.882028, 43.615467 ], [ 3.881964, 43.615388 ], [ 3.881888, 43.615317 ], [ 3.881813, 43.61521 ], [ 3.881717, 43.615147 ], [ 3.881605, 43.61508 ], [ 3.881476, 43.615028 ], [ 3.8814, 43.614948 ], [ 3.881424, 43.614849 ], [ 3.881406, 43.614756 ], [ 3.881388, 43.614657 ], [ 3.881421, 43.614565 ], [ 3.881482, 43.614478 ], [ 3.88154, 43.61439 ], [ 3.881535, 43.614278 ], [ 3.881616, 43.614185 ] ], [ [ 3.88167, 43.614033 ] ], [ [ 3.881606, 43.614064 ], [ 3.881444, 43.614121 ], [ 3.881514, 43.614209 ], [ 3.881519, 43.614301 ], [ 3.881516, 43.614396 ], [ 3.881444, 43.61448 ], [ 3.881413, 43.614575 ], [ 3.881351, 43.614659 ], [ 3.881307, 43.614746 ], [ 3.881352, 43.614833 ], [ 3.881357, 43.614933 ], [ 3.881321, 43.61502 ], [ 3.881264, 43.615106 ], [ 3.881151, 43.615152 ], [ 3.8811, 43.615241 ], [ 3.881051, 43.615333 ], [ 3.881016, 43.615434 ], [ 3.880979, 43.615525 ], [ 3.880991, 43.615626 ], [ 3.88106, 43.615702 ], [ 3.881082, 43.615807 ], [ 3.880977, 43.615863 ] ], [ [ 3.880299, 43.61686 ], [ 3.88016, 43.616539 ], [ 3.880274, 43.616628 ], [ 3.880143, 43.616592 ], [ 3.880139, 43.6167 ], [ 3.880059, 43.616792 ], [ 3.880063, 43.616886 ], [ 3.880125, 43.616973 ], [ 3.880187, 43.617052 ], [ 3.880252, 43.617136 ], [ 3.880354, 43.61719 ], [ 3.880425, 43.617265 ], [ 3.880505, 43.617341 ], [ 3.880583, 43.617424 ], [ 3.880622, 43.617516 ], [ 3.880706, 43.617588 ], [ 3.880764, 43.617677 ], [ 3.880867, 43.617735 ], [ 3.880964, 43.617796 ], [ 3.881046, 43.617867 ], [ 3.881116, 43.61795 ], [ 3.881202, 43.617882 ], [ 3.881276, 43.617788 ], [ 3.88139, 43.617732 ], [ 3.881513, 43.617689 ], [ 3.881618, 43.617623 ], [ 3.881742, 43.617604 ], [ 3.881675, 43.617523 ], [ 3.881602, 43.617449 ], [ 3.88158, 43.617349 ], [ 3.8815, 43.617272 ], [ 3.881446, 43.617186 ], [ 3.88132, 43.617202 ], [ 3.881279, 43.617112 ], [ 3.88129, 43.617002 ], [ 3.881187, 43.616946 ] ], [ [ 3.880886, 43.616387 ], [ 3.880603, 43.616144 ], [ 3.880803, 43.616486 ], [ 3.880749, 43.616393 ], [ 3.880748, 43.616301 ], [ 3.880834, 43.616368 ], [ 3.880956, 43.616395 ], [ 3.881069, 43.616341 ], [ 3.881181, 43.616291 ], [ 3.881262, 43.616209 ], [ 3.881362, 43.616145 ], [ 3.881493, 43.616111 ], [ 3.881594, 43.616037 ], [ 3.881669, 43.615963 ], [ 3.881774, 43.615899 ], [ 3.881859, 43.61583 ], [ 3.881762, 43.615893 ], [ 3.881653, 43.615957 ], [ 3.881598, 43.616043 ] ], [ [ 3.881221, 43.615741 ], [ 3.881784, 43.6159 ], [ 3.881782, 43.615796 ], [ 3.881895, 43.615754 ], [ 3.882059, 43.615759 ], [ 3.88219, 43.615796 ], [ 3.882297, 43.615856 ], [ 3.882371, 43.615931 ], [ 3.882487, 43.615982 ], [ 3.88248, 43.616077 ], [ 3.882369, 43.616139 ], [ 3.882246, 43.616184 ], [ 3.882117, 43.616221 ], [ 3.881997, 43.616251 ], [ 3.881856, 43.616278 ], [ 3.881752, 43.616328 ], [ 3.881701, 43.61641 ], [ 3.881666, 43.616501 ], [ 3.881553, 43.616542 ], [ 3.881427, 43.61656 ], [ 3.881302, 43.616575 ], [ 3.881186, 43.61661 ], [ 3.881075, 43.616652 ], [ 3.880969, 43.61672 ], [ 3.881037, 43.61681 ], [ 3.881113, 43.616881 ], [ 3.881115, 43.616971 ], [ 3.881036, 43.617043 ], [ 3.880928, 43.617101 ], [ 3.880792, 43.61714 ], [ 3.880696, 43.617215 ], [ 3.880567, 43.617243 ], [ 3.880482, 43.617315 ], [ 3.880377, 43.61726 ], [ 3.880464, 43.617194 ], [ 3.880561, 43.617257 ], [ 3.88065, 43.617329 ], [ 3.880699, 43.61742 ], [ 3.88073, 43.617507 ], [ 3.880743, 43.6176 ], [ 3.880808, 43.617683 ], [ 3.880837, 43.617777 ], [ 3.880951, 43.617814 ], [ 3.881026, 43.617892 ], [ 3.881114, 43.617963 ], [ 3.880982, 43.61798 ], [ 3.880868, 43.618028 ], [ 3.880751, 43.618094 ], [ 3.880712, 43.618195 ], [ 3.88058, 43.618217 ], [ 3.880459, 43.618246 ], [ 3.880348, 43.618289 ], [ 3.880274, 43.618213 ], [ 3.880262, 43.618123 ], [ 3.880159, 43.618056 ], [ 3.88006, 43.618002 ], [ 3.879966, 43.617943 ], [ 3.879868, 43.617887 ], [ 3.879806, 43.617799 ], [ 3.879742, 43.617711 ], [ 3.879635, 43.617656 ], [ 3.879565, 43.617574 ], [ 3.879524, 43.617483 ], [ 3.87944, 43.617407 ], [ 3.879391, 43.617319 ], [ 3.879431, 43.617231 ], [ 3.879511, 43.61716 ], [ 3.879614, 43.617103 ], [ 3.879728, 43.617053 ], [ 3.879705, 43.617148 ], [ 3.87966, 43.617237 ], [ 3.879778, 43.617274 ], [ 3.879865, 43.617338 ], [ 3.879977, 43.617392 ], [ 3.880098, 43.617443 ], [ 3.88015, 43.617533 ], [ 3.880234, 43.617601 ], [ 3.880227, 43.617694 ], [ 3.880207, 43.617797 ], [ 3.880312, 43.617857 ], [ 3.880255, 43.617775 ], [ 3.880174, 43.617693 ], [ 3.880082, 43.617627 ], [ 3.880032, 43.617543 ], [ 3.879942, 43.617471 ], [ 3.879853, 43.617398 ], [ 3.879773, 43.617316 ], [ 3.879724, 43.617222 ], [ 3.879663, 43.617142 ], [ 3.879755, 43.617067 ], [ 3.879792, 43.616978 ], [ 3.879831, 43.616873 ], [ 3.879938, 43.616819 ], [ 3.879977, 43.616717 ], [ 3.880101, 43.616675 ], [ 3.880226, 43.616665 ], [ 3.880332, 43.616729 ], [ 3.880424, 43.616807 ], [ 3.880511, 43.616883 ], [ 3.880618, 43.616952 ], [ 3.8807, 43.617037 ], [ 3.880778, 43.617108 ], [ 3.88087, 43.617177 ], [ 3.880916, 43.617262 ], [ 3.880958, 43.617348 ], [ 3.880997, 43.617437 ], [ 3.881062, 43.617514 ], [ 3.881165, 43.617565 ], [ 3.881197, 43.617658 ], [ 3.881287, 43.617729 ], [ 3.881413, 43.617721 ], [ 3.881537, 43.617732 ], [ 3.881608, 43.61764 ], [ 3.881739, 43.617636 ], [ 3.881849, 43.61758 ], [ 3.881931, 43.617508 ], [ 3.882035, 43.617447 ], [ 3.882155, 43.617403 ], [ 3.882286, 43.617372 ], [ 3.882387, 43.617294 ], [ 3.882511, 43.617273 ], [ 3.882626, 43.617324 ], [ 3.882719, 43.617396 ], [ 3.882682, 43.617305 ], [ 3.882621, 43.617204 ], [ 3.882528, 43.617133 ], [ 3.882445, 43.617054 ], [ 3.882373, 43.616965 ], [ 3.882275, 43.616895 ], [ 3.882187, 43.616811 ], [ 3.882113, 43.616724 ], [ 3.882033, 43.616655 ], [ 3.881945, 43.616587 ], [ 3.88191, 43.616495 ], [ 3.881824, 43.616412 ], [ 3.88173, 43.616336 ], [ 3.88164, 43.616259 ], [ 3.881753, 43.616298 ], [ 3.881868, 43.616355 ], [ 3.881995, 43.616335 ], [ 3.882106, 43.616276 ], [ 3.882206, 43.61621 ], [ 3.882296, 43.616141 ], [ 3.882417, 43.616098 ], [ 3.882545, 43.61613 ], [ 3.882622, 43.616207 ], [ 3.882691, 43.616283 ], [ 3.882733, 43.616377 ], [ 3.882818, 43.616452 ], [ 3.882919, 43.616515 ], [ 3.883063, 43.616548 ], [ 3.883183, 43.61658 ], [ 3.883295, 43.616634 ], [ 3.883218, 43.616731 ], [ 3.883099, 43.616802 ], [ 3.883002, 43.616874 ], [ 3.882919, 43.616951 ], [ 3.88283, 43.617019 ], [ 3.882732, 43.617085 ], [ 3.882609, 43.617133 ], [ 3.882712, 43.617082 ], [ 3.882825, 43.61703 ], [ 3.882902, 43.616951 ], [ 3.883008, 43.616888 ], [ 3.883098, 43.616825 ], [ 3.883242, 43.616798 ], [ 3.883367, 43.616812 ], [ 3.883476, 43.616857 ], [ 3.883588, 43.61691 ], [ 3.883706, 43.616963 ], [ 3.883781, 43.61705 ], [ 3.883842, 43.617139 ], [ 3.883894, 43.617235 ], [ 3.883918, 43.617333 ], [ 3.884044, 43.617323 ], [ 3.884155, 43.61727 ], [ 3.884272, 43.617229 ], [ 3.884389, 43.617194 ], [ 3.884468, 43.61712 ], [ 3.884548, 43.617048 ], [ 3.884657, 43.616992 ], [ 3.884778, 43.616968 ], [ 3.884879, 43.616909 ], [ 3.885003, 43.61689 ], [ 3.885125, 43.616923 ], [ 3.885068, 43.616839 ], [ 3.885, 43.616763 ], [ 3.884925, 43.616688 ], [ 3.884851, 43.616613 ], [ 3.884786, 43.616527 ], [ 3.884697, 43.616446 ], [ 3.884618, 43.616373 ], [ 3.884515, 43.616306 ], [ 3.884424, 43.61624 ], [ 3.8843, 43.616213 ], [ 3.884174, 43.616199 ], [ 3.884103, 43.616273 ], [ 3.884007, 43.616334 ], [ 3.883897, 43.616388 ], [ 3.883813, 43.616466 ], [ 3.883691, 43.616511 ], [ 3.883581, 43.61656 ], [ 3.883486, 43.616621 ], [ 3.883358, 43.616629 ], [ 3.883369, 43.616726 ], [ 3.883432, 43.616806 ], [ 3.883424, 43.616931 ], [ 3.883459, 43.617027 ], [ 3.88357, 43.617078 ], [ 3.883679, 43.617136 ], [ 3.883725, 43.617227 ], [ 3.883853, 43.617265 ], [ 3.88393, 43.617339 ], [ 3.883872, 43.617426 ], [ 3.883756, 43.617479 ], [ 3.883623, 43.617518 ], [ 3.883539, 43.617598 ], [ 3.883434, 43.617664 ], [ 3.883333, 43.617731 ], [ 3.883231, 43.6178 ], [ 3.883144, 43.617869 ], [ 3.883049, 43.617928 ], [ 3.88294, 43.617974 ], [ 3.882817, 43.618019 ], [ 3.882732, 43.618088 ], [ 3.882648, 43.618161 ], [ 3.882551, 43.618233 ], [ 3.882424, 43.618225 ], [ 3.88233, 43.618165 ], [ 3.882238, 43.618077 ], [ 3.88217, 43.617989 ], [ 3.882111, 43.617886 ], [ 3.881999, 43.617817 ], [ 3.881904, 43.617746 ], [ 3.881834, 43.617669 ], [ 3.881928, 43.617731 ], [ 3.882022, 43.6178 ], [ 3.882149, 43.617846 ], [ 3.882215, 43.617928 ], [ 3.882283, 43.618005 ], [ 3.882356, 43.61809 ], [ 3.882432, 43.618165 ], [ 3.882517, 43.618243 ], [ 3.882569, 43.61833 ], [ 3.882605, 43.618416 ], [ 3.882638, 43.618504 ], [ 3.8827, 43.618591 ], [ 3.882781, 43.618659 ], [ 3.882864, 43.618734 ], [ 3.882919, 43.618817 ], [ 3.882977, 43.618902 ], [ 3.883034, 43.618982 ], [ 3.883107, 43.619071 ], [ 3.883183, 43.619146 ], [ 3.883263, 43.619222 ], [ 3.883356, 43.619301 ], [ 3.883435, 43.619381 ], [ 3.883514, 43.61945 ], [ 3.883602, 43.619528 ], [ 3.883653, 43.619613 ], [ 3.883722, 43.619694 ], [ 3.883845, 43.619756 ], [ 3.883937, 43.61982 ], [ 3.884016, 43.619893 ], [ 3.884089, 43.61998 ], [ 3.884208, 43.620015 ], [ 3.884305, 43.619956 ], [ 3.884429, 43.619908 ], [ 3.884545, 43.619856 ], [ 3.884653, 43.619786 ], [ 3.884781, 43.619755 ], [ 3.884898, 43.61972 ], [ 3.885024, 43.619689 ], [ 3.885157, 43.619658 ], [ 3.885283, 43.619617 ], [ 3.88541, 43.61958 ], [ 3.885535, 43.619538 ], [ 3.885652, 43.619503 ], [ 3.885758, 43.619446 ], [ 3.885882, 43.619407 ], [ 3.886003, 43.619359 ], [ 3.886119, 43.61931 ], [ 3.886234, 43.619243 ], [ 3.88636, 43.619191 ], [ 3.886412, 43.619108 ], [ 3.886398, 43.619008 ], [ 3.886393, 43.618906 ], [ 3.886392, 43.618813 ], [ 3.886324, 43.618725 ], [ 3.88629, 43.618637 ], [ 3.886254, 43.618548 ], [ 3.886198, 43.61846 ], [ 3.886154, 43.618371 ], [ 3.886124, 43.618272 ], [ 3.886067, 43.61819 ], [ 3.886015, 43.618108 ], [ 3.885986, 43.618018 ], [ 3.885957, 43.617918 ], [ 3.885951, 43.617827 ], [ 3.88591, 43.617735 ], [ 3.885872, 43.617644 ], [ 3.88584, 43.617555 ], [ 3.885752, 43.617477 ], [ 3.885669, 43.617409 ], [ 3.885573, 43.617345 ], [ 3.88548, 43.617271 ], [ 3.885404, 43.617198 ], [ 3.885331, 43.617115 ], [ 3.88527, 43.617036 ], [ 3.885205, 43.61695 ], [ 3.88508, 43.616915 ], [ 3.884965, 43.61698 ], [ 3.884831, 43.617012 ], [ 3.884708, 43.617026 ], [ 3.884603, 43.617074 ], [ 3.884494, 43.617122 ], [ 3.884396, 43.617195 ], [ 3.884291, 43.617251 ], [ 3.884198, 43.617325 ], [ 3.884079, 43.617379 ], [ 3.883965, 43.617423 ], [ 3.88385, 43.617463 ], [ 3.883721, 43.617499 ], [ 3.883614, 43.617562 ], [ 3.883502, 43.617616 ], [ 3.883414, 43.617683 ], [ 3.883317, 43.617741 ], [ 3.883211, 43.617796 ], [ 3.883102, 43.617848 ], [ 3.882991, 43.617902 ], [ 3.882887, 43.617956 ], [ 3.882777, 43.618013 ], [ 3.882671, 43.618068 ], [ 3.882564, 43.618121 ], [ 3.882498, 43.618208 ], [ 3.882532, 43.618298 ], [ 3.882602, 43.618381 ], [ 3.88269, 43.618459 ], [ 3.882694, 43.618549 ], [ 3.882756, 43.618629 ], [ 3.882831, 43.618722 ], [ 3.882928, 43.618825 ], [ 3.883009, 43.61892 ], [ 3.883102, 43.619017 ], [ 3.883185, 43.619104 ], [ 3.883292, 43.619208 ], [ 3.88337, 43.619286 ], [ 3.883452, 43.619373 ], [ 3.883526, 43.619456 ], [ 3.883597, 43.619533 ], [ 3.883666, 43.619611 ], [ 3.883762, 43.619721 ], [ 3.883835, 43.6198 ], [ 3.883911, 43.619872 ], [ 3.884018, 43.619954 ], [ 3.884106, 43.620038 ], [ 3.884071, 43.620139 ], [ 3.884016, 43.620242 ], [ 3.883979, 43.620351 ], [ 3.883937, 43.620438 ], [ 3.883901, 43.620539 ], [ 3.883835, 43.62064 ], [ 3.883763, 43.620743 ], [ 3.883668, 43.620844 ], [ 3.883605, 43.620923 ], [ 3.88353, 43.621017 ], [ 3.883433, 43.621092 ], [ 3.883352, 43.621204 ], [ 3.883309, 43.621302 ], [ 3.883255, 43.621411 ], [ 3.883198, 43.621527 ], [ 3.883148, 43.621643 ], [ 3.883109, 43.621743 ], [ 3.883051, 43.621842 ], [ 3.882946, 43.621895 ], [ 3.882869, 43.621815 ], [ 3.882792, 43.621716 ], [ 3.882715, 43.621618 ], [ 3.882627, 43.621515 ], [ 3.882527, 43.621399 ], [ 3.88243, 43.621274 ], [ 3.882342, 43.621164 ], [ 3.882251, 43.621065 ], [ 3.882165, 43.620966 ], [ 3.882072, 43.620882 ], [ 3.881963, 43.620826 ], [ 3.88182, 43.620756 ], [ 3.881686, 43.620681 ], [ 3.881551, 43.6206 ], [ 3.881438, 43.620543 ], [ 3.881324, 43.620489 ], [ 3.881173, 43.620419 ], [ 3.881045, 43.620361 ], [ 3.880912, 43.620295 ], [ 3.880752, 43.620228 ], [ 3.880646, 43.62018 ], [ 3.880534, 43.620136 ], [ 3.880424, 43.620079 ], [ 3.880291, 43.619985 ], [ 3.880193, 43.619891 ], [ 3.880243, 43.619804 ], [ 3.88038, 43.619748 ], [ 3.880519, 43.61968 ], [ 3.880631, 43.619618 ], [ 3.880756, 43.61955 ], [ 3.88087, 43.619479 ], [ 3.880995, 43.619418 ], [ 3.881115, 43.619351 ], [ 3.881221, 43.61928 ], [ 3.88134, 43.619227 ], [ 3.881469, 43.619173 ], [ 3.881578, 43.619127 ], [ 3.881612, 43.619023 ], [ 3.88155, 43.618939 ], [ 3.881479, 43.618852 ], [ 3.881373, 43.618784 ], [ 3.881281, 43.618705 ], [ 3.881191, 43.618617 ], [ 3.881085, 43.618512 ], [ 3.881009, 43.618435 ], [ 3.880927, 43.618366 ], [ 3.880822, 43.618279 ], [ 3.880743, 43.618198 ], [ 3.88074, 43.618105 ], [ 3.880845, 43.618032 ], [ 3.880933, 43.617964 ], [ 3.88107, 43.617962 ], [ 3.88113, 43.618057 ], [ 3.881214, 43.618137 ], [ 3.881311, 43.618229 ], [ 3.881407, 43.618306 ], [ 3.881509, 43.618384 ], [ 3.881587, 43.618463 ], [ 3.881676, 43.618546 ], [ 3.881761, 43.618633 ], [ 3.881841, 43.618714 ], [ 3.881928, 43.618797 ], [ 3.882006, 43.618882 ], [ 3.882097, 43.618968 ], [ 3.882187, 43.619058 ], [ 3.88227, 43.619151 ], [ 3.882363, 43.619242 ], [ 3.882466, 43.619327 ], [ 3.88256, 43.619422 ], [ 3.882653, 43.619524 ], [ 3.882747, 43.619618 ], [ 3.882831, 43.619721 ], [ 3.882923, 43.61982 ], [ 3.883042, 43.619892 ], [ 3.88314, 43.619983 ], [ 3.883202, 43.620066 ], [ 3.883301, 43.62017 ], [ 3.883396, 43.620263 ], [ 3.88349, 43.620357 ], [ 3.883588, 43.620426 ], [ 3.883682, 43.620512 ], [ 3.883749, 43.620588 ], [ 3.883831, 43.620688 ], [ 3.883874, 43.620795 ], [ 3.883935, 43.620894 ], [ 3.884014, 43.620997 ], [ 3.88407, 43.621082 ], [ 3.88413, 43.62117 ], [ 3.88419, 43.621257 ], [ 3.884259, 43.621335 ], [ 3.884349, 43.621456 ], [ 3.884415, 43.621551 ], [ 3.884507, 43.62165 ], [ 3.884594, 43.621742 ], [ 3.884658, 43.621821 ], [ 3.884717, 43.621921 ], [ 3.884878, 43.621931 ], [ 3.885001, 43.621885 ], [ 3.885137, 43.621836 ], [ 3.885282, 43.621787 ], [ 3.885415, 43.621742 ], [ 3.885546, 43.621694 ], [ 3.885677, 43.621642 ], [ 3.885801, 43.621582 ], [ 3.885918, 43.621522 ], [ 3.886018, 43.621416 ], [ 3.886086, 43.62133 ], [ 3.886046, 43.621224 ], [ 3.885976, 43.621145 ], [ 3.885922, 43.621055 ], [ 3.885886, 43.620961 ], [ 3.885996, 43.620878 ], [ 3.886117, 43.620848 ], [ 3.886278, 43.620816 ], [ 3.886418, 43.620782 ], [ 3.88656, 43.620746 ], [ 3.886712, 43.620702 ], [ 3.886856, 43.620661 ], [ 3.886996, 43.620621 ], [ 3.887118, 43.620599 ], [ 3.8871, 43.620484 ], [ 3.887061, 43.620397 ], [ 3.887026, 43.620293 ], [ 3.886961, 43.620161 ], [ 3.886888, 43.620012 ], [ 3.886836, 43.619886 ], [ 3.88682, 43.619788 ], [ 3.886756, 43.619666 ], [ 3.886718, 43.619566 ], [ 3.886654, 43.619471 ], [ 3.886584, 43.619379 ], [ 3.886514, 43.619275 ], [ 3.886459, 43.619131 ], [ 3.886408, 43.619006 ], [ 3.886355, 43.618884 ], [ 3.886308, 43.618783 ] ], [ [ 3.887448, 43.58431 ], [ 3.887568, 43.58426 ], [ 3.887726, 43.584185 ], [ 3.887872, 43.584128 ], [ 3.887762, 43.584172 ], [ 3.887682, 43.584241 ], [ 3.887512, 43.584268 ], [ 3.887618, 43.584187 ], [ 3.887726, 43.584139 ], [ 3.887856, 43.584125 ], [ 3.887974, 43.58409 ], [ 3.887873, 43.584148 ], [ 3.888004, 43.584138 ], [ 3.887885, 43.584108 ], [ 3.887798, 43.584182 ], [ 3.887593, 43.584201 ], [ 3.887722, 43.584214 ], [ 3.887809, 43.58415 ], [ 3.88776, 43.584065 ], [ 3.887678, 43.583983 ], [ 3.88755, 43.583972 ], [ 3.887434, 43.584014 ], [ 3.887313, 43.584053 ], [ 3.887217, 43.583985 ], [ 3.887161, 43.5839 ], [ 3.887122, 43.583808 ], [ 3.887278, 43.58383 ], [ 3.887287, 43.583928 ], [ 3.887161, 43.584039 ], [ 3.886923, 43.583679 ], [ 3.886854, 43.583911 ], [ 3.886945, 43.583844 ], [ 3.887027, 43.583768 ], [ 3.887161, 43.583795 ], [ 3.886311, 43.584115 ], [ 3.886764, 43.584167 ], [ 3.886616, 43.584205 ], [ 3.886585, 43.584104 ], [ 3.88665, 43.584018 ], [ 3.886723, 43.583935 ], [ 3.886826, 43.583989 ], [ 3.886876, 43.583881 ], [ 3.886923, 43.583978 ], [ 3.886979, 43.584062 ], [ 3.886842, 43.584056 ] ], [ [ 3.887319, 43.583294 ], [ 3.88724, 43.583377 ], [ 3.887365, 43.583313 ], [ 3.887492, 43.583344 ], [ 3.887652, 43.58346 ], [ 3.887732, 43.58355 ], [ 3.887805, 43.583656 ], [ 3.887874, 43.583771 ], [ 3.887941, 43.583892 ], [ 3.888001, 43.584015 ], [ 3.888057, 43.584142 ], [ 3.888114, 43.584266 ], [ 3.888169, 43.584388 ], [ 3.888221, 43.584509 ], [ 3.888269, 43.584629 ], [ 3.888309, 43.584744 ], [ 3.888334, 43.584855 ], [ 3.888342, 43.584958 ], [ 3.88836, 43.585121 ], [ 3.888431, 43.585226 ], [ 3.888558, 43.585332 ], [ 3.888646, 43.585501 ], [ 3.888684, 43.585607 ], [ 3.88873, 43.585713 ], [ 3.888814, 43.585828 ], [ 3.888904, 43.58595 ], [ 3.888983, 43.586084 ], [ 3.88906, 43.586223 ], [ 3.889133, 43.586362 ], [ 3.889207, 43.586498 ], [ 3.889282, 43.586631 ], [ 3.889362, 43.586761 ], [ 3.889444, 43.586887 ], [ 3.889526, 43.587011 ], [ 3.889605, 43.587131 ], [ 3.889684, 43.587246 ], [ 3.889761, 43.587352 ], [ 3.889835, 43.587449 ], [ 3.889906, 43.587537 ], [ 3.889971, 43.587625 ], [ 3.890032, 43.587712 ], [ 3.890089, 43.5878 ], [ 3.890142, 43.58789 ], [ 3.890191, 43.58798 ], [ 3.890232, 43.588071 ], [ 3.890258, 43.588161 ], [ 3.890265, 43.58833 ], [ 3.890219, 43.588496 ], [ 3.890156, 43.588637 ], [ 3.89014, 43.588728 ], [ 3.890266, 43.588752 ], [ 3.890441, 43.588834 ], [ 3.890606, 43.588916 ], [ 3.890733, 43.589038 ], [ 3.890794, 43.5892 ], [ 3.890753, 43.589376 ], [ 3.8907, 43.589461 ], [ 3.890634, 43.589547 ], [ 3.890552, 43.589648 ], [ 3.890472, 43.58976 ], [ 3.890407, 43.589871 ], [ 3.890362, 43.58998 ], [ 3.890336, 43.59008 ], [ 3.89032, 43.590176 ], [ 3.890315, 43.590339 ], [ 3.890317, 43.59046 ], [ 3.890351, 43.590566 ], [ 3.890361, 43.59066 ], [ 3.890378, 43.590796 ], [ 3.890333, 43.590978 ], [ 3.890271, 43.591071 ], [ 3.890194, 43.591156 ], [ 3.890117, 43.591229 ], [ 3.890027, 43.591375 ], [ 3.889977, 43.591476 ], [ 3.889943, 43.591581 ], [ 3.889924, 43.591692 ], [ 3.889912, 43.591814 ], [ 3.889913, 43.59194 ], [ 3.889913, 43.592066 ], [ 3.88991, 43.592193 ], [ 3.889899, 43.592313 ], [ 3.889882, 43.592426 ], [ 3.889869, 43.592555 ], [ 3.889865, 43.592675 ], [ 3.889859, 43.592801 ], [ 3.889851, 43.592927 ], [ 3.889863, 43.593053 ], [ 3.889889, 43.593174 ], [ 3.889922, 43.59329 ], [ 3.889957, 43.593402 ], [ 3.889989, 43.593511 ], [ 3.890022, 43.593617 ], [ 3.890062, 43.593708 ], [ 3.890104, 43.593807 ], [ 3.890153, 43.593893 ], [ 3.890196, 43.594001 ], [ 3.890244, 43.594106 ], [ 3.89031, 43.594202 ], [ 3.890371, 43.594296 ], [ 3.890432, 43.594392 ], [ 3.890489, 43.594484 ], [ 3.89055, 43.594577 ], [ 3.890717, 43.594724 ], [ 3.890815, 43.594808 ], [ 3.890916, 43.5949 ], [ 3.891026, 43.594999 ], [ 3.891135, 43.595112 ], [ 3.891241, 43.595217 ], [ 3.891343, 43.595321 ], [ 3.891442, 43.595433 ], [ 3.891543, 43.595537 ], [ 3.891655, 43.595644 ], [ 3.891755, 43.595751 ], [ 3.891859, 43.595852 ], [ 3.891959, 43.595948 ], [ 3.892055, 43.596043 ], [ 3.892141, 43.596143 ], [ 3.892235, 43.596241 ], [ 3.892329, 43.596345 ], [ 3.892421, 43.596451 ], [ 3.892502, 43.596573 ], [ 3.892566, 43.5967 ], [ 3.892628, 43.596821 ], [ 3.892681, 43.596931 ], [ 3.892725, 43.597027 ], [ 3.892805, 43.597143 ], [ 3.892878, 43.597261 ], [ 3.892899, 43.597372 ], [ 3.892953, 43.597509 ], [ 3.89304, 43.597673 ], [ 3.893093, 43.597775 ], [ 3.893151, 43.597888 ], [ 3.89321, 43.598012 ], [ 3.893274, 43.598145 ], [ 3.893346, 43.59828 ], [ 3.893424, 43.598408 ], [ 3.893504, 43.598537 ], [ 3.893582, 43.598661 ], [ 3.893653, 43.598774 ], [ 3.89372, 43.598885 ], [ 3.89378, 43.598989 ], [ 3.893842, 43.599086 ], [ 3.893936, 43.599233 ], [ 3.893985, 43.599325 ], [ 3.894117, 43.599255 ], [ 3.894222, 43.599179 ], [ 3.894445, 43.599223 ], [ 3.894661, 43.599324 ], [ 3.894767, 43.599382 ], [ 3.894933, 43.599486 ], [ 3.894996, 43.599564 ], [ 3.895093, 43.599646 ], [ 3.895208, 43.599755 ], [ 3.895335, 43.599847 ], [ 3.895494, 43.599881 ], [ 3.895652, 43.599899 ], [ 3.895819, 43.59994 ], [ 3.896002, 43.60002 ], [ 3.896189, 43.600125 ], [ 3.896371, 43.60023 ], [ 3.896563, 43.600333 ], [ 3.896768, 43.600432 ], [ 3.896963, 43.600527 ], [ 3.897153, 43.600629 ], [ 3.897336, 43.60071 ], [ 3.897529, 43.600789 ], [ 3.897636, 43.600843 ], [ 3.897752, 43.600894 ], [ 3.897886, 43.600947 ], [ 3.898022, 43.601 ], [ 3.898158, 43.601055 ], [ 3.898294, 43.60111 ], [ 3.898432, 43.601162 ], [ 3.89857, 43.601216 ], [ 3.898709, 43.60127 ], [ 3.89885, 43.601317 ], [ 3.898994, 43.601354 ], [ 3.899136, 43.601392 ], [ 3.899284, 43.601433 ], [ 3.899427, 43.601483 ], [ 3.899578, 43.601531 ], [ 3.899726, 43.601573 ], [ 3.899863, 43.601616 ], [ 3.899988, 43.601656 ], [ 3.900173, 43.601723 ], [ 3.900279, 43.601774 ], [ 3.900452, 43.601764 ], [ 3.900612, 43.601717 ], [ 3.900798, 43.601645 ], [ 3.900953, 43.601612 ], [ 3.901098, 43.60159 ], [ 3.901253, 43.601627 ], [ 3.901392, 43.601727 ], [ 3.901493, 43.601865 ], [ 3.90156, 43.601973 ], [ 3.901663, 43.602067 ], [ 3.901776, 43.602126 ], [ 3.901993, 43.60218 ], [ 3.902133, 43.602201 ], [ 3.902275, 43.602229 ], [ 3.902414, 43.602264 ], [ 3.902551, 43.602296 ], [ 3.902677, 43.602333 ], [ 3.902804, 43.602365 ], [ 3.902932, 43.602395 ], [ 3.903063, 43.602423 ], [ 3.903198, 43.602442 ], [ 3.903336, 43.60247 ], [ 3.903457, 43.602522 ], [ 3.903584, 43.60256 ], [ 3.903718, 43.6026 ], [ 3.90385, 43.602641 ], [ 3.903974, 43.602679 ], [ 3.904092, 43.602716 ], [ 3.904296, 43.602788 ], [ 3.90446, 43.60285 ], [ 3.904648, 43.602899 ], [ 3.904773, 43.602926 ], [ 3.904914, 43.602971 ], [ 3.905066, 43.603002 ], [ 3.905216, 43.603053 ], [ 3.90537, 43.603104 ], [ 3.905523, 43.603161 ], [ 3.905674, 43.603217 ], [ 3.90582, 43.603266 ], [ 3.905955, 43.603301 ], [ 3.906085, 43.603328 ], [ 3.906208, 43.603343 ], [ 3.906436, 43.603358 ], [ 3.906675, 43.603376 ], [ 3.906905, 43.603397 ], [ 3.907076, 43.603423 ], [ 3.907199, 43.603413 ], [ 3.907351, 43.603428 ], [ 3.907462, 43.603491 ], [ 3.907502, 43.603608 ], [ 3.907398, 43.603703 ], [ 3.907243, 43.603726 ], [ 3.90712, 43.603715 ], [ 3.906997, 43.603799 ], [ 3.906992, 43.603923 ], [ 3.906986, 43.604073 ], [ 3.906978, 43.604165 ], [ 3.906964, 43.604258 ], [ 3.90694, 43.60435 ], [ 3.906925, 43.60444 ], [ 3.906903, 43.604601 ], [ 3.906892, 43.604707 ], [ 3.906883, 43.604806 ], [ 3.90687, 43.604899 ], [ 3.906946, 43.604987 ], [ 3.907093, 43.604939 ], [ 3.907198, 43.604846 ], [ 3.907317, 43.60473 ], [ 3.907459, 43.604607 ], [ 3.907612, 43.604491 ], [ 3.90776, 43.604376 ], [ 3.907891, 43.60426 ], [ 3.908025, 43.604161 ], [ 3.90817, 43.604068 ], [ 3.908304, 43.603971 ], [ 3.90846, 43.603955 ], [ 3.908623, 43.603979 ], [ 3.908804, 43.60401 ], [ 3.909012, 43.604029 ], [ 3.909215, 43.604035 ], [ 3.90936, 43.604009 ], [ 3.90949, 43.604017 ], [ 3.909576, 43.604095 ], [ 3.909672, 43.604163 ], [ 3.909769, 43.604239 ], [ 3.909866, 43.604332 ], [ 3.909986, 43.604438 ], [ 3.91009, 43.604538 ], [ 3.910173, 43.604619 ], [ 3.910262, 43.604688 ], [ 3.910251, 43.604796 ], [ 3.910193, 43.6047 ], [ 3.910105, 43.604775 ], [ 3.909989, 43.604817 ], [ 3.909972, 43.604908 ], [ 3.909838, 43.604887 ], [ 3.909992, 43.604914 ], [ 3.90968, 43.604996 ], [ 3.909792, 43.604953 ], [ 3.909786, 43.604855 ] ], [ [ 3.910099, 43.604708 ], [ 3.910196, 43.604872 ], [ 3.909995, 43.604799 ], [ 3.909988, 43.604693 ], [ 3.909968, 43.604813 ], [ 3.909938, 43.604903 ], [ 3.910012, 43.604828 ], [ 3.910139, 43.604855 ], [ 3.910255, 43.604808 ], [ 3.910171, 43.604739 ], [ 3.910092, 43.604655 ], [ 3.909957, 43.604533 ], [ 3.909781, 43.604399 ], [ 3.9097, 43.60433 ], [ 3.909575, 43.604198 ], [ 3.909564, 43.604036 ], [ 3.909589, 43.603915 ], [ 3.909712, 43.603894 ], [ 3.909865, 43.603899 ], [ 3.910042, 43.603898 ], [ 3.910184, 43.603903 ], [ 3.910316, 43.603898 ], [ 3.910483, 43.603891 ], [ 3.910708, 43.603891 ], [ 3.910944, 43.603913 ], [ 3.911162, 43.603946 ], [ 3.911362, 43.603943 ], [ 3.911513, 43.603941 ], [ 3.911668, 43.603937 ], [ 3.91165, 43.603841 ], [ 3.911527, 43.603772 ], [ 3.911374, 43.603768 ], [ 3.911181, 43.603743 ], [ 3.911038, 43.603708 ], [ 3.910886, 43.603677 ], [ 3.910688, 43.603622 ], [ 3.910462, 43.603553 ], [ 3.910246, 43.603485 ], [ 3.909974, 43.603417 ], [ 3.909698, 43.603355 ], [ 3.909475, 43.603406 ], [ 3.909252, 43.603378 ], [ 3.909032, 43.603353 ], [ 3.908861, 43.60336 ], [ 3.908699, 43.603374 ], [ 3.908525, 43.603396 ], [ 3.908304, 43.603414 ], [ 3.908112, 43.603458 ], [ 3.907919, 43.603508 ], [ 3.907742, 43.603561 ], [ 3.907577, 43.603593 ], [ 3.907409, 43.603607 ], [ 3.90726, 43.603648 ], [ 3.907113, 43.603679 ], [ 3.906981, 43.603713 ], [ 3.906842, 43.603716 ], [ 3.906702, 43.603723 ], [ 3.906576, 43.603727 ], [ 3.906416, 43.603721 ], [ 3.906266, 43.603717 ], [ 3.906109, 43.603704 ], [ 3.905932, 43.603674 ], [ 3.90578, 43.603639 ], [ 3.905619, 43.603593 ], [ 3.905441, 43.603564 ], [ 3.90525, 43.603531 ], [ 3.90504, 43.603461 ], [ 3.904823, 43.603355 ], [ 3.904603, 43.603295 ], [ 3.904397, 43.603241 ], [ 3.904198, 43.603201 ], [ 3.904027, 43.603161 ], [ 3.903878, 43.603134 ], [ 3.903739, 43.603096 ], [ 3.903601, 43.603065 ], [ 3.903465, 43.603038 ], [ 3.903247, 43.603 ], [ 3.903075, 43.602994 ], [ 3.902824, 43.602996 ], [ 3.902696, 43.603018 ], [ 3.902553, 43.602995 ], [ 3.902444, 43.602946 ], [ 3.902308, 43.602863 ], [ 3.902137, 43.602817 ], [ 3.901978, 43.602744 ], [ 3.901831, 43.602652 ], [ 3.901696, 43.602543 ], [ 3.901573, 43.602428 ], [ 3.901432, 43.602365 ], [ 3.901353, 43.602294 ], [ 3.901305, 43.602195 ], [ 3.901433, 43.602116 ], [ 3.901582, 43.602077 ], [ 3.901496, 43.601942 ], [ 3.901352, 43.601929 ], [ 3.901215, 43.601996 ], [ 3.901113, 43.602059 ], [ 3.900944, 43.602093 ], [ 3.900793, 43.602142 ], [ 3.900605, 43.60218 ], [ 3.900481, 43.602119 ], [ 3.900495, 43.60185 ], [ 3.900397, 43.601784 ], [ 3.90025, 43.601704 ], [ 3.899379, 43.601611 ], [ 3.899194, 43.601567 ], [ 3.898985, 43.601402 ], [ 3.898834, 43.601329 ], [ 3.898696, 43.601317 ], [ 3.898568, 43.601282 ], [ 3.898429, 43.601241 ], [ 3.898292, 43.60121 ], [ 3.898161, 43.601185 ], [ 3.898033, 43.601158 ], [ 3.897823, 43.601111 ], [ 3.897658, 43.60106 ], [ 3.897507, 43.601034 ], [ 3.897635, 43.601008 ], [ 3.897813, 43.601033 ], [ 3.897919, 43.601087 ], [ 3.898034, 43.60113 ], [ 3.898168, 43.601181 ], [ 3.898301, 43.601241 ], [ 3.898441, 43.601302 ], [ 3.89859, 43.601341 ], [ 3.89874, 43.60137 ], [ 3.898889, 43.601399 ], [ 3.899027, 43.601443 ], [ 3.899164, 43.601485 ], [ 3.899311, 43.601521 ], [ 3.89945, 43.601561 ], [ 3.899587, 43.601605 ], [ 3.899719, 43.601643 ], [ 3.899844, 43.601687 ], [ 3.900035, 43.601767 ], [ 3.9002, 43.601799 ], [ 3.900332, 43.601799 ], [ 3.900455, 43.601823 ], [ 3.900596, 43.601779 ], [ 3.900763, 43.601713 ], [ 3.900935, 43.601647 ], [ 3.901104, 43.60164 ], [ 3.901237, 43.60167 ], [ 3.901348, 43.601762 ], [ 3.901434, 43.601903 ], [ 3.901502, 43.602071 ], [ 3.901517, 43.602212 ], [ 3.901395, 43.602301 ], [ 3.901258, 43.602343 ], [ 3.90112, 43.602381 ], [ 3.900979, 43.602414 ], [ 3.900852, 43.602434 ], [ 3.900632, 43.602397 ], [ 3.900491, 43.602258 ], [ 3.90044, 43.602163 ], [ 3.900396, 43.602076 ], [ 3.900324, 43.601924 ], [ 3.900239, 43.601808 ], [ 3.900104, 43.601723 ], [ 3.899907, 43.601607 ], [ 3.899757, 43.601558 ], [ 3.899616, 43.60156 ], [ 3.899435, 43.601521 ], [ 3.899355, 43.601596 ], [ 3.899228, 43.601602 ], [ 3.899087, 43.601539 ], [ 3.898917, 43.601494 ], [ 3.898715, 43.601442 ], [ 3.898485, 43.601357 ], [ 3.898368, 43.601305 ], [ 3.898251, 43.601245 ], [ 3.898068, 43.601159 ], [ 3.897962, 43.601079 ], [ 3.898, 43.601182 ], [ 3.897872, 43.601153 ], [ 3.897732, 43.601112 ], [ 3.897582, 43.601058 ], [ 3.897477, 43.600992 ], [ 3.897392, 43.600891 ], [ 3.897278, 43.600792 ], [ 3.897092, 43.600709 ], [ 3.896974, 43.600659 ], [ 3.896854, 43.600606 ], [ 3.896732, 43.600544 ], [ 3.896618, 43.600478 ], [ 3.896507, 43.600411 ], [ 3.896397, 43.600344 ], [ 3.896299, 43.600283 ], [ 3.896145, 43.600193 ], [ 3.896025, 43.600107 ], [ 3.895894, 43.60004 ], [ 3.895746, 43.599968 ], [ 3.895603, 43.599926 ], [ 3.895432, 43.599892 ], [ 3.895242, 43.599894 ], [ 3.895068, 43.599947 ], [ 3.894907, 43.600021 ], [ 3.894792, 43.600091 ], [ 3.894721, 43.600171 ], [ 3.894619, 43.600237 ], [ 3.894502, 43.600204 ], [ 3.894388, 43.600089 ], [ 3.894294, 43.599937 ], [ 3.894213, 43.59978 ], [ 3.894135, 43.599644 ], [ 3.894041, 43.599526 ], [ 3.893945, 43.59939 ], [ 3.893885, 43.599308 ], [ 3.893815, 43.599211 ], [ 3.893742, 43.599103 ], [ 3.893665, 43.59899 ], [ 3.893592, 43.598866 ], [ 3.893523, 43.598738 ], [ 3.893457, 43.598609 ], [ 3.893394, 43.598485 ], [ 3.89334, 43.598372 ], [ 3.893285, 43.598273 ], [ 3.893231, 43.598186 ], [ 3.893137, 43.598032 ], [ 3.893057, 43.597903 ], [ 3.892996, 43.597784 ], [ 3.892949, 43.597661 ], [ 3.892896, 43.597551 ], [ 3.892849, 43.59746 ], [ 3.892801, 43.597352 ], [ 3.892724, 43.5972 ], [ 3.892678, 43.597103 ], [ 3.892633, 43.597002 ], [ 3.892589, 43.596898 ], [ 3.892542, 43.596792 ], [ 3.892484, 43.596688 ], [ 3.892425, 43.596587 ], [ 3.892358, 43.596487 ], [ 3.892277, 43.596395 ], [ 3.892188, 43.596307 ], [ 3.892096, 43.596229 ], [ 3.891941, 43.596108 ], [ 3.891811, 43.596003 ], [ 3.891682, 43.595886 ], [ 3.89155, 43.595757 ], [ 3.891417, 43.595628 ], [ 3.891282, 43.595496 ], [ 3.891154, 43.595364 ], [ 3.891018, 43.595239 ], [ 3.890861, 43.595113 ], [ 3.890723, 43.594972 ], [ 3.890655, 43.594888 ], [ 3.890582, 43.594807 ], [ 3.890511, 43.594722 ], [ 3.890445, 43.594643 ], [ 3.890388, 43.594539 ], [ 3.890327, 43.594416 ], [ 3.890268, 43.594293 ], [ 3.89021, 43.594171 ], [ 3.890158, 43.594049 ], [ 3.890108, 43.593921 ], [ 3.890067, 43.593809 ], [ 3.890043, 43.593702 ], [ 3.890019, 43.593594 ], [ 3.889998, 43.593491 ], [ 3.889978, 43.5934 ], [ 3.889943, 43.593236 ], [ 3.889913, 43.593127 ], [ 3.8898, 43.593017 ], [ 3.889712, 43.592921 ], [ 3.88964, 43.592819 ], [ 3.88966, 43.59271 ], [ 3.889694, 43.592601 ], [ 3.889709, 43.592507 ], [ 3.889711, 43.592389 ], [ 3.88973, 43.592291 ], [ 3.889744, 43.592198 ], [ 3.889763, 43.592086 ], [ 3.889769, 43.591982 ], [ 3.88977, 43.591892 ], [ 3.889757, 43.591793 ], [ 3.889763, 43.591674 ], [ 3.889759, 43.591575 ], [ 3.889749, 43.59148 ], [ 3.889741, 43.591385 ], [ 3.889751, 43.591282 ], [ 3.8898, 43.59116 ], [ 3.889918, 43.591025 ], [ 3.890065, 43.590892 ], [ 3.890199, 43.590762 ], [ 3.890267, 43.590625 ], [ 3.890276, 43.590477 ], [ 3.890257, 43.590336 ], [ 3.890249, 43.590221 ], [ 3.89026, 43.590109 ], [ 3.890283, 43.589991 ], [ 3.890273, 43.589876 ], [ 3.890227, 43.589774 ], [ 3.890131, 43.589706 ], [ 3.890028, 43.589643 ], [ 3.889862, 43.589575 ], [ 3.889667, 43.589485 ], [ 3.889522, 43.589347 ], [ 3.889473, 43.589171 ], [ 3.88953, 43.589001 ], [ 3.889642, 43.588874 ], [ 3.889779, 43.588801 ], [ 3.889926, 43.588731 ], [ 3.890037, 43.588613 ], [ 3.890103, 43.58846 ], [ 3.890094, 43.588272 ], [ 3.890064, 43.58818 ], [ 3.890031, 43.588082 ], [ 3.889975, 43.587979 ], [ 3.889908, 43.587876 ], [ 3.889843, 43.587769 ], [ 3.889788, 43.587667 ], [ 3.88972, 43.587562 ], [ 3.88965, 43.587464 ], [ 3.889592, 43.587381 ], [ 3.889498, 43.587231 ], [ 3.889442, 43.587132 ], [ 3.8894, 43.58701 ], [ 3.889317, 43.586897 ], [ 3.88923, 43.586743 ], [ 3.889176, 43.586655 ], [ 3.889124, 43.586568 ], [ 3.889074, 43.586478 ], [ 3.889026, 43.586388 ], [ 3.888981, 43.586294 ], [ 3.888936, 43.5862 ], [ 3.888888, 43.586105 ], [ 3.888868, 43.586012 ], [ 3.888814, 43.585856 ], [ 3.888761, 43.585748 ], [ 3.888701, 43.585646 ], [ 3.888581, 43.585554 ], [ 3.888421, 43.585531 ], [ 3.88822, 43.585502 ], [ 3.888049, 43.585411 ], [ 3.887984, 43.585275 ], [ 3.888058, 43.585124 ], [ 3.888138, 43.585008 ], [ 3.888127, 43.58485 ], [ 3.888083, 43.584718 ], [ 3.888035, 43.584617 ], [ 3.887957, 43.584511 ], [ 3.887871, 43.584381 ], [ 3.88779, 43.584244 ], [ 3.887716, 43.584124 ], [ 3.887673, 43.584024 ], [ 3.887615, 43.583923 ], [ 3.887463, 43.583941 ], [ 3.887311, 43.583996 ], [ 3.887183, 43.584002 ], [ 3.887191, 43.5839 ], [ 3.887208, 43.583808 ] ], [ [ 3.907587, 43.603576 ], [ 3.907714, 43.603139 ], [ 3.906591, 43.603162 ], [ 3.908105, 43.603287 ], [ 3.908273, 43.603254 ], [ 3.908413, 43.603245 ], [ 3.908553, 43.603238 ], [ 3.908687, 43.603235 ], [ 3.908818, 43.603227 ], [ 3.908949, 43.60322 ], [ 3.909081, 43.603211 ], [ 3.909215, 43.603206 ], [ 3.909349, 43.603208 ], [ 3.909479, 43.60321 ], [ 3.909614, 43.603215 ], [ 3.909755, 43.603226 ], [ 3.909898, 43.603238 ], [ 3.910046, 43.603252 ], [ 3.910197, 43.603267 ], [ 3.910348, 43.603283 ], [ 3.910496, 43.603303 ], [ 3.910642, 43.603319 ], [ 3.910785, 43.603335 ], [ 3.910916, 43.603352 ], [ 3.911041, 43.60338 ], [ 3.911161, 43.603409 ], [ 3.911386, 43.603472 ], [ 3.9115, 43.603508 ], [ 3.911614, 43.603549 ], [ 3.911734, 43.603589 ], [ 3.911858, 43.603625 ], [ 3.911982, 43.603671 ], [ 3.912097, 43.603714 ], [ 3.912307, 43.603799 ], [ 3.912456, 43.603914 ], [ 3.912563, 43.603986 ], [ 3.912677, 43.604033 ], [ 3.91283, 43.604032 ], [ 3.913001, 43.604035 ], [ 3.913135, 43.604033 ], [ 3.913327, 43.604054 ], [ 3.913511, 43.604133 ], [ 3.913634, 43.604238 ], [ 3.913639, 43.604382 ], [ 3.913529, 43.604516 ], [ 3.913378, 43.60463 ], [ 3.913249, 43.604733 ], [ 3.91317, 43.604849 ], [ 3.913149, 43.604991 ], [ 3.913145, 43.605153 ], [ 3.91316, 43.605339 ], [ 3.913166, 43.605436 ], [ 3.913174, 43.605537 ], [ 3.913179, 43.605635 ], [ 3.913183, 43.605735 ], [ 3.913187, 43.60583 ], [ 3.913192, 43.605923 ], [ 3.913192, 43.606015 ], [ 3.913198, 43.606192 ], [ 3.913223, 43.606363 ], [ 3.91327, 43.606533 ], [ 3.913319, 43.606687 ], [ 3.913353, 43.606828 ], [ 3.913384, 43.606972 ], [ 3.913407, 43.607108 ], [ 3.913421, 43.607234 ], [ 3.913435, 43.607325 ], [ 3.913467, 43.607418 ], [ 3.9135, 43.607507 ], [ 3.913436, 43.607593 ], [ 3.913371, 43.607669 ], [ 3.913406, 43.607765 ], [ 3.913489, 43.607858 ], [ 3.913594, 43.608009 ], [ 3.913637, 43.6081 ], [ 3.913679, 43.608191 ], [ 3.913721, 43.60828 ], [ 3.913765, 43.608373 ], [ 3.913801, 43.60849 ], [ 3.913841, 43.608661 ], [ 3.913818, 43.608812 ], [ 3.913754, 43.608918 ], [ 3.913786, 43.609014 ], [ 3.913913, 43.609098 ], [ 3.914087, 43.609152 ], [ 3.914291, 43.609211 ], [ 3.914496, 43.609274 ], [ 3.914649, 43.609355 ], [ 3.914726, 43.609467 ], [ 3.914728, 43.609584 ], [ 3.914737, 43.609676 ], [ 3.914754, 43.609774 ], [ 3.914776, 43.609873 ], [ 3.914798, 43.609965 ], [ 3.914834, 43.610103 ], [ 3.914862, 43.610212 ], [ 3.914902, 43.610325 ], [ 3.914977, 43.610432 ], [ 3.915035, 43.61055 ], [ 3.915031, 43.610704 ], [ 3.915001, 43.610859 ], [ 3.914991, 43.610997 ], [ 3.914987, 43.611132 ], [ 3.914978, 43.611264 ], [ 3.914962, 43.611399 ], [ 3.914945, 43.611547 ], [ 3.914935, 43.611702 ], [ 3.914941, 43.611861 ], [ 3.914938, 43.612024 ], [ 3.914929, 43.612193 ], [ 3.914921, 43.612368 ], [ 3.91491, 43.612535 ], [ 3.914894, 43.612685 ], [ 3.914883, 43.612832 ], [ 3.914874, 43.61297 ], [ 3.914865, 43.613088 ], [ 3.914861, 43.613189 ], [ 3.914853, 43.613281 ], [ 3.914833, 43.613416 ], [ 3.914825, 43.613516 ], [ 3.914823, 43.613623 ], [ 3.914816, 43.613753 ], [ 3.914809, 43.613911 ], [ 3.914803, 43.61408 ], [ 3.914798, 43.614235 ], [ 3.914799, 43.614372 ], [ 3.914793, 43.614503 ], [ 3.914793, 43.614634 ], [ 3.914792, 43.614773 ], [ 3.914791, 43.614933 ], [ 3.914787, 43.615024 ], [ 3.914792, 43.615124 ], [ 3.914791, 43.615225 ], [ 3.914784, 43.615328 ], [ 3.914778, 43.615424 ], [ 3.914773, 43.615524 ], [ 3.914768, 43.615614 ], [ 3.914724, 43.615789 ], [ 3.914653, 43.615955 ], [ 3.914582, 43.616114 ], [ 3.914519, 43.616255 ], [ 3.914454, 43.616387 ], [ 3.914384, 43.616481 ], [ 3.914345, 43.616571 ], [ 3.914264, 43.616686 ], [ 3.914181, 43.616819 ], [ 3.914104, 43.616961 ], [ 3.914032, 43.61711 ], [ 3.913968, 43.617243 ], [ 3.913894, 43.617347 ], [ 3.913823, 43.61743 ], [ 3.913774, 43.617532 ], [ 3.913699, 43.617643 ], [ 3.913632, 43.617775 ], [ 3.913575, 43.617902 ], [ 3.913536, 43.61802 ], [ 3.913517, 43.618129 ], [ 3.913507, 43.618256 ], [ 3.913536, 43.618406 ], [ 3.91358, 43.618494 ], [ 3.913626, 43.618585 ], [ 3.913656, 43.618674 ], [ 3.913641, 43.618849 ], [ 3.913498, 43.618983 ], [ 3.913268, 43.619036 ], [ 3.913142, 43.619035 ], [ 3.912909, 43.618992 ], [ 3.912732, 43.618879 ], [ 3.912632, 43.618716 ], [ 3.912613, 43.618624 ], [ 3.912648, 43.618455 ], [ 3.912699, 43.618338 ], [ 3.912715, 43.618231 ], [ 3.912668, 43.618115 ], [ 3.912575, 43.617987 ], [ 3.912442, 43.617863 ], [ 3.912306, 43.617759 ], [ 3.912211, 43.617689 ], [ 3.912108, 43.617609 ], [ 3.91203, 43.617536 ], [ 3.911909, 43.617431 ], [ 3.911748, 43.617295 ], [ 3.911594, 43.617162 ], [ 3.911436, 43.617039 ], [ 3.91129, 43.61693 ], [ 3.911192, 43.616835 ], [ 3.911114, 43.616758 ], [ 3.911, 43.616671 ], [ 3.910879, 43.616588 ], [ 3.910769, 43.616518 ], [ 3.910678, 43.616443 ], [ 3.910612, 43.616365 ], [ 3.910674, 43.616277 ], [ 3.910815, 43.616307 ], [ 3.910903, 43.616382 ], [ 3.911008, 43.616451 ], [ 3.911122, 43.616496 ], [ 3.911225, 43.616562 ], [ 3.91131, 43.616661 ], [ 3.91139, 43.616732 ], [ 3.911496, 43.616807 ], [ 3.911579, 43.616898 ], [ 3.911668, 43.616991 ], [ 3.911741, 43.617079 ], [ 3.911849, 43.617187 ], [ 3.911939, 43.617289 ], [ 3.911811, 43.617252 ], [ 3.911712, 43.617195 ], [ 3.911702, 43.617104 ], [ 3.911618, 43.61703 ], [ 3.911908, 43.617133 ], [ 3.91196, 43.617221 ], [ 3.911846, 43.617258 ], [ 3.911781, 43.617169 ], [ 3.911966, 43.617075 ], [ 3.912054, 43.617173 ], [ 3.912108, 43.617273 ], [ 3.912226, 43.617322 ], [ 3.912183, 43.617419 ], [ 3.912084, 43.617486 ], [ 3.912187, 43.617232 ], [ 3.912431, 43.61742 ], [ 3.912302, 43.617389 ], [ 3.911945, 43.617173 ], [ 3.91223, 43.617197 ], [ 3.912339, 43.617289 ], [ 3.912418, 43.617598 ], [ 3.912352, 43.61748 ], [ 3.912239, 43.617435 ], [ 3.912122, 43.617403 ], [ 3.912081, 43.617318 ], [ 3.912206, 43.617343 ], [ 3.912313, 43.617291 ], [ 3.912385, 43.617208 ], [ 3.912435, 43.617119 ], [ 3.912351, 43.617043 ], [ 3.912508, 43.616987 ], [ 3.912633, 43.617032 ], [ 3.912737, 43.6171 ], [ 3.912785, 43.61722 ], [ 3.912886, 43.617165 ], [ 3.912497, 43.617233 ], [ 3.912503, 43.617471 ], [ 3.912521, 43.617362 ], [ 3.912541, 43.617273 ], [ 3.91257, 43.617162 ], [ 3.912552, 43.617062 ], [ 3.912464, 43.616989 ], [ 3.91259, 43.616981 ] ], [ [ 3.913048, 43.616488 ], [ 3.91292, 43.61647 ], [ 3.912677, 43.61643 ], [ 3.912914, 43.616485 ], [ 3.912905, 43.616381 ], [ 3.912914, 43.616287 ], [ 3.912815, 43.61622 ], [ 3.912666, 43.616153 ], [ 3.912539, 43.616108 ], [ 3.91239, 43.616077 ], [ 3.912224, 43.616029 ], [ 3.912088, 43.615994 ], [ 3.911972, 43.616035 ], [ 3.91186, 43.616123 ], [ 3.911825, 43.616217 ], [ 3.911811, 43.616307 ], [ 3.911769, 43.616392 ], [ 3.911714, 43.61648 ], [ 3.911648, 43.616562 ], [ 3.911587, 43.616655 ], [ 3.911517, 43.616747 ], [ 3.911391, 43.61678 ], [ 3.911232, 43.616717 ], [ 3.911132, 43.616645 ], [ 3.911001, 43.616567 ], [ 3.910865, 43.616484 ], [ 3.910761, 43.616432 ], [ 3.910742, 43.616323 ], [ 3.910792, 43.616231 ], [ 3.910836, 43.61614 ], [ 3.910879, 43.616039 ], [ 3.910925, 43.61595 ], [ 3.910958, 43.615851 ], [ 3.910913, 43.615941 ], [ 3.910847, 43.616027 ], [ 3.910825, 43.616135 ], [ 3.910774, 43.616234 ], [ 3.910727, 43.616333 ], [ 3.910785, 43.616416 ], [ 3.910901, 43.61649 ], [ 3.911074, 43.616586 ], [ 3.911208, 43.616683 ], [ 3.911383, 43.616721 ], [ 3.911478, 43.616809 ], [ 3.911549, 43.616906 ], [ 3.911636, 43.616993 ], [ 3.911726, 43.617065 ], [ 3.911872, 43.61715 ], [ 3.912022, 43.617257 ], [ 3.912084, 43.61734 ], [ 3.912138, 43.617437 ], [ 3.912262, 43.61755 ], [ 3.912381, 43.617629 ], [ 3.912503, 43.617721 ], [ 3.912592, 43.617803 ], [ 3.912686, 43.617881 ], [ 3.91277, 43.617957 ], [ 3.912877, 43.618042 ], [ 3.912986, 43.618125 ], [ 3.913125, 43.618078 ], [ 3.913195, 43.618003 ], [ 3.913229, 43.617912 ], [ 3.913101, 43.617868 ], [ 3.913157, 43.617781 ], [ 3.913198, 43.61764 ], [ 3.913714, 43.617997 ], [ 3.913904, 43.617841 ], [ 3.913693, 43.617821 ], [ 3.913402, 43.617965 ], [ 3.913418, 43.617866 ], [ 3.913443, 43.617764 ], [ 3.913423, 43.617662 ], [ 3.913627, 43.617652 ], [ 3.913808, 43.617702 ], [ 3.913437, 43.617564 ], [ 3.914303, 43.617992 ], [ 3.914395, 43.61808 ], [ 3.913534, 43.617769 ], [ 3.912997, 43.61752 ], [ 3.913214, 43.617515 ], [ 3.913104, 43.617461 ], [ 3.913249, 43.617566 ], [ 3.913116, 43.617557 ], [ 3.913149, 43.617646 ], [ 3.913018, 43.617713 ], [ 3.913117, 43.61781 ], [ 3.912987, 43.617691 ], [ 3.912942, 43.617579 ], [ 3.913017, 43.617495 ], [ 3.913067, 43.617399 ], [ 3.913125, 43.617314 ], [ 3.913195, 43.617223 ], [ 3.913343, 43.617257 ], [ 3.913466, 43.617268 ], [ 3.913473, 43.617381 ], [ 3.913338, 43.617389 ], [ 3.913278, 43.6173 ], [ 3.913256, 43.617182 ], [ 3.913303, 43.617063 ], [ 3.913288, 43.617159 ], [ 3.91331, 43.617063 ], [ 3.913389, 43.616994 ], [ 3.913138, 43.616931 ], [ 3.913312, 43.617021 ], [ 3.913608, 43.617043 ], [ 3.913485, 43.617113 ], [ 3.91344, 43.617018 ], [ 3.913428, 43.61692 ], [ 3.913519, 43.616854 ], [ 3.91364, 43.616876 ], [ 3.913765, 43.616863 ], [ 3.913677, 43.616764 ], [ 3.9137, 43.616675 ], [ 3.913824, 43.616718 ], [ 3.913686, 43.61668 ], [ 3.913592, 43.616617 ], [ 3.913665, 43.616695 ], [ 3.913495, 43.616617 ], [ 3.912988, 43.616535 ], [ 3.913432, 43.616871 ], [ 3.913562, 43.61687 ], [ 3.913509, 43.616716 ], [ 3.913628, 43.616753 ], [ 3.91375, 43.616734 ], [ 3.913873, 43.616804 ], [ 3.913479, 43.61662 ], [ 3.913483, 43.616719 ], [ 3.913466, 43.616814 ], [ 3.913448, 43.61691 ], [ 3.913412, 43.616997 ], [ 3.913338, 43.617073 ], [ 3.913434, 43.617132 ], [ 3.913561, 43.617117 ], [ 3.91365, 43.61705 ], [ 3.913711, 43.616964 ], [ 3.913747, 43.616874 ], [ 3.913808, 43.616764 ], [ 3.913838, 43.616674 ], [ 3.913828, 43.616578 ], [ 3.913742, 43.616504 ], [ 3.913603, 43.616468 ], [ 3.913487, 43.616394 ], [ 3.913347, 43.616323 ], [ 3.913223, 43.616287 ], [ 3.913099, 43.616256 ], [ 3.912986, 43.616217 ], [ 3.91287, 43.616175 ], [ 3.913022, 43.616198 ], [ 3.913186, 43.616245 ], [ 3.913322, 43.616268 ], [ 3.913468, 43.616275 ], [ 3.913607, 43.616291 ], [ 3.913765, 43.616328 ], [ 3.913919, 43.616382 ], [ 3.914025, 43.616455 ], [ 3.914117, 43.616525 ], [ 3.914202, 43.616409 ], [ 3.914255, 43.616277 ], [ 3.914331, 43.616129 ], [ 3.914411, 43.615967 ], [ 3.914482, 43.6158 ], [ 3.914531, 43.615629 ], [ 3.914512, 43.615488 ], [ 3.914443, 43.615383 ], [ 3.914388, 43.615279 ], [ 3.914363, 43.615186 ], [ 3.914416, 43.615086 ], [ 3.914464, 43.614959 ], [ 3.914482, 43.614845 ], [ 3.914565, 43.614767 ], [ 3.91463, 43.614661 ], [ 3.914636, 43.614563 ], [ 3.914631, 43.614456 ], [ 3.91458, 43.614359 ], [ 3.914461, 43.614324 ], [ 3.914301, 43.614277 ], [ 3.914132, 43.614215 ], [ 3.913983, 43.614155 ], [ 3.913855, 43.614109 ], [ 3.913732, 43.614069 ], [ 3.91389, 43.614095 ], [ 3.914163, 43.614159 ], [ 3.914314, 43.614201 ], [ 3.91445, 43.614283 ], [ 3.914609, 43.614327 ], [ 3.914659, 43.614214 ], [ 3.914643, 43.614067 ], [ 3.914636, 43.61397 ], [ 3.914632, 43.613864 ], [ 3.914632, 43.61375 ], [ 3.914632, 43.613631 ], [ 3.914636, 43.613509 ], [ 3.914643, 43.613384 ], [ 3.914651, 43.613258 ], [ 3.914655, 43.613135 ], [ 3.914658, 43.613019 ], [ 3.914665, 43.612913 ], [ 3.914671, 43.612818 ], [ 3.914681, 43.612644 ], [ 3.914694, 43.612477 ], [ 3.914709, 43.612315 ], [ 3.914716, 43.61219 ], [ 3.914722, 43.612095 ], [ 3.914724, 43.611981 ], [ 3.914727, 43.611851 ], [ 3.914734, 43.611718 ], [ 3.914738, 43.611605 ], [ 3.914743, 43.611512 ], [ 3.914748, 43.611405 ], [ 3.914749, 43.611299 ], [ 3.914757, 43.611178 ], [ 3.914763, 43.61108 ], [ 3.91488, 43.611113 ], [ 3.914835, 43.611014 ], [ 3.914841, 43.610896 ], [ 3.914848, 43.61074 ], [ 3.914833, 43.610556 ], [ 3.914811, 43.610459 ], [ 3.914788, 43.610362 ], [ 3.914769, 43.610271 ], [ 3.914736, 43.610103 ], [ 3.914703, 43.609936 ], [ 3.914683, 43.609839 ], [ 3.914663, 43.609741 ], [ 3.914646, 43.60964 ], [ 3.914631, 43.609543 ], [ 3.914604, 43.609449 ], [ 3.914505, 43.60931 ], [ 3.914327, 43.609215 ], [ 3.91415, 43.609158 ], [ 3.913975, 43.609102 ], [ 3.913829, 43.609043 ], [ 3.913701, 43.60899 ], [ 3.913569, 43.608929 ], [ 3.913414, 43.608899 ], [ 3.913235, 43.608918 ], [ 3.912997, 43.608967 ], [ 3.912861, 43.608996 ], [ 3.912722, 43.609025 ], [ 3.912587, 43.609057 ], [ 3.912459, 43.609093 ], [ 3.912332, 43.60912 ], [ 3.912113, 43.609146 ], [ 3.911953, 43.609123 ], [ 3.91179, 43.609063 ], [ 3.911622, 43.609016 ], [ 3.91153, 43.608883 ], [ 3.911524, 43.608584 ], [ 3.911506, 43.608443 ], [ 3.911555, 43.608252 ], [ 3.911623, 43.608126 ], [ 3.91176, 43.607955 ], [ 3.911876, 43.607867 ], [ 3.912018, 43.607804 ], [ 3.912171, 43.607768 ], [ 3.912302, 43.607743 ], [ 3.912521, 43.607692 ], [ 3.912753, 43.607642 ], [ 3.912977, 43.607568 ], [ 3.913169, 43.607459 ], [ 3.913298, 43.607333 ], [ 3.913311, 43.607203 ], [ 3.913251, 43.607106 ], [ 3.913207, 43.60702 ], [ 3.913147, 43.606907 ], [ 3.913141, 43.6068 ], [ 3.913148, 43.606691 ], [ 3.913118, 43.606593 ], [ 3.913083, 43.606454 ], [ 3.913049, 43.606286 ], [ 3.913033, 43.606196 ], [ 3.913023, 43.606102 ], [ 3.91302, 43.606003 ], [ 3.913013, 43.605906 ], [ 3.913008, 43.605805 ], [ 3.913008, 43.605701 ], [ 3.91301, 43.605593 ], [ 3.913004, 43.605487 ], [ 3.912993, 43.60538 ], [ 3.912993, 43.605267 ], [ 3.912993, 43.605162 ], [ 3.912989, 43.605065 ], [ 3.91299, 43.604974 ], [ 3.912994, 43.604814 ], [ 3.912967, 43.604699 ], [ 3.912855, 43.60463 ], [ 3.912759, 43.604551 ], [ 3.912664, 43.604447 ], [ 3.912602, 43.604314 ], [ 3.912539, 43.604181 ], [ 3.912401, 43.604082 ], [ 3.912218, 43.604004 ], [ 3.912057, 43.603952 ], [ 3.911932, 43.603902 ], [ 3.911761, 43.603827 ], [ 3.911551, 43.603766 ], [ 3.911427, 43.603739 ], [ 3.9113, 43.60371 ], [ 3.911168, 43.60368 ], [ 3.911026, 43.603647 ], [ 3.910881, 43.603613 ], [ 3.910732, 43.603581 ], [ 3.91058, 43.603553 ], [ 3.910428, 43.60353 ], [ 3.910283, 43.603504 ], [ 3.910134, 43.603483 ], [ 3.90999, 43.60347 ], [ 3.909845, 43.603462 ], [ 3.909699, 43.603454 ], [ 3.90955, 43.603449 ], [ 3.9094, 43.603444 ], [ 3.909249, 43.603442 ], [ 3.909094, 43.603446 ], [ 3.908939, 43.603454 ], [ 3.908782, 43.603464 ], [ 3.908624, 43.603474 ], [ 3.908467, 43.603488 ], [ 3.908309, 43.603501 ], [ 3.90816, 43.603512 ], [ 3.90802, 43.603527 ], [ 3.90789, 43.603543 ], [ 3.907659, 43.603567 ], [ 3.907461, 43.603605 ], [ 3.907278, 43.603658 ], [ 3.907113, 43.603685 ], [ 3.906973, 43.603739 ], [ 3.906977, 43.603831 ], [ 3.906991, 43.603949 ], [ 3.906976, 43.604078 ], [ 3.906956, 43.604194 ], [ 3.906941, 43.604296 ], [ 3.906889, 43.604385 ], [ 3.90681, 43.60431 ], [ 3.906816, 43.604183 ], [ 3.906812, 43.604046 ], [ 3.906807, 43.603904 ], [ 3.906795, 43.60378 ], [ 3.906826, 43.60367 ], [ 3.906683, 43.60358 ], [ 3.906459, 43.603523 ], [ 3.906329, 43.603473 ], [ 3.906195, 43.603418 ], [ 3.906041, 43.603367 ], [ 3.905877, 43.603321 ], [ 3.905706, 43.603281 ], [ 3.905531, 43.603244 ], [ 3.905349, 43.603205 ], [ 3.905174, 43.603165 ], [ 3.905001, 43.603127 ], [ 3.904838, 43.603087 ], [ 3.904685, 43.60305 ], [ 3.904547, 43.603013 ], [ 3.904337, 43.602955 ], [ 3.904165, 43.602904 ], [ 3.903922, 43.602842 ], [ 3.90377, 43.602805 ], [ 3.903605, 43.602766 ], [ 3.903426, 43.602728 ], [ 3.903242, 43.602686 ], [ 3.903052, 43.602644 ], [ 3.902855, 43.602603 ], [ 3.902663, 43.602559 ], [ 3.902474, 43.602515 ], [ 3.902289, 43.602471 ], [ 3.902114, 43.602428 ], [ 3.901955, 43.602391 ], [ 3.901813, 43.602361 ], [ 3.901593, 43.602317 ], [ 3.901451, 43.602277 ], [ 3.901277, 43.602304 ], [ 3.901139, 43.602356 ], [ 3.900994, 43.602415 ], [ 3.900856, 43.602436 ], [ 3.900713, 43.602412 ], [ 3.900603, 43.602349 ], [ 3.90051, 43.602256 ], [ 3.900425, 43.602143 ], [ 3.900337, 43.602021 ], [ 3.900257, 43.601933 ], [ 3.900141, 43.601847 ], [ 3.899996, 43.601781 ], [ 3.899798, 43.601711 ], [ 3.899587, 43.601666 ], [ 3.899396, 43.601608 ], [ 3.899248, 43.601544 ], [ 3.899116, 43.601502 ], [ 3.898979, 43.601464 ], [ 3.89885, 43.601446 ], [ 3.898711, 43.601415 ], [ 3.898535, 43.601361 ], [ 3.898341, 43.601294 ], [ 3.898178, 43.601229 ], [ 3.898049, 43.601211 ], [ 3.897916, 43.601153 ], [ 3.897791, 43.601108 ], [ 3.897688, 43.601054 ], [ 3.897564, 43.600965 ], [ 3.897495, 43.600872 ], [ 3.89743, 43.600775 ], [ 3.897295, 43.600734 ], [ 3.897144, 43.600686 ], [ 3.896998, 43.600621 ], [ 3.89689, 43.600565 ], [ 3.896767, 43.600502 ], [ 3.896642, 43.600433 ], [ 3.896517, 43.600376 ], [ 3.896383, 43.600299 ], [ 3.896275, 43.60024 ], [ 3.896159, 43.600174 ], [ 3.896048, 43.600106 ], [ 3.895944, 43.600047 ], [ 3.895844, 43.599987 ], [ 3.895685, 43.599922 ], [ 3.895516, 43.599871 ], [ 3.895365, 43.599868 ], [ 3.8952, 43.599912 ], [ 3.895045, 43.599988 ], [ 3.894895, 43.600069 ], [ 3.894746, 43.600138 ], [ 3.894613, 43.600192 ], [ 3.894488, 43.600196 ], [ 3.894366, 43.600119 ], [ 3.894277, 43.599981 ], [ 3.894204, 43.59984 ], [ 3.89414, 43.599714 ], [ 3.894059, 43.599584 ], [ 3.89395, 43.599458 ], [ 3.893859, 43.599355 ], [ 3.893788, 43.59925 ], [ 3.893735, 43.599143 ], [ 3.893659, 43.598997 ], [ 3.89361, 43.598909 ], [ 3.893559, 43.598816 ], [ 3.8935, 43.598725 ], [ 3.893439, 43.598634 ], [ 3.893383, 43.598547 ], [ 3.893293, 43.598392 ], [ 3.893219, 43.598254 ], [ 3.893132, 43.598095 ], [ 3.893082, 43.598005 ], [ 3.893028, 43.597912 ], [ 3.892972, 43.597818 ], [ 3.892917, 43.597729 ], [ 3.892865, 43.597648 ], [ 3.89279, 43.597519 ], [ 3.892756, 43.597424 ], [ 3.892719, 43.597308 ], [ 3.892663, 43.597176 ], [ 3.8926, 43.597049 ], [ 3.892527, 43.596911 ], [ 3.89245, 43.596759 ], [ 3.892373, 43.596606 ], [ 3.892323, 43.596522 ], [ 3.892252, 43.596447 ], [ 3.892191, 43.596362 ], [ 3.892056, 43.596217 ], [ 3.891915, 43.59607 ], [ 3.891849, 43.595993 ], [ 3.89174, 43.595848 ], [ 3.891639, 43.595716 ], [ 3.891539, 43.595622 ], [ 3.891406, 43.595568 ], [ 3.891292, 43.595526 ], [ 3.891339, 43.59563 ], [ 3.891307, 43.59574 ], [ 3.891218, 43.595833 ], [ 3.891091, 43.595929 ], [ 3.890962, 43.595993 ], [ 3.890874, 43.596095 ], [ 3.890706, 43.596151 ], [ 3.890568, 43.596208 ], [ 3.890448, 43.596258 ], [ 3.890331, 43.596317 ], [ 3.890226, 43.596367 ], [ 3.8903, 43.596482 ], [ 3.890411, 43.59657 ], [ 3.890504, 43.596648 ], [ 3.890627, 43.596691 ], [ 3.890744, 43.596644 ], [ 3.890878, 43.596553 ], [ 3.890991, 43.596481 ], [ 3.891102, 43.596415 ], [ 3.891205, 43.596345 ], [ 3.891343, 43.596264 ], [ 3.891486, 43.596191 ], [ 3.891614, 43.59616 ], [ 3.891682, 43.596067 ], [ 3.891778, 43.595997 ], [ 3.891775, 43.5959 ], [ 3.891676, 43.595812 ], [ 3.891556, 43.595699 ], [ 3.891423, 43.595573 ], [ 3.891273, 43.59545 ], [ 3.891195, 43.59538 ] ], [ [ 3.868707, 43.58006 ], [ 3.868909, 43.579981 ], [ 3.868722, 43.579927 ], [ 3.868738, 43.579836 ], [ 3.868722, 43.579927 ], [ 3.868592, 43.579904 ], [ 3.868476, 43.579864 ], [ 3.868485, 43.579769 ], [ 3.868564, 43.579673 ], [ 3.868649, 43.579567 ], [ 3.868797, 43.579505 ], [ 3.868937, 43.579458 ], [ 3.868995, 43.579351 ], [ 3.86897, 43.579231 ], [ 3.868934, 43.579073 ], [ 3.868895, 43.578928 ], [ 3.868913, 43.578817 ], [ 3.869069, 43.578842 ], [ 3.869152, 43.578925 ], [ 3.869159, 43.579034 ], [ 3.869173, 43.579129 ], [ 3.869201, 43.579237 ], [ 3.869206, 43.579348 ], [ 3.869223, 43.579454 ] ] ] } }
]
}
