{
"type": "FeatureCollection",
"name": "5 mars 2020 09:42:22",
"crs": { "type": "name", "properties": { "name": "urn:ogc:def:crs:OGC:1.3:CRS84" } },
"features": [
{ "type": "Feature", "properties": { "Name": "5 mars 2020 09:42:22", "description": "", "begin": "2020\/03\/05 08:42:22.239+00", "end": "2020\/03\/05 13:42:07.529+00" }, "geometry": { "type": "MultiLineString", "coordinates": [ [ [ 3.868837, 43.608222 ], [ 3.868775, 43.6083 ], [ 3.868687, 43.608368 ], [ 3.868573, 43.608433 ], [ 3.868458, 43.608478 ], [ 3.868337, 43.608517 ], [ 3.868208, 43.60848 ], [ 3.868138, 43.608557 ], [ 3.86804, 43.608623 ], [ 3.868153, 43.608568 ], [ 3.868267, 43.60849 ], [ 3.868362, 43.608423 ], [ 3.868393, 43.608332 ], [ 3.868308, 43.6084 ], [ 3.868218, 43.608468 ] ], [ [ 3.86698, 43.607488 ], [ 3.867067, 43.607422 ], [ 3.867187, 43.607467 ], [ 3.867317, 43.607458 ], [ 3.867473, 43.607443 ], [ 3.867623, 43.607482 ], [ 3.86749, 43.60753 ], [ 3.86738, 43.607617 ] ], [ [ 3.868563, 43.60656 ], [ 3.868693, 43.606562 ], [ 3.868817, 43.606608 ], [ 3.868888, 43.60669 ], [ 3.868953, 43.60679 ], [ 3.869042, 43.606853 ], [ 3.869158, 43.60691 ], [ 3.869205, 43.607017 ], [ 3.869282, 43.607108 ], [ 3.86936, 43.607187 ], [ 3.869448, 43.607252 ], [ 3.869547, 43.607308 ], [ 3.86965, 43.607362 ], [ 3.869758, 43.607442 ], [ 3.869892, 43.607442 ], [ 3.870033, 43.607407 ], [ 3.870145, 43.607367 ], [ 3.870257, 43.607308 ], [ 3.87035, 43.607247 ], [ 3.87043, 43.607167 ], [ 3.8705, 43.60708 ], [ 3.870632, 43.607058 ], [ 3.87075, 43.607023 ], [ 3.870867, 43.60697 ], [ 3.870952, 43.607038 ], [ 3.871053, 43.607095 ], [ 3.871192, 43.607072 ], [ 3.871287, 43.607008 ], [ 3.871392, 43.606953 ], [ 3.871522, 43.606912 ], [ 3.87165, 43.606865 ], [ 3.871747, 43.606803 ], [ 3.87185, 43.606748 ], [ 3.871965, 43.606708 ], [ 3.872065, 43.606652 ], [ 3.87217, 43.606588 ], [ 3.872277, 43.606523 ], [ 3.872382, 43.60646 ], [ 3.872488, 43.606397 ], [ 3.872612, 43.606362 ], [ 3.872752, 43.606302 ], [ 3.872848, 43.606242 ], [ 3.872972, 43.606197 ], [ 3.873093, 43.606145 ], [ 3.87321, 43.606112 ], [ 3.873343, 43.606088 ], [ 3.873452, 43.606027 ], [ 3.873578, 43.60599 ], [ 3.873692, 43.605953 ], [ 3.873818, 43.605933 ], [ 3.873942, 43.605963 ], [ 3.874055, 43.605922 ], [ 3.874155, 43.605855 ], [ 3.87428, 43.605808 ], [ 3.874395, 43.605758 ], [ 3.874522, 43.605733 ], [ 3.87465, 43.605695 ], [ 3.874782, 43.605715 ], [ 3.874907, 43.605723 ], [ 3.875027, 43.605753 ], [ 3.875092, 43.60583 ], [ 3.875132, 43.60592 ], [ 3.875168, 43.606015 ], [ 3.875223, 43.606102 ], [ 3.875238, 43.606195 ], [ 3.875285, 43.606285 ], [ 3.875338, 43.606378 ], [ 3.875453, 43.606438 ], [ 3.875592, 43.606487 ], [ 3.875747, 43.606487 ], [ 3.875887, 43.606487 ], [ 3.876028, 43.606508 ], [ 3.87617, 43.606495 ], [ 3.876278, 43.606445 ], [ 3.876375, 43.606385 ], [ 3.876493, 43.606413 ], [ 3.876615, 43.606393 ], [ 3.876738, 43.606382 ], [ 3.876855, 43.60635 ], [ 3.87701, 43.60629 ], [ 3.877147, 43.606247 ], [ 3.877315, 43.606182 ], [ 3.877483, 43.606107 ], [ 3.877598, 43.606062 ], [ 3.877787, 43.605985 ], [ 3.877973, 43.605927 ], [ 3.878167, 43.60585 ], [ 3.87838, 43.605762 ], [ 3.878595, 43.605687 ], [ 3.878712, 43.605643 ], [ 3.878927, 43.605543 ], [ 3.879073, 43.605488 ], [ 3.879237, 43.605423 ], [ 3.879373, 43.605372 ], [ 3.879497, 43.605315 ], [ 3.879625, 43.605277 ], [ 3.879703, 43.60518 ], [ 3.879817, 43.605127 ], [ 3.879887, 43.605043 ], [ 3.880008, 43.605017 ], [ 3.880088, 43.604942 ], [ 3.880115, 43.604838 ], [ 3.880073, 43.60474 ], [ 3.879983, 43.60465 ], [ 3.87985, 43.604578 ], [ 3.879737, 43.60451 ], [ 3.879598, 43.604432 ], [ 3.879518, 43.604358 ], [ 3.879385, 43.604297 ], [ 3.879192, 43.604215 ], [ 3.879025, 43.604117 ], [ 3.878885, 43.604012 ], [ 3.878755, 43.603905 ], [ 3.878627, 43.603773 ], [ 3.878485, 43.60365 ], [ 3.878345, 43.603518 ], [ 3.878217, 43.603387 ], [ 3.878087, 43.603268 ], [ 3.877968, 43.603143 ], [ 3.877867, 43.603038 ], [ 3.877765, 43.60294 ], [ 3.877648, 43.602877 ], [ 3.877497, 43.602833 ], [ 3.877275, 43.602867 ], [ 3.87704, 43.602923 ], [ 3.876808, 43.602968 ], [ 3.876592, 43.603007 ], [ 3.87641, 43.603035 ], [ 3.87625, 43.603055 ], [ 3.876082, 43.603073 ], [ 3.875938, 43.603062 ], [ 3.875788, 43.603082 ], [ 3.875632, 43.603113 ], [ 3.875467, 43.603147 ], [ 3.875343, 43.603175 ], [ 3.875178, 43.603187 ], [ 3.875047, 43.603112 ], [ 3.87502, 43.603017 ], [ 3.875033, 43.602888 ], [ 3.875063, 43.602737 ], [ 3.875093, 43.602572 ], [ 3.875135, 43.602387 ], [ 3.875153, 43.602262 ], [ 3.87517, 43.602145 ], [ 3.875187, 43.602033 ], [ 3.87521, 43.60192 ], [ 3.875248, 43.601797 ], [ 3.875273, 43.60168 ], [ 3.875287, 43.601565 ], [ 3.875307, 43.601452 ], [ 3.875322, 43.60134 ], [ 3.87534, 43.601228 ], [ 3.875358, 43.601113 ], [ 3.875378, 43.601003 ], [ 3.875397, 43.600893 ], [ 3.875413, 43.600787 ], [ 3.875432, 43.600683 ], [ 3.87545, 43.600582 ], [ 3.875467, 43.60049 ], [ 3.875492, 43.600395 ], [ 3.875513, 43.600227 ], [ 3.875543, 43.600057 ], [ 3.875595, 43.599883 ], [ 3.87563, 43.599725 ], [ 3.875625, 43.599605 ], [ 3.87564, 43.599512 ], [ 3.875638, 43.599418 ], [ 3.875778, 43.599357 ], [ 3.875783, 43.599222 ], [ 3.87579, 43.59909 ], [ 3.875802, 43.598945 ], [ 3.875793, 43.598795 ], [ 3.875795, 43.59866 ], [ 3.875783, 43.598532 ], [ 3.875777, 43.598433 ], [ 3.87576, 43.598317 ], [ 3.87578, 43.59821 ], [ 3.875795, 43.598107 ], [ 3.875822, 43.598012 ], [ 3.875835, 43.597905 ], [ 3.87583, 43.59778 ], [ 3.875827, 43.597667 ], [ 3.875862, 43.597573 ], [ 3.875948, 43.597485 ], [ 3.876048, 43.597398 ], [ 3.876095, 43.59731 ], [ 3.876143, 43.597188 ], [ 3.876227, 43.59711 ], [ 3.876313, 43.597037 ], [ 3.876392, 43.59695 ], [ 3.876477, 43.59687 ], [ 3.876578, 43.59679 ], [ 3.876698, 43.596695 ], [ 3.876837, 43.596605 ], [ 3.876995, 43.596518 ], [ 3.877115, 43.596422 ], [ 3.877227, 43.596332 ], [ 3.877368, 43.596265 ], [ 3.87749, 43.596192 ], [ 3.877618, 43.59609 ], [ 3.877768, 43.595968 ], [ 3.877907, 43.595832 ], [ 3.87798, 43.595742 ], [ 3.878067, 43.595645 ], [ 3.878157, 43.595552 ], [ 3.878252, 43.59546 ], [ 3.878347, 43.595367 ], [ 3.878448, 43.59526 ], [ 3.878543, 43.595162 ], [ 3.878633, 43.595068 ], [ 3.878722, 43.594975 ], [ 3.878812, 43.594883 ], [ 3.8789, 43.594793 ], [ 3.878987, 43.594708 ], [ 3.879053, 43.594592 ], [ 3.879133, 43.594513 ], [ 3.87921, 43.59438 ], [ 3.879268, 43.594257 ], [ 3.879313, 43.594147 ], [ 3.87934, 43.594032 ], [ 3.879362, 43.593922 ], [ 3.879415, 43.593807 ], [ 3.87944, 43.593708 ], [ 3.879455, 43.593607 ], [ 3.879473, 43.593513 ], [ 3.879497, 43.593423 ], [ 3.879527, 43.593322 ], [ 3.879557, 43.59317 ], [ 3.879612, 43.593012 ], [ 3.879697, 43.592845 ], [ 3.879725, 43.592697 ], [ 3.879778, 43.592562 ], [ 3.87985, 43.592435 ], [ 3.879972, 43.592338 ], [ 3.880085, 43.592272 ], [ 3.880217, 43.592192 ], [ 3.880343, 43.592145 ], [ 3.880213, 43.59216 ], [ 3.88011, 43.592223 ], [ 3.880083, 43.592315 ], [ 3.880042, 43.592413 ], [ 3.880135, 43.592475 ], [ 3.880233, 43.592402 ], [ 3.88035, 43.59235 ], [ 3.880452, 43.592287 ], [ 3.880552, 43.592345 ], [ 3.88064, 43.592417 ], [ 3.880688, 43.592502 ], [ 3.880737, 43.592587 ], [ 3.880825, 43.59271 ], [ 3.8809, 43.592825 ] ], [ [ 3.881732, 43.593358 ], [ 3.881625, 43.593282 ], [ 3.881583, 43.593193 ], [ 3.881572, 43.5931 ], [ 3.88154, 43.593012 ], [ 3.88157, 43.592897 ], [ 3.881522, 43.592753 ], [ 3.881517, 43.592663 ], [ 3.881515, 43.592555 ], [ 3.88148, 43.592425 ], [ 3.881435, 43.592315 ], [ 3.881393, 43.592212 ], [ 3.881348, 43.592102 ], [ 3.881238, 43.592045 ], [ 3.881067, 43.592102 ], [ 3.880878, 43.592187 ], [ 3.880672, 43.592282 ], [ 3.880543, 43.592348 ], [ 3.880398, 43.592415 ], [ 3.880278, 43.592467 ], [ 3.88016, 43.592573 ], [ 3.880018, 43.592693 ], [ 3.87993, 43.592825 ], [ 3.879857, 43.592998 ], [ 3.879807, 43.593153 ], [ 3.879735, 43.593265 ], [ 3.87965, 43.593402 ], [ 3.879555, 43.593555 ], [ 3.87949, 43.593655 ], [ 3.879398, 43.593787 ], [ 3.879347, 43.593912 ], [ 3.879295, 43.594062 ], [ 3.879237, 43.594167 ], [ 3.879188, 43.594303 ], [ 3.879125, 43.59443 ], [ 3.879067, 43.594558 ], [ 3.879002, 43.594685 ], [ 3.878862, 43.594777 ], [ 3.878773, 43.594865 ], [ 3.878677, 43.59495 ], [ 3.878583, 43.595033 ], [ 3.878495, 43.595112 ], [ 3.878342, 43.595228 ], [ 3.878175, 43.595322 ], [ 3.878048, 43.59539 ], [ 3.877952, 43.595447 ], [ 3.877903, 43.595362 ], [ 3.877865, 43.595227 ], [ 3.8779, 43.5951 ], [ 3.877907, 43.594933 ], [ 3.877908, 43.59484 ], [ 3.877927, 43.594723 ], [ 3.877932, 43.59457 ], [ 3.87795, 43.594418 ], [ 3.877962, 43.594268 ], [ 3.877952, 43.594112 ], [ 3.877967, 43.593982 ], [ 3.878002, 43.593862 ], [ 3.878027, 43.59374 ], [ 3.878042, 43.593623 ], [ 3.878053, 43.593503 ], [ 3.878083, 43.593392 ], [ 3.878112, 43.593277 ], [ 3.878098, 43.593135 ], [ 3.878107, 43.592998 ], [ 3.878163, 43.59288 ], [ 3.878227, 43.592763 ], [ 3.878302, 43.592652 ], [ 3.878375, 43.592523 ], [ 3.878397, 43.59239 ], [ 3.878532, 43.59226 ], [ 3.87863, 43.592092 ], [ 3.878747, 43.591938 ], [ 3.878872, 43.591792 ], [ 3.87898, 43.591652 ], [ 3.879125, 43.591542 ], [ 3.879272, 43.591417 ], [ 3.879422, 43.591327 ], [ 3.879608, 43.591267 ], [ 3.879785, 43.591183 ], [ 3.879962, 43.591082 ], [ 3.880117, 43.590993 ], [ 3.880268, 43.590903 ], [ 3.88042, 43.59082 ], [ 3.88057, 43.590728 ], [ 3.880732, 43.590643 ], [ 3.880895, 43.590553 ], [ 3.881063, 43.59047 ], [ 3.881227, 43.590382 ], [ 3.881402, 43.59029 ], [ 3.881612, 43.590203 ], [ 3.881795, 43.590112 ], [ 3.881977, 43.590023 ], [ 3.882187, 43.589933 ], [ 3.88239, 43.589848 ], [ 3.882585, 43.589767 ], [ 3.88276, 43.589688 ], [ 3.882935, 43.589613 ], [ 3.883113, 43.589543 ], [ 3.88329, 43.589482 ], [ 3.883462, 43.589422 ], [ 3.883628, 43.58937 ], [ 3.88378, 43.589328 ], [ 3.883915, 43.58929 ], [ 3.884043, 43.589268 ], [ 3.884173, 43.589237 ], [ 3.8843, 43.589217 ], [ 3.884428, 43.589208 ], [ 3.884552, 43.5892 ], [ 3.884768, 43.589205 ], [ 3.88498, 43.589227 ], [ 3.884838, 43.589257 ], [ 3.884897, 43.589165 ], [ 3.88506, 43.589103 ], [ 3.885223, 43.589062 ], [ 3.885358, 43.589093 ], [ 3.885437, 43.589198 ], [ 3.885495, 43.589315 ], [ 3.885553, 43.589415 ], [ 3.885595, 43.589528 ], [ 3.885732, 43.589533 ], [ 3.885847, 43.589572 ], [ 3.885943, 43.589665 ], [ 3.885998, 43.589758 ], [ 3.88595, 43.589857 ], [ 3.885877, 43.589948 ], [ 3.88575, 43.590023 ], [ 3.885608, 43.589995 ], [ 3.885537, 43.589875 ], [ 3.885472, 43.589795 ], [ 3.885547, 43.589715 ], [ 3.885675, 43.589655 ], [ 3.88579, 43.58959 ], [ 3.885917, 43.58958 ], [ 3.88592, 43.589675 ], [ 3.885943, 43.589775 ], [ 3.886002, 43.589875 ], [ 3.885875, 43.589955 ], [ 3.88572, 43.590013 ], [ 3.885593, 43.589962 ], [ 3.88554, 43.589878 ], [ 3.885473, 43.589763 ], [ 3.885342, 43.589775 ], [ 3.885337, 43.589865 ], [ 3.885395, 43.589978 ], [ 3.885485, 43.59008 ], [ 3.885565, 43.590177 ], [ 3.885562, 43.590297 ], [ 3.885448, 43.590388 ], [ 3.885328, 43.590453 ], [ 3.88529, 43.590558 ], [ 3.885192, 43.59063 ], [ 3.88506, 43.590693 ], [ 3.884923, 43.590758 ], [ 3.884727, 43.590808 ], [ 3.884508, 43.590867 ], [ 3.884387, 43.590902 ], [ 3.884228, 43.590905 ], [ 3.883892, 43.591005 ], [ 3.883572, 43.591112 ], [ 3.883407, 43.591208 ], [ 3.883205, 43.591295 ], [ 3.883078, 43.591352 ], [ 3.882963, 43.59141 ], [ 3.882855, 43.591463 ], [ 3.882743, 43.59152 ], [ 3.882628, 43.59158 ], [ 3.882507, 43.591635 ], [ 3.882227, 43.591728 ], [ 3.882068, 43.591767 ], [ 3.881915, 43.591815 ], [ 3.88161, 43.591902 ], [ 3.881463, 43.591953 ], [ 3.881278, 43.59199 ], [ 3.881117, 43.592047 ], [ 3.880938, 43.5921 ], [ 3.880813, 43.592145 ], [ 3.880553, 43.592202 ], [ 3.880428, 43.592245 ], [ 3.880315, 43.592302 ], [ 3.880075, 43.592425 ], [ 3.879872, 43.592573 ], [ 3.87978, 43.592653 ], [ 3.879712, 43.592735 ], [ 3.879612, 43.592898 ], [ 3.879568, 43.592995 ], [ 3.879545, 43.593092 ], [ 3.879537, 43.593203 ], [ 3.879518, 43.593298 ], [ 3.8795, 43.593408 ], [ 3.879485, 43.593503 ], [ 3.879472, 43.59364 ], [ 3.87942, 43.593867 ], [ 3.879343, 43.594095 ], [ 3.8793, 43.59421 ], [ 3.87921, 43.594438 ], [ 3.879155, 43.594552 ], [ 3.879107, 43.59466 ], [ 3.87906, 43.59476 ], [ 3.879003, 43.59485 ], [ 3.878933, 43.59494 ], [ 3.87884, 43.595007 ], [ 3.878763, 43.595087 ], [ 3.878602, 43.595193 ], [ 3.878437, 43.595292 ], [ 3.87828, 43.595398 ], [ 3.878103, 43.595502 ], [ 3.87797, 43.595613 ], [ 3.877872, 43.595707 ], [ 3.877783, 43.595792 ], [ 3.877717, 43.595898 ], [ 3.877698, 43.595992 ], [ 3.87767, 43.596098 ], [ 3.877563, 43.596197 ], [ 3.8774, 43.596268 ], [ 3.87719, 43.596362 ], [ 3.877078, 43.596425 ], [ 3.876957, 43.596482 ], [ 3.87682, 43.596538 ], [ 3.876725, 43.596615 ], [ 3.87662, 43.596688 ], [ 3.87649, 43.596792 ], [ 3.87642, 43.596867 ], [ 3.876352, 43.596967 ], [ 3.876293, 43.597073 ], [ 3.876193, 43.59721 ], [ 3.876142, 43.597302 ], [ 3.876088, 43.597398 ], [ 3.876043, 43.597488 ], [ 3.876005, 43.597605 ], [ 3.875978, 43.597713 ], [ 3.875952, 43.59783 ], [ 3.875922, 43.597957 ], [ 3.875885, 43.59809 ], [ 3.875857, 43.59822 ], [ 3.875833, 43.598347 ], [ 3.875817, 43.598473 ], [ 3.875805, 43.598587 ], [ 3.875795, 43.598688 ], [ 3.875787, 43.598783 ], [ 3.875787, 43.598955 ], [ 3.875807, 43.599115 ], [ 3.875812, 43.599252 ], [ 3.87581, 43.599347 ], [ 3.875783, 43.599445 ], [ 3.875772, 43.599582 ], [ 3.8757, 43.599708 ], [ 3.875573, 43.599797 ], [ 3.875477, 43.599877 ], [ 3.875428, 43.599987 ], [ 3.875403, 43.600112 ], [ 3.875385, 43.60025 ], [ 3.875367, 43.600398 ], [ 3.875355, 43.600532 ], [ 3.875328, 43.600673 ], [ 3.875307, 43.600802 ], [ 3.875292, 43.60093 ], [ 3.875263, 43.601072 ], [ 3.875238, 43.60122 ], [ 3.875222, 43.601375 ], [ 3.875217, 43.601537 ], [ 3.875177, 43.601708 ], [ 3.875138, 43.601872 ], [ 3.875105, 43.602023 ], [ 3.875087, 43.602128 ], [ 3.875027, 43.60222 ], [ 3.875, 43.602308 ], [ 3.875, 43.602438 ], [ 3.874978, 43.60257 ], [ 3.874945, 43.602707 ], [ 3.874937, 43.602838 ], [ 3.874943, 43.602938 ], [ 3.874877, 43.603017 ], [ 3.874772, 43.603075 ], [ 3.874632, 43.603105 ], [ 3.87445, 43.603127 ], [ 3.874257, 43.60319 ], [ 3.874077, 43.603218 ], [ 3.873918, 43.603277 ], [ 3.873782, 43.603338 ], [ 3.873645, 43.603397 ], [ 3.873493, 43.603465 ], [ 3.873347, 43.603537 ], [ 3.873218, 43.603587 ], [ 3.87307, 43.603635 ], [ 3.872943, 43.603657 ], [ 3.872918, 43.60376 ], [ 3.873063, 43.603863 ], [ 3.873205, 43.603997 ], [ 3.873282, 43.604093 ], [ 3.873375, 43.60418 ], [ 3.87347, 43.604262 ], [ 3.873558, 43.604343 ], [ 3.87364, 43.604422 ], [ 3.873808, 43.60452 ], [ 3.873928, 43.60459 ], [ 3.874158, 43.604638 ], [ 3.874277, 43.604737 ], [ 3.874363, 43.604802 ], [ 3.87442, 43.604902 ], [ 3.874505, 43.60499 ], [ 3.874515, 43.605108 ], [ 3.874665, 43.605172 ], [ 3.87482, 43.605242 ], [ 3.874982, 43.605283 ], [ 3.875152, 43.605278 ], [ 3.875328, 43.605245 ], [ 3.875497, 43.605193 ], [ 3.875673, 43.605163 ], [ 3.875863, 43.605197 ], [ 3.87606, 43.60526 ], [ 3.87624, 43.60531 ], [ 3.876407, 43.605385 ], [ 3.876585, 43.605468 ], [ 3.876742, 43.605507 ], [ 3.876898, 43.605535 ], [ 3.877058, 43.605625 ], [ 3.877095, 43.60574 ], [ 3.877092, 43.605918 ], [ 3.877177, 43.606007 ], [ 3.877315, 43.606113 ], [ 3.877462, 43.60622 ], [ 3.877552, 43.606287 ], [ 3.877652, 43.606367 ], [ 3.877837, 43.606527 ], [ 3.877912, 43.606612 ], [ 3.878057, 43.606767 ], [ 3.878142, 43.606862 ], [ 3.878225, 43.606965 ], [ 3.878315, 43.607073 ], [ 3.8784, 43.607172 ], [ 3.878565, 43.60735 ], [ 3.878643, 43.607432 ], [ 3.87873, 43.60753 ], [ 3.882358, 43.609698 ], [ 3.882507, 43.60982 ], [ 3.882632, 43.609877 ], [ 3.882742, 43.609933 ], [ 3.882925, 43.610017 ], [ 3.883117, 43.610033 ], [ 3.883315, 43.609998 ], [ 3.88354, 43.60997 ], [ 3.883768, 43.609963 ], [ 3.884003, 43.609985 ], [ 3.884125, 43.61001 ], [ 3.884462, 43.610095 ], [ 3.884667, 43.610142 ], [ 3.884833, 43.610163 ], [ 3.88498, 43.610127 ], [ 3.885118, 43.610057 ], [ 3.885238, 43.609957 ], [ 3.88538, 43.60986 ], [ 3.885535, 43.609798 ], [ 3.885628, 43.609685 ], [ 3.88574, 43.609578 ], [ 3.885878, 43.609487 ], [ 3.886007, 43.609418 ], [ 3.886118, 43.609365 ], [ 3.886277, 43.609323 ], [ 3.886478, 43.60931 ], [ 3.88667, 43.6093 ], [ 3.886862, 43.609293 ], [ 3.887077, 43.60928 ], [ 3.887312, 43.60926 ], [ 3.887548, 43.609238 ], [ 3.887777, 43.609222 ], [ 3.887902, 43.609213 ], [ 3.888123, 43.609198 ], [ 3.888332, 43.609183 ], [ 3.888535, 43.609173 ], [ 3.888732, 43.60916 ], [ 3.888912, 43.60915 ], [ 3.889075, 43.609147 ], [ 3.889232, 43.609155 ], [ 3.889385, 43.609145 ], [ 3.889525, 43.609122 ], [ 3.889682, 43.609113 ], [ 3.889847, 43.609113 ], [ 3.890052, 43.6091 ], [ 3.890278, 43.60907 ], [ 3.89047, 43.609038 ], [ 3.890673, 43.60902 ], [ 3.890892, 43.608995 ], [ 3.891125, 43.608975 ], [ 3.89127, 43.608963 ], [ 3.891507, 43.60894 ], [ 3.891633, 43.608937 ], [ 3.891798, 43.608935 ], [ 3.892072, 43.608915 ], [ 3.892313, 43.608887 ], [ 3.892547, 43.60886 ], [ 3.892788, 43.60884 ], [ 3.893007, 43.608812 ], [ 3.89318, 43.6088 ], [ 3.893348, 43.608777 ], [ 3.893473, 43.608765 ], [ 3.893725, 43.608793 ], [ 3.893853, 43.608788 ], [ 3.893995, 43.608765 ], [ 3.894113, 43.608697 ], [ 3.894132, 43.608563 ], [ 3.894127, 43.60845 ], [ 3.894125, 43.608338 ], [ 3.894135, 43.608195 ], [ 3.89415, 43.60806 ], [ 3.894148, 43.607943 ], [ 3.894162, 43.607828 ], [ 3.894165, 43.60772 ], [ 3.894172, 43.607607 ], [ 3.894158, 43.607483 ], [ 3.894143, 43.607367 ], [ 3.894137, 43.607262 ], [ 3.894142, 43.60717 ], [ 3.89421, 43.607093 ], [ 3.894318, 43.607003 ], [ 3.894218, 43.607058 ], [ 3.894083, 43.60706 ], [ 3.893962, 43.606983 ], [ 3.89382, 43.606888 ], [ 3.893775, 43.606783 ], [ 3.893763, 43.606662 ], [ 3.893622, 43.606688 ], [ 3.893547, 43.606778 ], [ 3.893365, 43.60671 ], [ 3.893243, 43.60668 ], [ 3.893245, 43.60655 ], [ 3.893397, 43.606537 ], [ 3.893522, 43.606528 ], [ 3.893698, 43.606545 ], [ 3.893678, 43.60645 ], [ 3.893557, 43.606482 ], [ 3.893548, 43.60639 ], [ 3.893667, 43.606433 ], [ 3.893608, 43.606527 ], [ 3.893558, 43.60661 ], [ 3.893405, 43.606642 ], [ 3.89322, 43.60669 ], [ 3.893102, 43.606635 ], [ 3.892955, 43.60663 ], [ 3.892813, 43.60656 ], [ 3.892675, 43.606663 ], [ 3.892633, 43.606565 ], [ 3.892623, 43.606467 ], [ 3.89283, 43.606567 ], [ 3.892898, 43.606655 ], [ 3.892767, 43.606772 ], [ 3.892612, 43.606827 ], [ 3.89247, 43.606897 ], [ 3.892388, 43.606813 ], [ 3.892313, 43.606665 ], [ 3.892378, 43.606588 ], [ 3.892493, 43.606515 ], [ 3.892615, 43.606465 ], [ 3.892522, 43.606382 ], [ 3.892375, 43.606457 ], [ 3.892227, 43.606477 ], [ 3.892057, 43.606463 ], [ 3.891932, 43.606455 ], [ 3.891783, 43.60645 ], [ 3.891703, 43.606378 ], [ 3.891632, 43.6063 ], [ 3.891612, 43.606208 ], [ 3.89158, 43.606315 ], [ 3.89147, 43.60637 ], [ 3.891352, 43.606448 ], [ 3.891382, 43.606585 ], [ 3.891493, 43.606658 ], [ 3.891478, 43.606777 ], [ 3.891492, 43.606682 ], [ 3.89156, 43.606585 ], [ 3.891583, 43.606678 ], [ 3.891558, 43.606772 ], [ 3.891465, 43.60685 ], [ 3.891315, 43.606875 ], [ 3.891177, 43.606933 ], [ 3.89101, 43.60698 ], [ 3.890937, 43.607055 ], [ 3.890858, 43.607208 ], [ 3.890798, 43.607355 ], [ 3.89063, 43.607332 ], [ 3.890673, 43.60742 ], [ 3.89076, 43.607492 ], [ 3.890723, 43.607627 ], [ 3.890777, 43.607727 ], [ 3.890763, 43.607853 ], [ 3.89083, 43.607937 ], [ 3.890898, 43.608018 ], [ 3.89103, 43.608072 ], [ 3.891103, 43.608207 ], [ 3.891178, 43.608337 ], [ 3.891193, 43.608477 ], [ 3.891285, 43.60836 ], [ 3.891362, 43.608447 ], [ 3.89154, 43.608467 ], [ 3.891622, 43.60855 ], [ 3.891778, 43.608553 ], [ 3.891872, 43.608452 ], [ 3.891982, 43.608357 ], [ 3.891962, 43.608242 ], [ 3.8919, 43.608093 ], [ 3.892028, 43.608035 ], [ 3.892145, 43.607955 ], [ 3.892078, 43.607862 ], [ 3.891997, 43.607777 ], [ 3.89212, 43.607672 ], [ 3.892215, 43.607595 ], [ 3.892033, 43.607592 ], [ 3.89189, 43.607593 ], [ 3.891718, 43.607573 ], [ 3.891583, 43.607495 ], [ 3.891427, 43.607465 ], [ 3.891265, 43.607552 ], [ 3.891203, 43.607678 ], [ 3.891127, 43.607603 ], [ 3.891042, 43.60751 ], [ 3.891032, 43.607403 ], [ 3.891153, 43.607212 ], [ 3.891282, 43.607123 ], [ 3.891308, 43.607253 ], [ 3.891455, 43.607303 ], [ 3.89158, 43.607273 ], [ 3.891747, 43.607228 ], [ 3.891907, 43.607178 ], [ 3.892038, 43.607097 ], [ 3.89218, 43.607085 ], [ 3.892332, 43.607055 ], [ 3.892533, 43.607033 ], [ 3.892488, 43.60713 ], [ 3.892352, 43.60721 ], [ 3.892232, 43.607312 ], [ 3.89224, 43.607408 ], [ 3.892318, 43.607502 ], [ 3.892362, 43.607623 ], [ 3.892473, 43.60778 ], [ 3.89261, 43.607788 ], [ 3.89276, 43.607903 ], [ 3.892903, 43.607905 ], [ 3.893018, 43.607823 ], [ 3.893218, 43.60781 ], [ 3.89336, 43.607898 ], [ 3.89355, 43.607908 ], [ 3.893782, 43.607858 ], [ 3.893887, 43.607773 ], [ 3.893927, 43.607653 ], [ 3.89392, 43.60753 ], [ 3.893928, 43.607437 ], [ 3.893937, 43.607342 ], [ 3.893982, 43.607248 ], [ 3.894047, 43.60716 ], [ 3.894125, 43.607052 ], [ 3.894278, 43.60703 ], [ 3.894363, 43.606953 ], [ 3.89443, 43.60703 ], [ 3.894557, 43.607042 ], [ 3.894677, 43.606995 ], [ 3.894687, 43.606888 ], [ 3.894603, 43.606757 ], [ 3.894423, 43.60684 ], [ 3.89427, 43.606792 ], [ 3.894167, 43.606707 ], [ 3.894115, 43.60662 ], [ 3.894073, 43.606528 ], [ 3.893983, 43.606435 ], [ 3.893942, 43.606322 ], [ 3.8939, 43.606213 ], [ 3.893888, 43.60612 ], [ 3.893987, 43.605998 ], [ 3.894082, 43.605905 ], [ 3.894153, 43.6058 ], [ 3.89422, 43.605707 ], [ 3.894072, 43.605625 ], [ 3.893917, 43.60558 ], [ 3.893777, 43.605563 ], [ 3.893943, 43.605588 ], [ 3.894073, 43.605622 ], [ 3.894197, 43.605643 ], [ 3.894322, 43.605685 ], [ 3.89448, 43.605645 ], [ 3.894482, 43.60546 ], [ 3.894523, 43.605355 ], [ 3.894513, 43.605263 ], [ 3.894393, 43.60519 ], [ 3.894245, 43.605152 ], [ 3.894098, 43.605147 ], [ 3.893983, 43.605107 ], [ 3.894132, 43.605093 ], [ 3.894258, 43.605123 ], [ 3.894383, 43.605163 ], [ 3.894525, 43.60515 ], [ 3.894575, 43.605053 ], [ 3.894622, 43.604933 ], [ 3.894668, 43.604823 ], [ 3.894655, 43.604703 ], [ 3.894653, 43.604612 ], [ 3.894583, 43.604533 ], [ 3.894438, 43.604545 ], [ 3.894317, 43.60457 ], [ 3.894197, 43.604637 ], [ 3.894058, 43.604685 ], [ 3.893933, 43.60472 ], [ 3.893788, 43.604722 ], [ 3.893663, 43.604725 ], [ 3.893528, 43.604747 ], [ 3.893385, 43.604782 ], [ 3.893592, 43.604772 ], [ 3.893465, 43.604765 ], [ 3.893337, 43.604768 ], [ 3.893403, 43.604687 ], [ 3.89338, 43.604778 ], [ 3.893203, 43.60481 ], [ 3.893052, 43.604858 ], [ 3.892995, 43.604972 ], [ 3.892892, 43.604908 ], [ 3.892758, 43.604775 ], [ 3.892682, 43.604695 ], [ 3.892708, 43.604795 ], [ 3.892913, 43.604782 ], [ 3.892842, 43.604857 ], [ 3.892758, 43.60494 ], [ 3.892637, 43.605007 ], [ 3.892488, 43.605073 ], [ 3.892422, 43.605173 ], [ 3.892398, 43.605295 ], [ 3.892483, 43.605382 ], [ 3.892628, 43.605468 ], [ 3.8927, 43.605387 ], [ 3.89279, 43.60545 ], [ 3.892927, 43.60582 ], [ 3.892807, 43.605783 ], [ 3.892717, 43.605702 ], [ 3.892648, 43.605598 ], [ 3.892548, 43.605483 ], [ 3.892415, 43.605302 ], [ 3.892417, 43.605155 ], [ 3.892507, 43.60509 ], [ 3.892595, 43.605025 ], [ 3.89271, 43.60498 ], [ 3.8928, 43.604912 ], [ 3.892907, 43.604862 ], [ 3.893028, 43.604822 ], [ 3.89315, 43.604802 ], [ 3.893065, 43.604892 ], [ 3.892895, 43.60492 ], [ 3.89275, 43.604953 ], [ 3.89258, 43.604985 ], [ 3.892417, 43.605028 ], [ 3.892298, 43.605087 ], [ 3.89224, 43.605167 ], [ 3.892245, 43.60526 ], [ 3.892253, 43.605352 ], [ 3.892192, 43.605437 ], [ 3.89211, 43.605515 ], [ 3.892007, 43.60561 ], [ 3.89187, 43.605668 ], [ 3.891745, 43.605725 ], [ 3.891608, 43.605722 ], [ 3.891508, 43.605653 ], [ 3.891467, 43.605558 ], [ 3.891562, 43.605475 ], [ 3.89167, 43.605428 ], [ 3.891807, 43.605373 ], [ 3.891915, 43.605323 ], [ 3.892008, 43.605238 ], [ 3.891962, 43.605142 ], [ 3.891857, 43.60507 ], [ 3.891753, 43.605013 ], [ 3.891625, 43.604938 ], [ 3.891505, 43.604867 ], [ 3.891402, 43.604813 ], [ 3.891528, 43.60477 ], [ 3.891657, 43.604782 ], [ 3.891598, 43.60487 ], [ 3.891488, 43.604827 ], [ 3.891322, 43.604737 ], [ 3.891213, 43.604692 ], [ 3.891083, 43.604643 ], [ 3.891195, 43.604692 ], [ 3.891298, 43.60477 ], [ 3.891412, 43.60481 ], [ 3.891292, 43.60478 ], [ 3.891178, 43.604722 ], [ 3.891063, 43.604665 ], [ 3.890953, 43.604615 ], [ 3.89083, 43.60458 ], [ 3.890583, 43.604533 ], [ 3.890465, 43.604445 ], [ 3.890392, 43.604368 ], [ 3.890368, 43.604278 ], [ 3.890297, 43.6042 ], [ 3.890202, 43.604138 ], [ 3.89033, 43.604183 ], [ 3.890475, 43.604242 ], [ 3.890595, 43.60427 ], [ 3.890713, 43.604328 ], [ 3.89082, 43.604393 ], [ 3.890897, 43.604482 ], [ 3.890943, 43.604583 ], [ 3.891, 43.604673 ], [ 3.891112, 43.604733 ], [ 3.891225, 43.60479 ], [ 3.89134, 43.604842 ], [ 3.89149, 43.60474 ], [ 3.89158, 43.604808 ], [ 3.891717, 43.60488 ], [ 3.891828, 43.604933 ], [ 3.892033, 43.604925 ], [ 3.892205, 43.604883 ], [ 3.892313, 43.604733 ], [ 3.892448, 43.604735 ], [ 3.892472, 43.604637 ], [ 3.892512, 43.604517 ], [ 3.89246, 43.604395 ], [ 3.892437, 43.604303 ], [ 3.892435, 43.604132 ], [ 3.892432, 43.603995 ], [ 3.892407, 43.604092 ], [ 3.89253, 43.60414 ], [ 3.892633, 43.604085 ], [ 3.89253, 43.604148 ], [ 3.892503, 43.604253 ], [ 3.892512, 43.604425 ], [ 3.89247, 43.60451 ], [ 3.892432, 43.604602 ], [ 3.892402, 43.604693 ], [ 3.892252, 43.604823 ], [ 3.892143, 43.60493 ], [ 3.892075, 43.605052 ], [ 3.891928, 43.605192 ], [ 3.891797, 43.605273 ], [ 3.891645, 43.605292 ], [ 3.891505, 43.605248 ], [ 3.891367, 43.605185 ], [ 3.891233, 43.60514 ], [ 3.891063, 43.605073 ], [ 3.890883, 43.605047 ], [ 3.890715, 43.604993 ], [ 3.890567, 43.604973 ], [ 3.890442, 43.60497 ], [ 3.890338, 43.605022 ], [ 3.890182, 43.605 ], [ 3.890043, 43.605005 ], [ 3.889867, 43.604965 ], [ 3.889905, 43.605055 ], [ 3.889775, 43.604983 ], [ 3.889737, 43.605115 ], [ 3.889783, 43.605022 ], [ 3.88974, 43.604928 ], [ 3.889625, 43.604857 ], [ 3.889438, 43.604877 ], [ 3.889733, 43.60488 ], [ 3.889893, 43.604922 ], [ 3.890037, 43.604878 ], [ 3.88992, 43.604787 ], [ 3.889997, 43.604705 ], [ 3.890018, 43.604615 ], [ 3.890102, 43.604538 ], [ 3.890113, 43.604433 ], [ 3.890032, 43.604508 ], [ 3.890042, 43.604607 ], [ 3.890005, 43.604783 ], [ 3.889902, 43.60485 ], [ 3.889908, 43.604948 ], [ 3.889813, 43.60506 ], [ 3.889698, 43.605097 ], [ 3.88959, 43.605152 ], [ 3.889593, 43.605272 ], [ 3.889545, 43.605382 ], [ 3.88941, 43.605387 ], [ 3.889237, 43.605422 ], [ 3.889102, 43.605395 ], [ 3.889212, 43.605343 ], [ 3.889342, 43.60532 ], [ 3.889472, 43.605302 ], [ 3.889592, 43.60521 ], [ 3.889522, 43.605113 ], [ 3.889302, 43.605192 ], [ 3.889063, 43.605508 ], [ 3.888925, 43.605545 ], [ 3.888807, 43.605595 ], [ 3.888662, 43.605608 ], [ 3.888783, 43.605577 ], [ 3.888692, 43.60564 ], [ 3.888803, 43.60569 ], [ 3.888932, 43.60569 ], [ 3.889023, 43.605802 ], [ 3.889063, 43.6057 ], [ 3.889213, 43.60562 ], [ 3.88939, 43.605605 ], [ 3.889573, 43.605592 ], [ 3.889753, 43.60557 ], [ 3.889833, 43.605642 ], [ 3.889995, 43.605563 ], [ 3.890147, 43.605538 ], [ 3.89026, 43.60548 ], [ 3.890212, 43.605397 ], [ 3.890327, 43.605518 ], [ 3.890358, 43.60542 ], [ 3.890485, 43.605432 ], [ 3.890707, 43.6056 ], [ 3.890808, 43.60567 ], [ 3.890507, 43.605458 ], [ 3.890612, 43.605515 ], [ 3.89061, 43.605612 ], [ 3.890698, 43.605548 ], [ 3.890922, 43.60554 ], [ 3.891102, 43.60552 ], [ 3.891323, 43.605532 ], [ 3.891265, 43.605615 ], [ 3.89118, 43.605718 ], [ 3.891072, 43.605825 ], [ 3.89092, 43.605913 ], [ 3.891075, 43.60598 ], [ 3.891185, 43.606062 ], [ 3.89128, 43.606162 ], [ 3.891368, 43.606228 ], [ 3.8915, 43.606332 ], [ 3.891342, 43.606253 ], [ 3.891282, 43.606155 ], [ 3.89111, 43.606105 ], [ 3.890932, 43.60606 ], [ 3.890785, 43.605993 ], [ 3.890622, 43.606003 ], [ 3.890497, 43.606043 ], [ 3.890333, 43.606057 ], [ 3.89024, 43.606118 ], [ 3.890103, 43.606143 ], [ 3.889852, 43.606167 ], [ 3.889725, 43.606063 ], [ 3.889632, 43.60593 ], [ 3.88961, 43.60579 ], [ 3.889553, 43.605873 ], [ 3.889428, 43.605903 ], [ 3.889312, 43.60595 ], [ 3.889197, 43.605985 ], [ 3.889075, 43.605962 ], [ 3.888957, 43.605992 ], [ 3.889028, 43.605917 ], [ 3.88915, 43.605872 ], [ 3.88928, 43.605852 ], [ 3.889365, 43.605783 ], [ 3.889432, 43.605688 ], [ 3.889433, 43.605595 ], [ 3.889565, 43.605563 ], [ 3.88971, 43.60557 ], [ 3.889912, 43.605552 ], [ 3.88978, 43.605517 ], [ 3.889647, 43.605505 ], [ 3.889565, 43.605608 ], [ 3.889642, 43.605735 ], [ 3.889602, 43.605847 ], [ 3.889492, 43.605905 ], [ 3.889307, 43.605915 ], [ 3.889158, 43.605928 ], [ 3.88908, 43.606017 ], [ 3.889183, 43.60607 ], [ 3.889305, 43.606018 ], [ 3.889217, 43.605908 ], [ 3.889088, 43.605972 ], [ 3.889002, 43.60605 ], [ 3.889128, 43.606123 ], [ 3.88902, 43.606077 ], [ 3.889143, 43.606042 ], [ 3.889283, 43.606013 ], [ 3.889197, 43.605907 ], [ 3.88932, 43.605933 ], [ 3.889475, 43.605978 ], [ 3.889513, 43.606068 ], [ 3.889647, 43.60605 ], [ 3.889513, 43.60607 ], [ 3.889375, 43.60607 ], [ 3.889123, 43.606108 ], [ 3.88868, 43.606183 ], [ 3.8883, 43.606158 ], [ 3.887952, 43.60598 ], [ 3.889862, 43.606048 ], [ 3.889853, 43.606167 ], [ 3.889728, 43.606225 ], [ 3.889587, 43.606235 ], [ 3.889677, 43.606303 ], [ 3.889573, 43.606245 ], [ 3.889627, 43.606163 ], [ 3.889503, 43.606182 ], [ 3.88966, 43.606075 ], [ 3.889772, 43.606155 ], [ 3.889757, 43.606028 ], [ 3.88971, 43.60593 ], [ 3.889648, 43.605852 ], [ 3.889587, 43.605762 ], [ 3.889618, 43.605667 ], [ 3.889757, 43.605655 ], [ 3.889978, 43.605667 ], [ 3.890095, 43.605605 ], [ 3.890195, 43.605532 ], [ 3.890412, 43.605498 ], [ 3.890545, 43.605508 ], [ 3.890683, 43.60552 ], [ 3.890827, 43.605457 ], [ 3.890993, 43.605448 ], [ 3.89113, 43.605435 ], [ 3.891163, 43.605528 ], [ 3.891157, 43.605638 ], [ 3.891133, 43.605768 ], [ 3.891205, 43.605908 ], [ 3.891257, 43.606 ], [ 3.891162, 43.606108 ], [ 3.891187, 43.606205 ], [ 3.891085, 43.60628 ], [ 3.891127, 43.606192 ], [ 3.89109, 43.60608 ], [ 3.89112, 43.605938 ], [ 3.891157, 43.606063 ], [ 3.891192, 43.606353 ], [ 3.891128, 43.606438 ], [ 3.89116, 43.606572 ], [ 3.891413, 43.606662 ], [ 3.891213, 43.606613 ], [ 3.89109, 43.606632 ], [ 3.890987, 43.606682 ], [ 3.890862, 43.606642 ], [ 3.890778, 43.606718 ], [ 3.890917, 43.606707 ], [ 3.890747, 43.606665 ], [ 3.8905, 43.606675 ], [ 3.890317, 43.606645 ], [ 3.890443, 43.606628 ], [ 3.890513, 43.606705 ], [ 3.890493, 43.606608 ], [ 3.890442, 43.606505 ], [ 3.89059, 43.606527 ], [ 3.890697, 43.606627 ], [ 3.89074, 43.60672 ], [ 3.89076, 43.606833 ], [ 3.890795, 43.606923 ], [ 3.890668, 43.606985 ], [ 3.890707, 43.606892 ], [ 3.890853, 43.606847 ], [ 3.890707, 43.606865 ], [ 3.890548, 43.606843 ], [ 3.890578, 43.606752 ], [ 3.89068, 43.6067 ], [ 3.890823, 43.606622 ], [ 3.890727, 43.606543 ], [ 3.890517, 43.606457 ], [ 3.890643, 43.606388 ], [ 3.890838, 43.606412 ], [ 3.89098, 43.606345 ], [ 3.891138, 43.606287 ], [ 3.891297, 43.606187 ], [ 3.891443, 43.606202 ], [ 3.89159, 43.606215 ], [ 3.891805, 43.606207 ], [ 3.89199, 43.606233 ], [ 3.892192, 43.606248 ], [ 3.892382, 43.606262 ], [ 3.892555, 43.606222 ], [ 3.892657, 43.606277 ], [ 3.892798, 43.606632 ], [ 3.892888, 43.606565 ], [ 3.89284, 43.606478 ], [ 3.892868, 43.606382 ], [ 3.89296, 43.606313 ], [ 3.893093, 43.606345 ], [ 3.893182, 43.606198 ], [ 3.893163, 43.606107 ], [ 3.893303, 43.60622 ], [ 3.89344, 43.60625 ], [ 3.893605, 43.60617 ], [ 3.893432, 43.606255 ], [ 3.893222, 43.606333 ], [ 3.893127, 43.606267 ], [ 3.89291, 43.606238 ], [ 3.892795, 43.60619 ], [ 3.892672, 43.606168 ], [ 3.89254, 43.606187 ], [ 3.892418, 43.60614 ], [ 3.89231, 43.606068 ], [ 3.892253, 43.605965 ], [ 3.892123, 43.605982 ], [ 3.892163, 43.605838 ], [ 3.892283, 43.60581 ], [ 3.892182, 43.605923 ], [ 3.892048, 43.606042 ], [ 3.892002, 43.60594 ], [ 3.892098, 43.606008 ], [ 3.892058, 43.606105 ], [ 3.89185, 43.60598 ], [ 3.891958, 43.605875 ], [ 3.892105, 43.605822 ], [ 3.89201, 43.606038 ], [ 3.892015, 43.605932 ], [ 3.89212, 43.60599 ], [ 3.892142, 43.606127 ], [ 3.892127, 43.606217 ], [ 3.892142, 43.606085 ], [ 3.892203, 43.605968 ], [ 3.892303, 43.606122 ], [ 3.892335, 43.606215 ], [ 3.892388, 43.60633 ], [ 3.892457, 43.60624 ], [ 3.892332, 43.606142 ], [ 3.892172, 43.606072 ], [ 3.892192, 43.605957 ], [ 3.892212, 43.605858 ], [ 3.892117, 43.605738 ], [ 3.891957, 43.605792 ], [ 3.891792, 43.605812 ], [ 3.891663, 43.60584 ], [ 3.89152, 43.605823 ], [ 3.891325, 43.605825 ], [ 3.891198, 43.605827 ], [ 3.891063, 43.605798 ], [ 3.890927, 43.605795 ], [ 3.890753, 43.605762 ], [ 3.890605, 43.605717 ], [ 3.89045, 43.605682 ], [ 3.890318, 43.605667 ], [ 3.890168, 43.605683 ], [ 3.890042, 43.605652 ], [ 3.88985, 43.6056 ], [ 3.889662, 43.60558 ], [ 3.88949, 43.605572 ], [ 3.889348, 43.605562 ], [ 3.889217, 43.605552 ], [ 3.88907, 43.605557 ], [ 3.888817, 43.605632 ], [ 3.888662, 43.605647 ], [ 3.888537, 43.605665 ], [ 3.888353, 43.605678 ], [ 3.888163, 43.60568 ], [ 3.887988, 43.605692 ], [ 3.88784, 43.605703 ], [ 3.887668, 43.605747 ], [ 3.887528, 43.605778 ], [ 3.887352, 43.605842 ], [ 3.887215, 43.60588 ], [ 3.887072, 43.605928 ], [ 3.886962, 43.605973 ], [ 3.886817, 43.606072 ], [ 3.886688, 43.606177 ], [ 3.886565, 43.60623 ], [ 3.886405, 43.606245 ], [ 3.886265, 43.606265 ], [ 3.886122, 43.606282 ], [ 3.885975, 43.606285 ], [ 3.885835, 43.606273 ], [ 3.88569, 43.606267 ], [ 3.885528, 43.606277 ], [ 3.885377, 43.606307 ], [ 3.885245, 43.606338 ], [ 3.885148, 43.606418 ], [ 3.885017, 43.606513 ], [ 3.88498, 43.6066 ], [ 3.884988, 43.60669 ], [ 3.885052, 43.606768 ], [ 3.885067, 43.60688 ], [ 3.885022, 43.607 ], [ 3.884988, 43.607095 ], [ 3.885097, 43.607152 ], [ 3.885225, 43.607142 ], [ 3.885362, 43.60712 ], [ 3.885493, 43.607108 ], [ 3.885617, 43.607077 ], [ 3.885728, 43.607118 ], [ 3.885908, 43.60719 ], [ 3.886017, 43.60724 ], [ 3.886157, 43.607247 ], [ 3.886298, 43.607247 ], [ 3.886483, 43.607243 ], [ 3.886687, 43.607227 ], [ 3.886855, 43.607202 ], [ 3.887013, 43.607202 ], [ 3.887162, 43.607233 ], [ 3.887295, 43.607228 ], [ 3.887462, 43.607233 ], [ 3.887687, 43.60728 ], [ 3.887815, 43.607272 ], [ 3.887955, 43.607242 ], [ 3.888125, 43.607217 ], [ 3.88825, 43.6072 ], [ 3.888397, 43.607168 ], [ 3.888567, 43.607112 ], [ 3.888807, 43.607068 ], [ 3.88899, 43.607015 ], [ 3.889198, 43.60699 ], [ 3.88939, 43.606967 ], [ 3.889577, 43.606977 ], [ 3.889702, 43.606985 ], [ 3.889827, 43.60698 ], [ 3.889998, 43.607012 ], [ 3.890148, 43.607033 ], [ 3.89029, 43.607017 ], [ 3.890422, 43.607007 ], [ 3.890568, 43.606985 ], [ 3.89067, 43.606925 ], [ 3.890712, 43.6068 ], [ 3.89071, 43.60671 ], [ 3.890743, 43.606607 ], [ 3.890788, 43.606498 ], [ 3.890867, 43.606413 ], [ 3.890927, 43.606315 ], [ 3.891007, 43.606182 ], [ 3.89108, 43.606073 ], [ 3.891128, 43.60598 ], [ 3.891097, 43.605877 ], [ 3.891273, 43.60579 ], [ 3.891393, 43.6057 ], [ 3.891532, 43.605628 ], [ 3.891653, 43.605583 ], [ 3.891785, 43.605542 ], [ 3.891903, 43.605502 ], [ 3.892053, 43.605517 ], [ 3.892192, 43.605558 ], [ 3.892313, 43.605583 ], [ 3.892482, 43.605613 ], [ 3.892637, 43.605652 ], [ 3.892792, 43.605692 ], [ 3.892895, 43.605753 ], [ 3.893032, 43.605727 ], [ 3.893188, 43.605765 ], [ 3.893315, 43.605823 ], [ 3.893425, 43.60588 ], [ 3.893555, 43.605875 ], [ 3.8938, 43.60586 ], [ 3.893917, 43.605915 ], [ 3.894042, 43.60594 ], [ 3.894135, 43.60588 ], [ 3.89422, 43.605792 ], [ 3.894335, 43.605707 ], [ 3.894457, 43.605602 ], [ 3.894543, 43.60545 ], [ 3.894615, 43.605295 ], [ 3.894662, 43.605125 ], [ 3.89471, 43.604967 ], [ 3.894737, 43.604842 ], [ 3.894755, 43.604735 ], [ 3.894778, 43.604627 ], [ 3.894643, 43.604587 ], [ 3.89449, 43.604622 ], [ 3.894295, 43.604673 ], [ 3.8941, 43.604717 ], [ 3.893955, 43.604743 ], [ 3.893807, 43.604778 ], [ 3.893678, 43.604795 ], [ 3.89353, 43.604817 ] ], [ [ 3.895318, 43.603943 ], [ 3.895412, 43.60405 ] ] ] } }
]
}
