{
"type": "FeatureCollection",
"name": "2 mars 2020 09:32:35",
"crs": { "type": "name", "properties": { "name": "urn:ogc:def:crs:OGC:1.3:CRS84" } },
"features": [
{ "type": "Feature", "properties": { "Name": "2 mars 2020 09:32:35", "description": "", "begin": "2020\/03\/02 08:32:35.985+00", "end": "2020\/03\/02 15:11:36.269+00" }, "geometry": { "type": "MultiLineString", "coordinates": [ [ [ 3.894094, 43.599513 ], [ 3.894624, 43.598839 ], [ 3.894677, 43.598747 ], [ 3.894716, 43.598596 ], [ 3.894724, 43.5985 ], [ 3.894865, 43.59842 ], [ 3.894984, 43.598364 ], [ 3.895072, 43.598228 ], [ 3.895142, 43.598123 ], [ 3.895271, 43.598013 ], [ 3.895378, 43.597916 ], [ 3.895444, 43.597834 ], [ 3.895514, 43.597731 ], [ 3.895613, 43.597626 ], [ 3.895726, 43.597473 ], [ 3.89584, 43.597322 ], [ 3.895903, 43.597202 ], [ 3.895984, 43.597097 ], [ 3.896026, 43.596987 ], [ 3.895901, 43.597043 ], [ 3.895946, 43.597136 ], [ 3.895821, 43.597114 ], [ 3.895725, 43.597043 ], [ 3.895741, 43.597151 ], [ 3.896248, 43.597107 ], [ 3.896195, 43.597017 ], [ 3.896198, 43.597118 ], [ 3.896104, 43.597178 ], [ 3.895992, 43.59728 ], [ 3.895898, 43.597376 ], [ 3.895864, 43.597482 ], [ 3.895886, 43.597597 ], [ 3.895867, 43.597689 ], [ 3.895807, 43.597783 ], [ 3.895717, 43.597873 ], [ 3.895651, 43.597967 ], [ 3.895591, 43.598073 ], [ 3.89555, 43.598168 ], [ 3.895435, 43.598106 ], [ 3.895491, 43.59801 ], [ 3.895562, 43.597918 ], [ 3.895583, 43.597828 ], [ 3.895678, 43.597759 ], [ 3.895759, 43.59769 ], [ 3.895842, 43.597576 ], [ 3.895943, 43.597503 ], [ 3.895945, 43.597408 ], [ 3.895847, 43.59725 ], [ 3.895722, 43.597248 ], [ 3.895864, 43.597249 ], [ 3.896121, 43.597233 ], [ 3.896008, 43.597281 ], [ 3.896416, 43.597272 ], [ 3.896274, 43.597268 ], [ 3.895955, 43.597252 ], [ 3.89583, 43.597245 ], [ 3.896212, 43.597372 ], [ 3.895953, 43.597104 ], [ 3.895883, 43.597214 ], [ 3.895818, 43.597291 ], [ 3.895768, 43.597376 ], [ 3.895935, 43.597389 ], [ 3.896256, 43.597306 ], [ 3.896219, 43.597203 ], [ 3.896212, 43.597074 ], [ 3.89624, 43.596955 ], [ 3.896315, 43.596837 ], [ 3.896397, 43.596645 ], [ 3.896502, 43.596553 ], [ 3.896534, 43.596448 ], [ 3.896547, 43.596346 ], [ 3.896567, 43.596232 ], [ 3.896568, 43.59611 ], [ 3.89656, 43.596015 ], [ 3.896541, 43.595916 ], [ 3.896508, 43.595813 ], [ 3.896535, 43.595721 ], [ 3.896661, 43.595654 ], [ 3.896784, 43.595623 ], [ 3.896709, 43.595542 ], [ 3.896831, 43.595607 ], [ 3.896931, 43.595674 ], [ 3.897082, 43.595747 ], [ 3.897203, 43.595797 ], [ 3.89731, 43.595843 ], [ 3.897476, 43.59592 ], [ 3.89764, 43.595964 ], [ 3.897731, 43.596032 ], [ 3.897865, 43.596029 ], [ 3.898025, 43.596068 ], [ 3.898096, 43.596144 ], [ 3.898122, 43.596246 ], [ 3.898119, 43.596354 ], [ 3.898114, 43.59646 ], [ 3.89955, 43.596977 ], [ 3.899651, 43.597043 ], [ 3.899822, 43.597063 ], [ 3.899927, 43.597129 ], [ 3.900037, 43.597204 ], [ 3.90012, 43.597272 ], [ 3.899803, 43.597356 ] ], [ [ 3.896646, 43.593461 ], [ 3.896654, 43.593338 ], [ 3.896686, 43.593251 ], [ 3.896005, 43.592959 ], [ 3.89616, 43.593105 ], [ 3.896564, 43.593049 ], [ 3.89668, 43.593342 ], [ 3.896752, 43.593423 ], [ 3.896421, 43.593373 ], [ 3.896291, 43.593369 ], [ 3.89613, 43.593329 ], [ 3.896011, 43.593282 ], [ 3.895603, 43.593442 ], [ 3.895518, 43.593508 ], [ 3.895394, 43.593502 ], [ 3.895271, 43.593399 ], [ 3.895123, 43.593279 ], [ 3.895105, 43.593181 ], [ 3.894985, 43.59316 ], [ 3.895064, 43.59329 ], [ 3.895158, 43.593489 ], [ 3.895537, 43.593639 ], [ 3.895722, 43.593658 ], [ 3.89558, 43.593671 ], [ 3.895418, 43.593646 ], [ 3.895323, 43.593588 ], [ 3.895153, 43.593511 ], [ 3.894837, 43.593365 ], [ 3.89468, 43.593331 ], [ 3.89446, 43.593254 ], [ 3.894343, 43.593201 ], [ 3.894216, 43.593114 ], [ 3.894053, 43.593069 ], [ 3.893926, 43.593069 ], [ 3.893666, 43.592974 ], [ 3.893547, 43.592918 ], [ 3.893452, 43.59284 ], [ 3.893308, 43.59276 ], [ 3.893171, 43.592784 ], [ 3.89304, 43.592753 ], [ 3.892924, 43.592812 ], [ 3.892794, 43.592927 ], [ 3.892661, 43.592995 ], [ 3.892542, 43.593039 ], [ 3.892357, 43.593023 ], [ 3.892234, 43.592961 ], [ 3.892033, 43.592906 ], [ 3.891883, 43.592884 ], [ 3.891767, 43.592846 ], [ 3.893087, 43.592898 ], [ 3.892899, 43.592977 ], [ 3.892773, 43.59303 ], [ 3.892659, 43.593073 ], [ 3.892542, 43.593106 ], [ 3.894457, 43.592977 ], [ 3.894453, 43.593069 ], [ 3.894402, 43.593164 ], [ 3.894278, 43.593153 ], [ 3.894216, 43.59307 ], [ 3.894186, 43.592665 ], [ 3.895463, 43.592674 ], [ 3.89558, 43.592727 ], [ 3.895731, 43.592669 ], [ 3.895818, 43.592595 ], [ 3.895887, 43.592484 ], [ 3.895503, 43.592216 ], [ 3.89548, 43.592101 ], [ 3.895184, 43.592446 ], [ 3.894953, 43.592729 ], [ 3.894954, 43.592829 ], [ 3.894997, 43.592928 ], [ 3.894922, 43.593034 ], [ 3.894543, 43.593246 ], [ 3.894455, 43.593156 ], [ 3.894359, 43.593068 ], [ 3.89426, 43.592977 ], [ 3.894128, 43.592917 ], [ 3.893971, 43.592883 ], [ 3.893811, 43.59289 ], [ 3.893209, 43.592563 ], [ 3.89333, 43.592262 ], [ 3.893433, 43.592181 ], [ 3.893185, 43.592423 ], [ 3.893037, 43.592563 ], [ 3.892925, 43.592746 ], [ 3.892874, 43.59254 ], [ 3.892578, 43.592546 ], [ 3.892449, 43.592484 ], [ 3.892355, 43.592424 ], [ 3.892249, 43.592364 ], [ 3.892157, 43.59229 ], [ 3.892072, 43.592213 ], [ 3.891968, 43.592152 ], [ 3.891876, 43.592074 ], [ 3.891812, 43.591975 ], [ 3.891884, 43.591899 ], [ 3.892044, 43.592022 ], [ 3.892142, 43.59209 ], [ 3.892211, 43.592168 ], [ 3.892249, 43.592257 ], [ 3.892367, 43.592327 ], [ 3.892497, 43.592336 ], [ 3.892614, 43.59238 ], [ 3.892726, 43.592427 ], [ 3.892817, 43.592489 ], [ 3.892489, 43.592838 ], [ 3.8926, 43.592887 ], [ 3.892638, 43.593012 ], [ 3.892875, 43.592883 ], [ 3.892947, 43.592794 ], [ 3.89285, 43.592696 ], [ 3.892399, 43.592396 ], [ 3.892276, 43.592356 ], [ 3.892111, 43.592161 ], [ 3.891977, 43.592055 ], [ 3.891888, 43.591944 ], [ 3.891694, 43.591859 ], [ 3.891612, 43.591787 ], [ 3.891505, 43.591741 ], [ 3.891378, 43.591758 ], [ 3.891288, 43.591825 ], [ 3.891193, 43.591941 ], [ 3.891127, 43.592019 ], [ 3.891036, 43.592116 ], [ 3.891072, 43.5919 ], [ 3.891226, 43.591884 ], [ 3.891058, 43.591942 ], [ 3.891147, 43.592007 ], [ 3.891433, 43.592134 ], [ 3.891265, 43.592012 ], [ 3.891812, 43.591795 ], [ 3.89152, 43.591779 ], [ 3.891397, 43.591828 ], [ 3.891445, 43.591736 ], [ 3.891494, 43.591652 ], [ 3.891483, 43.591537 ], [ 3.891448, 43.591449 ], [ 3.89142, 43.591354 ], [ 3.891349, 43.591256 ], [ 3.891445, 43.591334 ], [ 3.891395, 43.591689 ], [ 3.891279, 43.591746 ], [ 3.891546, 43.591571 ], [ 3.891448, 43.591503 ], [ 3.89142, 43.591408 ], [ 3.89141, 43.591302 ], [ 3.891182, 43.59111 ], [ 3.891145, 43.591394 ], [ 3.891064, 43.591311 ], [ 3.890886, 43.591047 ], [ 3.89091, 43.591151 ], [ 3.890945, 43.591258 ], [ 3.891027, 43.591327 ], [ 3.890772, 43.591355 ], [ 3.890896, 43.591324 ], [ 3.890944, 43.591228 ], [ 3.891079, 43.591258 ], [ 3.890948, 43.591202 ], [ 3.890783, 43.591111 ], [ 3.890672, 43.591021 ], [ 3.89081, 43.590937 ], [ 3.890964, 43.590962 ], [ 3.891122, 43.590967 ], [ 3.891268, 43.59099 ], [ 3.891393, 43.59109 ], [ 3.891447, 43.591184 ], [ 3.89145, 43.591286 ], [ 3.89162, 43.591014 ], [ 3.891486, 43.591033 ], [ 3.891288, 43.591004 ], [ 3.891107, 43.590937 ], [ 3.890977, 43.590886 ], [ 3.891349, 43.590998 ], [ 3.891122, 43.590953 ], [ 3.89131, 43.591017 ], [ 3.891192, 43.590984 ], [ 3.891089, 43.590919 ], [ 3.890952, 43.590875 ], [ 3.891182, 43.590853 ], [ 3.89156, 43.591055 ], [ 3.891519, 43.591146 ], [ 3.891447, 43.591274 ], [ 3.891567, 43.591219 ], [ 3.891689, 43.591191 ], [ 3.891543, 43.591218 ], [ 3.891406, 43.591218 ], [ 3.891283, 43.591244 ], [ 3.891313, 43.591437 ], [ 3.891272, 43.591542 ], [ 3.891313, 43.591653 ], [ 3.891364, 43.591316 ], [ 3.891456, 43.591253 ], [ 3.891579, 43.591161 ], [ 3.89144, 43.591112 ], [ 3.891302, 43.591088 ], [ 3.891444, 43.591119 ], [ 3.891543, 43.591191 ], [ 3.891427, 43.591078 ], [ 3.891605, 43.591111 ] ], [ [ 3.892693, 43.600893 ], [ 3.893081, 43.60103 ], [ 3.892786, 43.601194 ], [ 3.892648, 43.601247 ], [ 3.89204, 43.601226 ], [ 3.893015, 43.600597 ], [ 3.893238, 43.600566 ], [ 3.893205, 43.600677 ], [ 3.893069, 43.600786 ], [ 3.893445, 43.600381 ], [ 3.893282, 43.600283 ], [ 3.89333, 43.600199 ], [ 3.893421, 43.600138 ], [ 3.893574, 43.600055 ], [ 3.893602, 43.600192 ], [ 3.893472, 43.600221 ], [ 3.893568, 43.600136 ], [ 3.89368, 43.600082 ], [ 3.893667, 43.599974 ], [ 3.893552, 43.59993 ], [ 3.893697, 43.599934 ], [ 3.893707, 43.599835 ], [ 3.893821, 43.599789 ], [ 3.893717, 43.599868 ], [ 3.893603, 43.599918 ], [ 3.893549, 43.600026 ], [ 3.893791, 43.599685 ], [ 3.8939, 43.599637 ], [ 3.893933, 43.599518 ], [ 3.89391, 43.599415 ], [ 3.893897, 43.59932 ], [ 3.893722, 43.599025 ], [ 3.893223, 43.598299 ], [ 3.893117, 43.598125 ], [ 3.892986, 43.598064 ], [ 3.892842, 43.597791 ], [ 3.892755, 43.597553 ], [ 3.892657, 43.597363 ], [ 3.892591, 43.597264 ], [ 3.892392, 43.596638 ], [ 3.89203, 43.596256 ], [ 3.891623, 43.595832 ], [ 3.891258, 43.595493 ], [ 3.890872, 43.595132 ], [ 3.890464, 43.594758 ], [ 3.89036, 43.594567 ], [ 3.890122, 43.594195 ], [ 3.889986, 43.593955 ], [ 3.889773, 43.593654 ], [ 3.889741, 43.593557 ], [ 3.889678, 43.593316 ], [ 3.889695, 43.593221 ] ], [ [ 3.897642, 43.600672 ], [ 3.897826, 43.600776 ], [ 3.897698, 43.600797 ], [ 3.897592, 43.600711 ], [ 3.897555, 43.600625 ], [ 3.897569, 43.600429 ], [ 3.897578, 43.600311 ], [ 3.897703, 43.600141 ], [ 3.897806, 43.600074 ], [ 3.89788, 43.599979 ], [ 3.897896, 43.599825 ], [ 3.898126, 43.599517 ], [ 3.898169, 43.599426 ], [ 3.898224, 43.599288 ], [ 3.898322, 43.599118 ], [ 3.898352, 43.598968 ], [ 3.898424, 43.59889 ], [ 3.898489, 43.598806 ], [ 3.898731, 43.598645 ], [ 3.899051, 43.598432 ], [ 3.899141, 43.598313 ], [ 3.899222, 43.598212 ], [ 3.899272, 43.598125 ], [ 3.899517, 43.59812 ], [ 3.899529, 43.59823 ], [ 3.899365, 43.598287 ], [ 3.89925, 43.598331 ], [ 3.899542, 43.598334 ], [ 3.899924, 43.598312 ], [ 3.900041, 43.598236 ], [ 3.900165, 43.598115 ], [ 3.900246, 43.598044 ], [ 3.901033, 43.597486 ], [ 3.900921, 43.597386 ], [ 3.900545, 43.597341 ], [ 3.900404, 43.597317 ], [ 3.900069, 43.597267 ], [ 3.899763, 43.597229 ], [ 3.899503, 43.597094 ], [ 3.899289, 43.596994 ], [ 3.899192, 43.596934 ], [ 3.898987, 43.596888 ], [ 3.898758, 43.596801 ], [ 3.898559, 43.596682 ], [ 3.898469, 43.596613 ], [ 3.898302, 43.596517 ], [ 3.898106, 43.596411 ], [ 3.897882, 43.596298 ], [ 3.89763, 43.596159 ], [ 3.897527, 43.5961 ], [ 3.897395, 43.596037 ], [ 3.897244, 43.596018 ], [ 3.897094, 43.595885 ], [ 3.8969, 43.595851 ], [ 3.896835, 43.595703 ], [ 3.896785, 43.595566 ], [ 3.896893, 43.595464 ], [ 3.896916, 43.595314 ], [ 3.896982, 43.595182 ], [ 3.897115, 43.595187 ], [ 3.897624, 43.594849 ], [ 3.897667, 43.594759 ], [ 3.897869, 43.594538 ], [ 3.897921, 43.594456 ], [ 3.898044, 43.594408 ], [ 3.89823, 43.594131 ], [ 3.898372, 43.594131 ], [ 3.898487, 43.594189 ], [ 3.89853, 43.594348 ], [ 3.898608, 43.594441 ], [ 3.898734, 43.594514 ], [ 3.898838, 43.594614 ], [ 3.898917, 43.594707 ], [ 3.899092, 43.594832 ], [ 3.899263, 43.594857 ], [ 3.899405, 43.594934 ], [ 3.899738, 43.594981 ], [ 3.899863, 43.594992 ], [ 3.9001, 43.594948 ], [ 3.900187, 43.595047 ], [ 3.900297, 43.595099 ], [ 3.900388, 43.595036 ], [ 3.900533, 43.594955 ], [ 3.900435, 43.595014 ], [ 3.900313, 43.59505 ], [ 3.900156, 43.595088 ], [ 3.900031, 43.595134 ], [ 3.899923, 43.59518 ], [ 3.899875, 43.595046 ], [ 3.899844, 43.59491 ], [ 3.899867, 43.594795 ], [ 3.89981, 43.5947 ], [ 3.899766, 43.594616 ], [ 3.899639, 43.594507 ], [ 3.899588, 43.594418 ], [ 3.899537, 43.594508 ], [ 3.899516, 43.594597 ], [ 3.899444, 43.59467 ], [ 3.899341, 43.594731 ], [ 3.899297, 43.594829 ], [ 3.899343, 43.594938 ], [ 3.899468, 43.594951 ], [ 3.89954, 43.594872 ], [ 3.899271, 43.594989 ], [ 3.899131, 43.595051 ], [ 3.898993, 43.59516 ], [ 3.898921, 43.595239 ], [ 3.898876, 43.595344 ], [ 3.898761, 43.595427 ], [ 3.898751, 43.595519 ], [ 3.898602, 43.595634 ], [ 3.898536, 43.595743 ], [ 3.898485, 43.595853 ], [ 3.898328, 43.595898 ], [ 3.898332, 43.595993 ], [ 3.898462, 43.596086 ], [ 3.898478, 43.596197 ], [ 3.898484, 43.596097 ], [ 3.8985, 43.596002 ], [ 3.898515, 43.595907 ], [ 3.898621, 43.595822 ], [ 3.898649, 43.595729 ], [ 3.898642, 43.595618 ], [ 3.898672, 43.595488 ], [ 3.898658, 43.595395 ], [ 3.898705, 43.595276 ], [ 3.898811, 43.595221 ], [ 3.898905, 43.59516 ], [ 3.898942, 43.595039 ], [ 3.898963, 43.594918 ], [ 3.899002, 43.594787 ], [ 3.899035, 43.594697 ], [ 3.898942, 43.594628 ], [ 3.898844, 43.594523 ], [ 3.89872, 43.594541 ], [ 3.898598, 43.594577 ], [ 3.898478, 43.594603 ], [ 3.898284, 43.594724 ], [ 3.89819, 43.594866 ], [ 3.898281, 43.594946 ], [ 3.898335, 43.595034 ], [ 3.898285, 43.595117 ], [ 3.898165, 43.595148 ], [ 3.898017, 43.595076 ], [ 3.897863, 43.594963 ], [ 3.897695, 43.594962 ], [ 3.897816, 43.595008 ], [ 3.897866, 43.594923 ], [ 3.898001, 43.594863 ], [ 3.898119, 43.594821 ], [ 3.898291, 43.594728 ], [ 3.898405, 43.594644 ], [ 3.898417, 43.594733 ], [ 3.89839, 43.594594 ], [ 3.898467, 43.594506 ], [ 3.898481, 43.594406 ], [ 3.898573, 43.594312 ], [ 3.898685, 43.59426 ], [ 3.898797, 43.593824 ], [ 3.898832, 43.593686 ], [ 3.89893, 43.593625 ], [ 3.898708, 43.593671 ], [ 3.898543, 43.593765 ], [ 3.898402, 43.59394 ], [ 3.89822, 43.593979 ], [ 3.898057, 43.593984 ], [ 3.897922, 43.593921 ], [ 3.897831, 43.593759 ], [ 3.89782, 43.593637 ], [ 3.897825, 43.593455 ], [ 3.897888, 43.593368 ], [ 3.898027, 43.593387 ], [ 3.898078, 43.593489 ], [ 3.898134, 43.593584 ], [ 3.898138, 43.593479 ], [ 3.89812, 43.593227 ], [ 3.898085, 43.593361 ], [ 3.898087, 43.593462 ], [ 3.898163, 43.59356 ], [ 3.898295, 43.59366 ], [ 3.898513, 43.593741 ], [ 3.898631, 43.593698 ], [ 3.898725, 43.593629 ], [ 3.898783, 43.593543 ], [ 3.898766, 43.593452 ], [ 3.898685, 43.59333 ], [ 3.898694, 43.593236 ], [ 3.898545, 43.593214 ], [ 3.898507, 43.593127 ], [ 3.898465, 43.593025 ], [ 3.898328, 43.592942 ], [ 3.898292, 43.59284 ], [ 3.89826, 43.592735 ], [ 3.898245, 43.592637 ], [ 3.898229, 43.592542 ], [ 3.898345, 43.5925 ], [ 3.898472, 43.592568 ], [ 3.898585, 43.592658 ], [ 3.898705, 43.592687 ], [ 3.898769, 43.592791 ], [ 3.898912, 43.592834 ], [ 3.899038, 43.592844 ], [ 3.899148, 43.592885 ], [ 3.899236, 43.592969 ], [ 3.899311, 43.59307 ], [ 3.899302, 43.592977 ], [ 3.899443, 43.593106 ], [ 3.899379, 43.59323 ], [ 3.899271, 43.593279 ], [ 3.899256, 43.593435 ], [ 3.899343, 43.59353 ], [ 3.899488, 43.593522 ], [ 3.899644, 43.593489 ], [ 3.899822, 43.593521 ], [ 3.899951, 43.593602 ], [ 3.90008, 43.593658 ], [ 3.900173, 43.59374 ], [ 3.90018, 43.59383 ], [ 3.900292, 43.593909 ], [ 3.900407, 43.593968 ], [ 3.900539, 43.594057 ], [ 3.90066, 43.594092 ], [ 3.900853, 43.594174 ], [ 3.901035, 43.594209 ], [ 3.901091, 43.594292 ], [ 3.901216, 43.594221 ], [ 3.901209, 43.5941 ], [ 3.901298, 43.594035 ], [ 3.901371, 43.593961 ], [ 3.901225, 43.593954 ], [ 3.901094, 43.593896 ], [ 3.900996, 43.593819 ], [ 3.900877, 43.593743 ], [ 3.900761, 43.593783 ], [ 3.900633, 43.593674 ], [ 3.900526, 43.593617 ], [ 3.900404, 43.593582 ], [ 3.900483, 43.593484 ], [ 3.900645, 43.593378 ], [ 3.900772, 43.593326 ], [ 3.900902, 43.593248 ], [ 3.900789, 43.593288 ], [ 3.900669, 43.59324 ], [ 3.900569, 43.593296 ], [ 3.900532, 43.593189 ], [ 3.900456, 43.593294 ], [ 3.900364, 43.593357 ], [ 3.900495, 43.593305 ], [ 3.90037, 43.593378 ], [ 3.900246, 43.593464 ], [ 3.900144, 43.593543 ], [ 3.900051, 43.593654 ], [ 3.900023, 43.593745 ], [ 3.900125, 43.593894 ], [ 3.900293, 43.594033 ], [ 3.90047, 43.594108 ], [ 3.900573, 43.594166 ], [ 3.900684, 43.59422 ], [ 3.900824, 43.594217 ], [ 3.900979, 43.594261 ], [ 3.901098, 43.594295 ], [ 3.901229, 43.594356 ], [ 3.901253, 43.594239 ], [ 3.901288, 43.594125 ], [ 3.901148, 43.594071 ], [ 3.900991, 43.59402 ], [ 3.900824, 43.593925 ], [ 3.900678, 43.59386 ], [ 3.900491, 43.593659 ], [ 3.900399, 43.593565 ], [ 3.900302, 43.593445 ], [ 3.900474, 43.593367 ], [ 3.900652, 43.593307 ], [ 3.900737, 43.593214 ], [ 3.900758, 43.593095 ], [ 3.900662, 43.592969 ], [ 3.900658, 43.592835 ], [ 3.900709, 43.592654 ], [ 3.900703, 43.592562 ], [ 3.900296, 43.592307 ], [ 3.900166, 43.592241 ], [ 3.900153, 43.592147 ], [ 3.900009, 43.592105 ], [ 3.89988, 43.592111 ], [ 3.89977, 43.592061 ], [ 3.899604, 43.591964 ], [ 3.899513, 43.591891 ], [ 3.899391, 43.591865 ], [ 3.899213, 43.591755 ], [ 3.899057, 43.591641 ], [ 3.898924, 43.5916 ], [ 3.898758, 43.591456 ], [ 3.898633, 43.591348 ], [ 3.898657, 43.591222 ], [ 3.898764, 43.591067 ], [ 3.898859, 43.590869 ], [ 3.898919, 43.590666 ], [ 3.898991, 43.59053 ], [ 3.898915, 43.590396 ], [ 3.899002, 43.590317 ], [ 3.899104, 43.590253 ], [ 3.899224, 43.590121 ], [ 3.899449, 43.590015 ], [ 3.899646, 43.590076 ], [ 3.899959, 43.590242 ], [ 3.900261, 43.590374 ], [ 3.900477, 43.59037 ], [ 3.900592, 43.590287 ], [ 3.900614, 43.590155 ], [ 3.900581, 43.590066 ], [ 3.900596, 43.589938 ], [ 3.900591, 43.589835 ], [ 3.900525, 43.589704 ], [ 3.900524, 43.589597 ], [ 3.900609, 43.58949 ], [ 3.900632, 43.589321 ], [ 3.900671, 43.589206 ], [ 3.900616, 43.589108 ], [ 3.900585, 43.588963 ], [ 3.900588, 43.588844 ], [ 3.900444, 43.588757 ], [ 3.900216, 43.588707 ], [ 3.900093, 43.588687 ], [ 3.899985, 43.588636 ], [ 3.899934, 43.58848 ], [ 3.899803, 43.588495 ], [ 3.899774, 43.588633 ], [ 3.899637, 43.588572 ], [ 3.899434, 43.58854 ], [ 3.899306, 43.588507 ], [ 3.899176, 43.588424 ], [ 3.899044, 43.588397 ], [ 3.898899, 43.588351 ], [ 3.898762, 43.588355 ], [ 3.898596, 43.58833 ], [ 3.898468, 43.588309 ], [ 3.898407, 43.588388 ], [ 3.898286, 43.588344 ], [ 3.898147, 43.588284 ], [ 3.89807, 43.588162 ], [ 3.897998, 43.588072 ], [ 3.897915, 43.587958 ], [ 3.897748, 43.587958 ], [ 3.897648, 43.588013 ], [ 3.897497, 43.588004 ], [ 3.897302, 43.587989 ], [ 3.89713, 43.587937 ], [ 3.897026, 43.587888 ], [ 3.896874, 43.587858 ], [ 3.896712, 43.587875 ], [ 3.896575, 43.587833 ], [ 3.896315, 43.587706 ], [ 3.896153, 43.587691 ], [ 3.896002, 43.587657 ], [ 3.895897, 43.587575 ], [ 3.896171, 43.587655 ], [ 3.896517, 43.587738 ], [ 3.896795, 43.587807 ], [ 3.896979, 43.587871 ], [ 3.897242, 43.587957 ], [ 3.897519, 43.588084 ], [ 3.897692, 43.58816 ], [ 3.897967, 43.588243 ], [ 3.898248, 43.588345 ], [ 3.898506, 43.588408 ], [ 3.898793, 43.58843 ], [ 3.898992, 43.588488 ], [ 3.899219, 43.588511 ], [ 3.899367, 43.588539 ], [ 3.899579, 43.588556 ], [ 3.899744, 43.588603 ], [ 3.89995, 43.588641 ], [ 3.900234, 43.588711 ], [ 3.900377, 43.588707 ], [ 3.90053, 43.588691 ], [ 3.900812, 43.588752 ], [ 3.900938, 43.588826 ], [ 3.901044, 43.588919 ], [ 3.901096, 43.589026 ], [ 3.901272, 43.589089 ], [ 3.901416, 43.589117 ], [ 3.901517, 43.589216 ], [ 3.90181, 43.589401 ], [ 3.901926, 43.589449 ], [ 3.902031, 43.589513 ], [ 3.9019, 43.589455 ], [ 3.902122, 43.589556 ], [ 3.90225, 43.589652 ], [ 3.902324, 43.589726 ], [ 3.902539, 43.589814 ], [ 3.902602, 43.589902 ], [ 3.902792, 43.59003 ], [ 3.902976, 43.590157 ], [ 3.903057, 43.590228 ], [ 3.90322, 43.590374 ], [ 3.903281, 43.590474 ], [ 3.903268, 43.590567 ], [ 3.903214, 43.590706 ], [ 3.903155, 43.590823 ], [ 3.903047, 43.590968 ], [ 3.902909, 43.591154 ], [ 3.903098, 43.591161 ], [ 3.903033, 43.591293 ], [ 3.902985, 43.591382 ], [ 3.90288, 43.591443 ], [ 3.90273, 43.591525 ], [ 3.902645, 43.591642 ], [ 3.90256, 43.591831 ], [ 3.90252, 43.592111 ], [ 3.902709, 43.592246 ], [ 3.902871, 43.592328 ], [ 3.903015, 43.592425 ], [ 3.903108, 43.592488 ], [ 3.903306, 43.592585 ], [ 3.903438, 43.592648 ], [ 3.903623, 43.592726 ], [ 3.903717, 43.592813 ], [ 3.903679, 43.592918 ], [ 3.903665, 43.593028 ], [ 3.903727, 43.593111 ], [ 3.903549, 43.592957 ], [ 3.903399, 43.593007 ], [ 3.903457, 43.593262 ], [ 3.903502, 43.593351 ], [ 3.903477, 43.593446 ], [ 3.903408, 43.593529 ], [ 3.903349, 43.593617 ], [ 3.903291, 43.59375 ], [ 3.903165, 43.593878 ], [ 3.903096, 43.593956 ], [ 3.902936, 43.59407 ], [ 3.902849, 43.594155 ], [ 3.902736, 43.594271 ], [ 3.902621, 43.594375 ], [ 3.902509, 43.594535 ], [ 3.902354, 43.594626 ], [ 3.902147, 43.594752 ], [ 3.901986, 43.594898 ], [ 3.901863, 43.595077 ], [ 3.901735, 43.595176 ], [ 3.901556, 43.595288 ], [ 3.90141, 43.595398 ], [ 3.90125, 43.595478 ], [ 3.901129, 43.595524 ], [ 3.901009, 43.59557 ], [ 3.900914, 43.595666 ], [ 3.900768, 43.595717 ], [ 3.900636, 43.59578 ], [ 3.900539, 43.595858 ], [ 3.900358, 43.595981 ], [ 3.900215, 43.596016 ], [ 3.900119, 43.59608 ], [ 3.899972, 43.59606 ], [ 3.899907, 43.596291 ], [ 3.899685, 43.596314 ], [ 3.899571, 43.596357 ], [ 3.899417, 43.596427 ], [ 3.899254, 43.596434 ], [ 3.899073, 43.59645 ], [ 3.898984, 43.596514 ], [ 3.899198, 43.596636 ], [ 3.89943, 43.59677 ], [ 3.899605, 43.596877 ], [ 3.899754, 43.596964 ], [ 3.899929, 43.597061 ], [ 3.900056, 43.597066 ], [ 3.900233, 43.596966 ], [ 3.900338, 43.596894 ], [ 3.900469, 43.596796 ], [ 3.900586, 43.596647 ], [ 3.900763, 43.59663 ], [ 3.900908, 43.596701 ], [ 3.901138, 43.59676 ], [ 3.901255, 43.596682 ], [ 3.901359, 43.596606 ], [ 3.901472, 43.596643 ], [ 3.901489, 43.596754 ], [ 3.901539, 43.596839 ], [ 3.901467, 43.596915 ] ], [ [ 3.897758, 43.596095 ], [ 3.897738, 43.59619 ], [ 3.897681, 43.596102 ], [ 3.897504, 43.596078 ], [ 3.897335, 43.596003 ], [ 3.897181, 43.5959 ], [ 3.897033, 43.595833 ], [ 3.896921, 43.595707 ], [ 3.896808, 43.595607 ], [ 3.896732, 43.595515 ], [ 3.896591, 43.595471 ], [ 3.896436, 43.595414 ], [ 3.896537, 43.595311 ], [ 3.896656, 43.595134 ], [ 3.896694, 43.595025 ], [ 3.896756, 43.594936 ], [ 3.896798, 43.59484 ], [ 3.896842, 43.594714 ], [ 3.896863, 43.594586 ], [ 3.896921, 43.594498 ], [ 3.896978, 43.594397 ], [ 3.897059, 43.594251 ], [ 3.897109, 43.594135 ], [ 3.897162, 43.594051 ], [ 3.897147, 43.593955 ], [ 3.897083, 43.593806 ], [ 3.896931, 43.593831 ], [ 3.896797, 43.593874 ], [ 3.896875, 43.59398 ], [ 3.896813, 43.594065 ], [ 3.89673, 43.593996 ], [ 3.896802, 43.593921 ], [ 3.896764, 43.594016 ], [ 3.896685, 43.594086 ], [ 3.896545, 43.594128 ], [ 3.896423, 43.594082 ], [ 3.896414, 43.593962 ], [ 3.896442, 43.593868 ], [ 3.896431, 43.593758 ], [ 3.896374, 43.593886 ], [ 3.896384, 43.593976 ], [ 3.8964, 43.593769 ], [ 3.896278, 43.593686 ], [ 3.896152, 43.593688 ], [ 3.895969, 43.593648 ], [ 3.895809, 43.593637 ], [ 3.895608, 43.593616 ], [ 3.895416, 43.59361 ], [ 3.895369, 43.593723 ], [ 3.89521, 43.59373 ], [ 3.895085, 43.593744 ], [ 3.895004, 43.593812 ], [ 3.894848, 43.593785 ], [ 3.894655, 43.593676 ], [ 3.894449, 43.593627 ], [ 3.894286, 43.593597 ], [ 3.894109, 43.593578 ], [ 3.894243, 43.59361 ], [ 3.894402, 43.593607 ], [ 3.894533, 43.593655 ], [ 3.894647, 43.593744 ], [ 3.894651, 43.593849 ], [ 3.894529, 43.59389 ], [ 3.894419, 43.593945 ], [ 3.894459, 43.594038 ], [ 3.894314, 43.593992 ], [ 3.894201, 43.593955 ], [ 3.894078, 43.593945 ], [ 3.893951, 43.593994 ], [ 3.893777, 43.594051 ], [ 3.893602, 43.594078 ], [ 3.893444, 43.594093 ], [ 3.893283, 43.59412 ], [ 3.893125, 43.594173 ], [ 3.893008, 43.594211 ], [ 3.892899, 43.594334 ], [ 3.892971, 43.594424 ], [ 3.892842, 43.594473 ], [ 3.89273, 43.594515 ], [ 3.892628, 43.594464 ], [ 3.892462, 43.594488 ], [ 3.892366, 43.594547 ], [ 3.892397, 43.594636 ], [ 3.892372, 43.594545 ], [ 3.89231, 43.594648 ], [ 3.892455, 43.594665 ], [ 3.892362, 43.594774 ], [ 3.892392, 43.594914 ], [ 3.8923, 43.594823 ], [ 3.892309, 43.594726 ], [ 3.892211, 43.594638 ], [ 3.892078, 43.594661 ], [ 3.891853, 43.594668 ], [ 3.891597, 43.594707 ], [ 3.89144, 43.594722 ], [ 3.891206, 43.594784 ], [ 3.891028, 43.594843 ] ], [ [ 3.893831, 43.59879 ], [ 3.893837, 43.598885 ], [ 3.893955, 43.599027 ], [ 3.894186, 43.599074 ], [ 3.894632, 43.599317 ], [ 3.894742, 43.599379 ], [ 3.895055, 43.599667 ], [ 3.895161, 43.599763 ], [ 3.895382, 43.599859 ], [ 3.895588, 43.599904 ], [ 3.896, 43.600068 ], [ 3.896285, 43.600227 ], [ 3.896523, 43.60031 ], [ 3.896845, 43.600481 ], [ 3.897141, 43.600608 ], [ 3.897312, 43.600653 ], [ 3.897331, 43.600529 ], [ 3.897363, 43.600644 ], [ 3.897201, 43.600692 ], [ 3.896914, 43.600555 ], [ 3.896636, 43.600385 ], [ 3.896347, 43.600219 ], [ 3.896111, 43.600063 ], [ 3.895982, 43.600046 ], [ 3.895853, 43.600036 ], [ 3.895964, 43.599996 ], [ 3.89576, 43.599944 ], [ 3.895488, 43.59994 ], [ 3.895302, 43.599958 ], [ 3.895118, 43.599982 ], [ 3.894986, 43.600055 ], [ 3.894901, 43.600123 ], [ 3.894796, 43.600204 ], [ 3.894617, 43.60025 ], [ 3.89449, 43.600167 ], [ 3.894446, 43.599962 ], [ 3.894377, 43.59986 ], [ 3.894264, 43.599742 ], [ 3.894014, 43.599514 ], [ 3.893967, 43.599392 ], [ 3.893884, 43.599231 ], [ 3.893801, 43.599164 ], [ 3.893704, 43.598936 ], [ 3.893596, 43.598617 ], [ 3.893374, 43.5983 ], [ 3.893192, 43.598034 ], [ 3.893078, 43.597832 ], [ 3.892973, 43.597687 ], [ 3.89289, 43.597583 ], [ 3.89274, 43.597458 ], [ 3.892452, 43.597511 ], [ 3.892301, 43.597566 ], [ 3.892066, 43.597628 ], [ 3.891875, 43.5977 ], [ 3.89179, 43.597772 ], [ 3.891668, 43.597819 ], [ 3.891539, 43.597921 ], [ 3.891411, 43.597917 ], [ 3.891547, 43.59783 ], [ 3.89176, 43.597743 ], [ 3.8919, 43.597704 ], [ 3.892045, 43.597661 ], [ 3.892251, 43.597565 ], [ 3.892426, 43.597513 ], [ 3.892573, 43.597448 ], [ 3.892677, 43.597389 ], [ 3.892738, 43.59724 ], [ 3.892642, 43.597036 ], [ 3.89253, 43.596843 ], [ 3.892367, 43.596621 ], [ 3.892106, 43.59634 ], [ 3.892001, 43.596246 ], [ 3.891862, 43.596093 ], [ 3.891788, 43.596005 ], [ 3.891753, 43.596102 ], [ 3.891682, 43.596177 ], [ 3.891732, 43.596081 ], [ 3.891694, 43.595976 ], [ 3.891634, 43.595863 ], [ 3.891564, 43.595729 ], [ 3.891451, 43.595622 ], [ 3.891342, 43.595531 ], [ 3.891243, 43.595378 ], [ 3.891271, 43.595174 ], [ 3.891177, 43.595255 ], [ 3.891261, 43.595433 ], [ 3.891477, 43.595512 ], [ 3.891578, 43.595573 ], [ 3.891582, 43.595478 ], [ 3.891699, 43.595423 ], [ 3.891815, 43.59539 ], [ 3.891943, 43.59537 ], [ 3.891776, 43.595268 ], [ 3.892165, 43.59537 ], [ 3.892321, 43.595452 ], [ 3.892502, 43.595491 ], [ 3.892584, 43.595569 ], [ 3.892372, 43.595404 ], [ 3.892295, 43.59533 ], [ 3.89225, 43.595235 ], [ 3.892202, 43.595144 ], [ 3.892224, 43.595056 ], [ 3.892284, 43.594973 ], [ 3.892287, 43.594858 ], [ 3.892254, 43.594957 ], [ 3.892273, 43.594866 ], [ 3.892351, 43.594953 ], [ 3.892419, 43.594866 ], [ 3.892322, 43.594948 ], [ 3.892276, 43.595043 ], [ 3.892253, 43.595133 ], [ 3.89213, 43.595185 ], [ 3.892026, 43.595255 ], [ 3.891888, 43.595314 ], [ 3.89177, 43.595377 ], [ 3.891706, 43.595458 ], [ 3.89164, 43.59554 ], [ 3.891507, 43.595518 ], [ 3.891382, 43.595489 ], [ 3.891244, 43.595302 ], [ 3.890974, 43.595108 ], [ 3.890824, 43.594917 ], [ 3.89088, 43.594826 ], [ 3.891142, 43.594679 ], [ 3.891424, 43.594663 ], [ 3.891652, 43.594626 ], [ 3.891892, 43.594591 ], [ 3.89213, 43.594458 ], [ 3.892246, 43.594423 ], [ 3.892366, 43.594449 ], [ 3.892267, 43.594209 ], [ 3.89222, 43.594052 ], [ 3.892344, 43.594034 ], [ 3.892508, 43.59405 ], [ 3.892114, 43.594131 ], [ 3.892147, 43.594033 ], [ 3.892255, 43.5941 ], [ 3.892187, 43.593998 ], [ 3.892147, 43.5939 ], [ 3.892023, 43.593921 ], [ 3.892129, 43.593989 ], [ 3.892238, 43.594033 ] ] ] } }
]
}
