{
"type": "FeatureCollection",
"name": "25 févr 2020 14:44:15",
"crs": { "type": "name", "properties": { "name": "urn:ogc:def:crs:OGC:1.3:CRS84" } },
"features": [
{ "type": "Feature", "properties": { "Name": "25 févr 2020 14:44:15", "description": "", "begin": "2020\/02\/25 13:44:15.810+00", "end": "2020\/02\/25 16:03:42.515+00" }, "geometry": { "type": "MultiLineString", "coordinates": [ [ [ 3.818212, 43.637606 ], [ 3.818161, 43.637585 ], [ 3.818075, 43.637566 ], [ 3.818036, 43.637554 ], [ 3.817988, 43.637525 ], [ 3.817958, 43.637495 ], [ 3.817948, 43.637465 ], [ 3.817931, 43.637436 ], [ 3.817917, 43.637408 ], [ 3.817919, 43.637384 ], [ 3.817924, 43.637356 ], [ 3.817925, 43.637332 ], [ 3.817917, 43.637319 ], [ 3.817889, 43.637306 ], [ 3.817872, 43.637324 ], [ 3.817856, 43.637321 ], [ 3.817828, 43.637321 ], [ 3.817793, 43.63733 ], [ 3.817758, 43.637341 ], [ 3.817729, 43.637363 ], [ 3.81771, 43.637383 ], [ 3.817707, 43.637397 ], [ 3.817713, 43.637406 ], [ 3.81773, 43.637402 ], [ 3.817742, 43.637399 ], [ 3.817754, 43.637402 ], [ 3.817755, 43.637415 ], [ 3.817744, 43.637428 ], [ 3.817742, 43.637443 ], [ 3.81773, 43.637452 ], [ 3.817722, 43.637459 ], [ 3.817711, 43.63747 ], [ 3.817708, 43.637481 ], [ 3.817703, 43.637494 ], [ 3.8177, 43.637504 ], [ 3.817701, 43.63752 ], [ 3.817699, 43.637535 ], [ 3.817693, 43.637545 ], [ 3.817679, 43.637545 ], [ 3.817664, 43.637546 ], [ 3.817652, 43.637548 ], [ 3.817632, 43.637553 ], [ 3.817609, 43.637556 ], [ 3.817595, 43.637554 ], [ 3.817572, 43.637546 ], [ 3.817552, 43.637545 ], [ 3.817578, 43.637543 ], [ 3.817597, 43.637543 ], [ 3.817607, 43.637538 ], [ 3.817605, 43.637523 ], [ 3.817592, 43.63751 ], [ 3.817579, 43.637504 ], [ 3.817569, 43.637493 ], [ 3.817623, 43.63749 ], [ 3.817638, 43.637484 ], [ 3.817615, 43.637478 ], [ 3.8176, 43.637469 ], [ 3.817589, 43.637463 ], [ 3.817574, 43.637459 ], [ 3.817556, 43.637447 ], [ 3.817546, 43.637439 ], [ 3.817531, 43.637433 ], [ 3.817521, 43.637419 ], [ 3.817512, 43.637408 ], [ 3.81753, 43.637394 ], [ 3.817523, 43.637384 ], [ 3.817521, 43.637398 ], [ 3.817515, 43.637407 ], [ 3.817538, 43.637414 ], [ 3.817581, 43.63741 ], [ 3.81761, 43.637409 ], [ 3.817626, 43.6374 ], [ 3.817649, 43.637392 ], [ 3.817664, 43.637385 ], [ 3.817695, 43.637373 ], [ 3.817715, 43.637362 ], [ 3.817733, 43.637348 ], [ 3.817748, 43.637334 ], [ 3.817757, 43.637327 ], [ 3.817789, 43.637326 ], [ 3.817775, 43.637311 ], [ 3.817758, 43.637309 ], [ 3.81774, 43.637306 ], [ 3.817723, 43.637307 ], [ 3.817712, 43.637311 ], [ 3.817737, 43.637332 ], [ 3.817747, 43.637355 ], [ 3.817747, 43.63737 ], [ 3.81776, 43.637384 ], [ 3.817757, 43.637399 ], [ 3.817741, 43.637396 ], [ 3.817732, 43.637387 ], [ 3.817752, 43.637387 ], [ 3.817759, 43.637377 ], [ 3.817749, 43.637384 ], [ 3.817767, 43.637387 ], [ 3.817792, 43.637382 ], [ 3.817831, 43.637375 ], [ 3.817858, 43.637372 ], [ 3.817882, 43.637368 ], [ 3.817906, 43.637369 ], [ 3.81793, 43.637358 ], [ 3.817944, 43.637332 ], [ 3.817933, 43.637296 ], [ 3.81793, 43.637264 ], [ 3.817935, 43.637238 ], [ 3.817936, 43.637222 ], [ 3.817928, 43.637199 ], [ 3.817934, 43.637176 ], [ 3.817941, 43.63715 ], [ 3.817933, 43.637123 ], [ 3.817901, 43.637091 ], [ 3.817864, 43.637079 ], [ 3.817814, 43.637073 ], [ 3.817751, 43.637071 ], [ 3.817694, 43.637073 ], [ 3.817636, 43.637069 ], [ 3.817606, 43.637055 ], [ 3.817577, 43.637027 ], [ 3.817564, 43.637005 ], [ 3.817559, 43.63698 ], [ 3.81757, 43.636948 ], [ 3.817572, 43.636921 ], [ 3.817569, 43.636899 ], [ 3.817586, 43.636884 ], [ 3.817587, 43.636853 ], [ 3.81759, 43.636821 ], [ 3.8176, 43.636814 ], [ 3.817577, 43.636761 ], [ 3.817554, 43.636747 ], [ 3.817564, 43.636742 ], [ 3.81757, 43.636728 ], [ 3.817575, 43.636714 ], [ 3.81758, 43.636725 ], [ 3.817589, 43.636735 ], [ 3.8176, 43.636743 ], [ 3.817605, 43.636757 ], [ 3.817603, 43.636767 ], [ 3.817588, 43.636776 ], [ 3.817579, 43.636783 ], [ 3.817586, 43.636795 ], [ 3.817583, 43.636808 ], [ 3.817573, 43.636823 ], [ 3.81757, 43.636836 ], [ 3.817567, 43.636845 ], [ 3.817554, 43.636862 ], [ 3.817533, 43.636869 ], [ 3.817472, 43.636878 ], [ 3.817446, 43.636882 ], [ 3.817438, 43.636891 ], [ 3.81747, 43.636894 ], [ 3.817489, 43.636893 ], [ 3.817535, 43.636879 ], [ 3.81755, 43.636866 ], [ 3.817551, 43.636849 ], [ 3.817545, 43.636824 ], [ 3.817542, 43.63681 ], [ 3.817537, 43.636795 ], [ 3.817531, 43.636776 ], [ 3.81752, 43.636771 ], [ 3.817512, 43.636753 ], [ 3.817498, 43.636747 ], [ 3.817505, 43.636755 ], [ 3.817515, 43.636771 ], [ 3.817526, 43.636784 ], [ 3.817534, 43.636793 ], [ 3.817541, 43.6368 ], [ 3.817535, 43.636788 ], [ 3.817551, 43.636782 ], [ 3.817566, 43.636773 ], [ 3.817572, 43.636753 ], [ 3.817585, 43.636731 ], [ 3.817589, 43.6367 ], [ 3.817592, 43.636675 ], [ 3.817592, 43.63665 ], [ 3.817593, 43.636625 ], [ 3.817597, 43.636603 ], [ 3.8176, 43.636585 ], [ 3.817592, 43.636571 ], [ 3.817581, 43.636557 ], [ 3.817565, 43.636557 ], [ 3.817556, 43.636565 ], [ 3.817545, 43.636571 ], [ 3.817533, 43.636576 ], [ 3.817519, 43.636575 ], [ 3.817511, 43.636568 ], [ 3.817486, 43.636557 ], [ 3.817508, 43.636559 ], [ 3.817523, 43.636557 ], [ 3.817533, 43.636547 ], [ 3.81754, 43.636535 ], [ 3.81754, 43.636516 ], [ 3.817538, 43.636507 ], [ 3.817535, 43.636494 ], [ 3.817532, 43.636478 ], [ 3.817528, 43.636466 ], [ 3.817532, 43.636457 ], [ 3.817526, 43.636446 ], [ 3.817512, 43.636439 ], [ 3.817498, 43.636437 ], [ 3.817487, 43.636447 ], [ 3.817488, 43.636461 ], [ 3.817487, 43.636488 ], [ 3.817489, 43.636476 ], [ 3.817495, 43.636484 ], [ 3.817523, 43.636491 ], [ 3.817543, 43.636494 ], [ 3.817546, 43.636508 ], [ 3.817544, 43.63652 ], [ 3.817541, 43.636539 ], [ 3.81754, 43.636551 ], [ 3.817558, 43.636545 ], [ 3.8176, 43.636545 ], [ 3.817641, 43.636547 ], [ 3.817668, 43.636545 ], [ 3.817695, 43.636542 ], [ 3.817734, 43.636542 ], [ 3.817771, 43.63655 ], [ 3.817814, 43.636558 ], [ 3.817854, 43.636568 ], [ 3.817906, 43.636578 ], [ 3.817969, 43.63658 ], [ 3.818084, 43.636587 ], [ 3.81812, 43.636577 ], [ 3.818133, 43.636569 ], [ 3.818139, 43.636557 ], [ 3.818139, 43.636535 ], [ 3.818134, 43.63651 ], [ 3.81813, 43.636477 ], [ 3.818125, 43.636443 ], [ 3.818128, 43.636419 ], [ 3.81813, 43.636407 ], [ 3.818131, 43.636396 ], [ 3.818133, 43.636384 ], [ 3.818138, 43.636367 ], [ 3.818128, 43.636348 ], [ 3.818129, 43.636336 ], [ 3.818156, 43.636322 ], [ 3.818172, 43.636315 ], [ 3.818151, 43.636314 ], [ 3.818141, 43.636308 ], [ 3.818126, 43.636303 ], [ 3.818118, 43.636294 ], [ 3.818086, 43.636266 ], [ 3.81811, 43.636278 ], [ 3.818095, 43.636274 ], [ 3.817817, 43.636317 ], [ 3.817842, 43.636308 ], [ 3.817861, 43.636323 ], [ 3.817866, 43.636338 ], [ 3.817891, 43.636328 ], [ 3.817902, 43.636336 ], [ 3.817921, 43.63633 ], [ 3.818141, 43.636289 ], [ 3.818128, 43.636288 ], [ 3.818097, 43.636301 ], [ 3.818113, 43.636301 ], [ 3.818134, 43.636294 ], [ 3.818153, 43.636293 ], [ 3.818135, 43.636296 ], [ 3.818132, 43.636287 ], [ 3.818123, 43.636282 ], [ 3.818111, 43.636268 ], [ 3.818118, 43.636254 ], [ 3.818129, 43.636239 ], [ 3.818134, 43.636253 ], [ 3.81814, 43.636273 ], [ 3.818131, 43.636307 ], [ 3.818141, 43.636322 ], [ 3.81813, 43.636333 ], [ 3.818115, 43.636349 ], [ 3.818125, 43.636374 ], [ 3.818131, 43.636396 ], [ 3.818155, 43.636422 ], [ 3.818166, 43.636449 ], [ 3.818182, 43.636448 ], [ 3.818188, 43.636459 ], [ 3.818169, 43.636465 ], [ 3.818182, 43.636467 ], [ 3.818223, 43.636458 ], [ 3.818245, 43.636463 ], [ 3.818257, 43.636459 ], [ 3.818274, 43.636468 ], [ 3.818267, 43.636478 ], [ 3.81826, 43.63649 ], [ 3.818265, 43.636505 ], [ 3.818267, 43.636516 ], [ 3.818276, 43.636528 ], [ 3.818329, 43.636546 ], [ 3.818349, 43.636551 ], [ 3.818362, 43.636557 ], [ 3.818377, 43.636564 ], [ 3.818386, 43.636572 ], [ 3.818396, 43.636579 ], [ 3.818411, 43.636592 ], [ 3.818423, 43.636605 ], [ 3.818443, 43.63662 ], [ 3.818473, 43.636637 ], [ 3.818499, 43.636654 ], [ 3.818514, 43.636663 ], [ 3.818524, 43.636669 ], [ 3.81853, 43.636679 ], [ 3.818526, 43.63669 ], [ 3.818526, 43.636703 ], [ 3.818522, 43.636719 ], [ 3.818522, 43.636731 ], [ 3.818521, 43.636743 ], [ 3.81852, 43.636754 ], [ 3.818524, 43.636765 ], [ 3.81853, 43.636782 ], [ 3.818539, 43.63679 ], [ 3.818549, 43.636798 ], [ 3.818559, 43.636812 ], [ 3.818544, 43.636795 ], [ 3.818558, 43.636769 ], [ 3.818569, 43.636733 ], [ 3.818553, 43.636721 ], [ 3.818537, 43.636713 ], [ 3.818511, 43.636708 ], [ 3.818494, 43.636708 ], [ 3.818469, 43.63671 ], [ 3.818452, 43.63671 ], [ 3.818425, 43.636713 ], [ 3.818409, 43.636717 ], [ 3.818395, 43.636719 ], [ 3.818381, 43.636721 ], [ 3.818363, 43.636725 ], [ 3.818344, 43.636729 ], [ 3.818328, 43.636729 ], [ 3.818314, 43.636728 ], [ 3.81829, 43.636726 ], [ 3.818278, 43.636724 ], [ 3.818262, 43.636726 ], [ 3.818249, 43.636728 ], [ 3.818233, 43.636727 ], [ 3.81822, 43.63673 ], [ 3.818234, 43.636728 ], [ 3.818249, 43.636729 ], [ 3.818245, 43.636742 ], [ 3.818264, 43.636722 ], [ 3.818226, 43.636567 ], [ 3.818201, 43.636547 ], [ 3.818181, 43.636559 ], [ 3.818159, 43.636583 ], [ 3.818128, 43.6366 ], [ 3.818114, 43.636612 ], [ 3.818091, 43.63662 ], [ 3.818076, 43.636621 ], [ 3.818054, 43.636642 ], [ 3.817999, 43.636141 ], [ 3.817986, 43.636157 ], [ 3.818005, 43.636158 ], [ 3.818048, 43.636166 ], [ 3.818071, 43.636191 ], [ 3.818071, 43.636206 ], [ 3.818088, 43.636221 ], [ 3.818122, 43.636234 ], [ 3.818148, 43.63625 ], [ 3.818156, 43.63627 ], [ 3.818169, 43.636291 ], [ 3.818195, 43.636307 ], [ 3.818217, 43.636334 ], [ 3.818209, 43.636327 ], [ 3.818224, 43.636339 ], [ 3.81823, 43.636361 ], [ 3.818223, 43.636382 ], [ 3.818222, 43.636393 ], [ 3.818211, 43.6364 ], [ 3.81821, 43.63643 ], [ 3.818215, 43.636421 ], [ 3.818172, 43.636433 ], [ 3.818127, 43.636436 ], [ 3.818084, 43.636429 ], [ 3.818064, 43.636415 ], [ 3.81803, 43.636398 ], [ 3.817976, 43.636386 ], [ 3.817929, 43.636379 ], [ 3.817883, 43.636376 ], [ 3.817829, 43.636375 ], [ 3.817785, 43.636367 ], [ 3.81775, 43.636374 ], [ 3.817687, 43.636372 ], [ 3.817626, 43.63638 ], [ 3.817575, 43.63641 ], [ 3.817558, 43.636446 ], [ 3.817551, 43.636487 ], [ 3.817547, 43.636529 ], [ 3.817537, 43.636576 ], [ 3.817522, 43.636638 ], [ 3.817519, 43.636698 ], [ 3.817514, 43.636756 ], [ 3.817526, 43.636793 ], [ 3.817544, 43.636828 ], [ 3.817553, 43.636851 ], [ 3.817559, 43.63686 ], [ 3.817536, 43.636882 ], [ 3.817521, 43.636906 ], [ 3.817533, 43.636933 ], [ 3.817599, 43.636948 ], [ 3.817696, 43.636932 ], [ 3.81778, 43.636927 ], [ 3.817862, 43.636923 ], [ 3.817928, 43.636918 ], [ 3.817993, 43.636915 ], [ 3.818066, 43.63691 ], [ 3.818154, 43.636908 ], [ 3.818249, 43.636904 ], [ 3.818351, 43.636918 ], [ 3.818443, 43.63692 ], [ 3.818538, 43.636921 ], [ 3.818634, 43.636923 ], [ 3.818702, 43.636933 ], [ 3.818765, 43.636938 ], [ 3.818817, 43.636934 ], [ 3.818854, 43.636931 ], [ 3.818889, 43.636921 ], [ 3.81892, 43.636896 ], [ 3.818964, 43.636858 ], [ 3.818999, 43.636804 ], [ 3.819017, 43.636747 ], [ 3.819024, 43.636701 ], [ 3.819015, 43.636656 ], [ 3.818988, 43.636609 ], [ 3.818947, 43.63656 ], [ 3.818892, 43.636512 ], [ 3.818831, 43.636459 ], [ 3.818767, 43.636406 ], [ 3.818701, 43.63636 ], [ 3.818649, 43.636319 ], [ 3.818596, 43.636284 ], [ 3.818554, 43.636257 ], [ 3.818524, 43.636237 ], [ 3.818502, 43.636223 ], [ 3.818485, 43.636212 ], [ 3.818507, 43.636225 ], [ 3.818501, 43.636217 ], [ 3.818506, 43.636207 ], [ 3.818503, 43.636197 ], [ 3.818485, 43.636191 ], [ 3.818466, 43.636178 ], [ 3.818433, 43.636154 ], [ 3.818376, 43.636119 ], [ 3.818311, 43.636067 ], [ 3.818232, 43.636019 ], [ 3.818152, 43.635979 ], [ 3.818058, 43.63595 ], [ 3.817956, 43.635924 ], [ 3.817847, 43.635911 ], [ 3.817734, 43.635907 ], [ 3.817622, 43.635914 ], [ 3.817514, 43.635945 ], [ 3.817413, 43.635983 ], [ 3.817323, 43.636027 ], [ 3.81724, 43.63608 ], [ 3.817173, 43.636148 ], [ 3.817129, 43.636224 ], [ 3.817085, 43.6363 ], [ 3.817045, 43.63638 ], [ 3.817002, 43.636455 ], [ 3.816974, 43.636528 ], [ 3.816961, 43.636603 ], [ 3.816984, 43.636684 ], [ 3.817006, 43.636772 ], [ 3.817024, 43.636857 ], [ 3.817042, 43.636942 ], [ 3.81707, 43.637029 ], [ 3.817094, 43.63712 ], [ 3.817124, 43.637209 ], [ 3.817156, 43.637286 ], [ 3.81718, 43.637345 ], [ 3.817209, 43.637383 ], [ 3.817231, 43.637412 ], [ 3.817248, 43.637435 ], [ 3.81726, 43.637448 ], [ 3.817266, 43.637458 ], [ 3.817274, 43.637477 ], [ 3.817286, 43.637502 ], [ 3.817316, 43.637537 ], [ 3.817363, 43.637574 ], [ 3.817403, 43.637611 ], [ 3.817437, 43.637656 ], [ 3.817471, 43.63771 ], [ 3.817516, 43.637772 ], [ 3.817571, 43.637833 ], [ 3.817624, 43.637901 ], [ 3.817679, 43.637972 ], [ 3.817733, 43.638041 ], [ 3.817785, 43.638115 ], [ 3.817825, 43.638197 ], [ 3.817873, 43.638277 ], [ 3.817909, 43.638361 ], [ 3.817941, 43.638443 ], [ 3.817991, 43.638523 ], [ 3.818039, 43.638611 ], [ 3.818086, 43.638695 ], [ 3.81814, 43.638767 ], [ 3.8182, 43.638839 ], [ 3.818255, 43.638911 ], [ 3.818311, 43.638987 ], [ 3.818369, 43.639066 ], [ 3.818425, 43.639146 ], [ 3.818509, 43.639221 ], [ 3.818556, 43.639302 ], [ 3.818602, 43.639381 ], [ 3.81862, 43.639472 ], [ 3.818632, 43.639558 ], [ 3.81865, 43.639634 ], [ 3.818656, 43.639713 ], [ 3.818649, 43.639799 ], [ 3.818629, 43.639887 ], [ 3.818605, 43.639978 ], [ 3.818571, 43.64006 ], [ 3.818547, 43.640137 ], [ 3.818514, 43.640215 ], [ 3.818469, 43.640291 ], [ 3.818424, 43.640366 ], [ 3.818382, 43.640445 ], [ 3.818343, 43.640519 ], [ 3.818308, 43.640594 ], [ 3.818272, 43.640675 ], [ 3.818235, 43.640754 ], [ 3.818187, 43.640829 ], [ 3.818142, 43.640902 ], [ 3.818111, 43.640974 ], [ 3.818085, 43.641045 ], [ 3.818071, 43.641112 ], [ 3.81806, 43.641167 ], [ 3.818069, 43.641221 ], [ 3.818086, 43.641268 ], [ 3.8181, 43.641315 ], [ 3.818112, 43.641365 ], [ 3.818128, 43.641424 ], [ 3.818146, 43.64148 ], [ 3.818171, 43.641527 ], [ 3.818198, 43.641566 ], [ 3.818224, 43.641598 ], [ 3.818251, 43.641616 ], [ 3.818277, 43.641625 ], [ 3.818292, 43.641621 ], [ 3.818298, 43.641604 ], [ 3.81828, 43.641595 ], [ 3.818246, 43.641566 ], [ 3.818222, 43.641519 ], [ 3.818201, 43.641467 ], [ 3.818175, 43.641419 ], [ 3.818164, 43.641381 ], [ 3.818156, 43.641348 ], [ 3.818153, 43.641323 ], [ 3.818148, 43.641259 ], [ 3.818158, 43.641238 ], [ 3.818159, 43.641226 ], [ 3.81815, 43.641216 ], [ 3.818166, 43.641217 ], [ 3.818198, 43.641225 ], [ 3.818216, 43.641232 ], [ 3.818229, 43.641235 ], [ 3.818242, 43.641237 ], [ 3.818267, 43.641228 ], [ 3.818275, 43.641218 ], [ 3.818251, 43.641231 ], [ 3.818217, 43.641228 ], [ 3.818215, 43.641245 ], [ 3.818225, 43.641261 ], [ 3.81821, 43.641267 ], [ 3.818195, 43.641269 ], [ 3.818183, 43.641257 ], [ 3.818168, 43.641252 ], [ 3.818155, 43.641249 ], [ 3.818167, 43.641246 ], [ 3.818189, 43.641246 ], [ 3.818202, 43.641248 ], [ 3.818215, 43.641246 ], [ 3.818218, 43.641255 ], [ 3.818232, 43.641258 ], [ 3.81823, 43.641267 ], [ 3.818215, 43.641277 ], [ 3.818208, 43.641287 ], [ 3.8182, 43.641294 ], [ 3.818189, 43.641307 ], [ 3.818173, 43.641321 ], [ 3.818181, 43.641348 ], [ 3.818181, 43.641368 ], [ 3.818177, 43.641394 ], [ 3.818168, 43.641415 ], [ 3.818144, 43.641427 ], [ 3.818129, 43.641445 ], [ 3.818114, 43.641458 ], [ 3.818113, 43.641474 ], [ 3.818119, 43.6415 ], [ 3.818138, 43.641531 ], [ 3.818164, 43.641563 ], [ 3.818202, 43.641606 ], [ 3.818247, 43.641648 ], [ 3.818312, 43.641703 ], [ 3.818386, 43.641755 ], [ 3.818456, 43.641809 ], [ 3.818524, 43.641869 ], [ 3.818584, 43.641923 ], [ 3.818648, 43.641971 ], [ 3.818726, 43.64201 ], [ 3.818811, 43.64203 ], [ 3.81891, 43.642044 ], [ 3.819023, 43.642052 ], [ 3.819133, 43.642046 ], [ 3.819239, 43.642031 ], [ 3.819335, 43.642003 ], [ 3.819416, 43.641956 ], [ 3.819505, 43.641904 ], [ 3.819592, 43.641854 ], [ 3.81967, 43.641803 ], [ 3.819751, 43.641746 ], [ 3.819838, 43.64169 ], [ 3.819926, 43.641635 ], [ 3.820016, 43.641585 ], [ 3.820108, 43.641534 ], [ 3.820199, 43.641485 ], [ 3.82029, 43.641434 ], [ 3.820384, 43.641382 ], [ 3.820479, 43.641331 ], [ 3.820579, 43.641279 ], [ 3.820676, 43.641227 ], [ 3.820775, 43.641171 ], [ 3.820873, 43.641117 ], [ 3.820974, 43.64106 ], [ 3.821075, 43.641002 ], [ 3.821176, 43.640943 ], [ 3.82128, 43.640884 ], [ 3.821384, 43.640827 ], [ 3.821488, 43.640769 ], [ 3.821591, 43.64071 ], [ 3.821692, 43.640648 ], [ 3.821785, 43.64058 ], [ 3.821876, 43.640511 ], [ 3.821965, 43.640438 ], [ 3.822051, 43.640358 ], [ 3.822131, 43.640275 ], [ 3.8222, 43.640189 ], [ 3.822259, 43.640101 ], [ 3.82231, 43.640011 ], [ 3.822355, 43.639918 ], [ 3.822394, 43.639821 ], [ 3.822426, 43.639723 ], [ 3.822442, 43.63962 ], [ 3.822453, 43.639515 ], [ 3.82246, 43.639411 ], [ 3.822468, 43.639306 ], [ 3.822467, 43.639197 ], [ 3.822469, 43.639092 ], [ 3.822476, 43.638989 ], [ 3.822482, 43.638887 ], [ 3.82249, 43.638789 ], [ 3.822492, 43.638696 ], [ 3.822498, 43.638603 ], [ 3.822499, 43.638505 ], [ 3.822498, 43.638406 ], [ 3.822497, 43.638306 ], [ 3.822496, 43.638205 ], [ 3.822505, 43.638108 ], [ 3.822508, 43.638014 ], [ 3.822509, 43.637929 ], [ 3.822506, 43.637853 ], [ 3.822502, 43.637786 ], [ 3.822498, 43.63773 ], [ 3.822498, 43.637685 ], [ 3.822493, 43.637652 ], [ 3.822487, 43.637633 ], [ 3.822492, 43.637591 ], [ 3.822488, 43.637548 ], [ 3.822477, 43.637495 ], [ 3.822472, 43.63743 ], [ 3.822462, 43.637363 ], [ 3.822454, 43.637287 ], [ 3.822447, 43.637208 ], [ 3.822441, 43.637126 ], [ 3.822434, 43.637044 ], [ 3.822436, 43.636958 ], [ 3.822438, 43.636869 ], [ 3.822439, 43.636781 ], [ 3.822441, 43.63669 ], [ 3.822445, 43.636599 ], [ 3.82245, 43.636505 ], [ 3.822452, 43.636409 ], [ 3.822454, 43.636312 ], [ 3.822458, 43.636214 ], [ 3.822464, 43.636114 ], [ 3.822469, 43.636014 ], [ 3.822475, 43.635914 ], [ 3.822481, 43.635814 ], [ 3.822487, 43.635711 ], [ 3.822494, 43.635609 ], [ 3.822496, 43.635508 ], [ 3.822497, 43.635407 ], [ 3.8225, 43.635306 ], [ 3.822503, 43.635205 ], [ 3.822505, 43.635107 ], [ 3.822508, 43.635015 ], [ 3.82251, 43.634934 ], [ 3.822512, 43.634862 ], [ 3.822513, 43.634798 ], [ 3.822515, 43.634741 ], [ 3.822517, 43.634694 ], [ 3.82252, 43.634658 ], [ 3.822525, 43.634635 ], [ 3.822528, 43.634618 ], [ 3.82253, 43.634603 ], [ 3.822531, 43.634594 ], [ 3.822526, 43.634558 ], [ 3.822525, 43.634502 ], [ 3.822528, 43.634439 ], [ 3.822529, 43.634366 ], [ 3.822519, 43.634287 ], [ 3.822501, 43.634204 ], [ 3.822484, 43.634117 ], [ 3.822473, 43.634025 ], [ 3.822462, 43.633931 ], [ 3.822461, 43.633834 ], [ 3.822463, 43.633733 ], [ 3.822464, 43.633634 ], [ 3.822463, 43.633536 ], [ 3.822464, 43.633439 ], [ 3.822463, 43.633344 ], [ 3.822463, 43.633252 ], [ 3.822459, 43.633166 ], [ 3.822443, 43.633085 ], [ 3.822408, 43.633012 ], [ 3.822347, 43.632952 ], [ 3.822298, 43.632891 ], [ 3.82227, 43.632833 ], [ 3.822249, 43.632776 ], [ 3.82224, 43.632723 ], [ 3.822237, 43.632671 ], [ 3.822228, 43.632619 ], [ 3.822207, 43.632572 ], [ 3.822192, 43.63254 ], [ 3.82218, 43.632505 ], [ 3.822188, 43.632459 ], [ 3.822215, 43.632407 ], [ 3.822238, 43.632346 ], [ 3.822243, 43.632284 ], [ 3.822237, 43.632214 ], [ 3.822229, 43.632138 ], [ 3.822229, 43.632078 ], [ 3.82223, 43.632027 ], [ 3.82223, 43.63198 ], [ 3.822228, 43.631936 ], [ 3.822227, 43.631896 ], [ 3.822207, 43.631855 ], [ 3.82218, 43.63183 ], [ 3.822152, 43.63182 ], [ 3.822125, 43.631817 ], [ 3.822087, 43.631817 ], [ 3.822042, 43.631822 ], [ 3.821992, 43.631826 ], [ 3.821937, 43.63183 ], [ 3.82188, 43.631835 ], [ 3.821822, 43.631836 ], [ 3.821767, 43.631835 ], [ 3.821713, 43.631837 ], [ 3.821662, 43.631841 ], [ 3.821609, 43.631845 ], [ 3.821556, 43.631845 ], [ 3.821499, 43.631848 ], [ 3.821444, 43.631853 ], [ 3.821386, 43.631849 ], [ 3.821329, 43.631831 ], [ 3.821285, 43.631796 ], [ 3.821264, 43.631749 ], [ 3.821256, 43.631704 ], [ 3.821247, 43.631671 ], [ 3.821237, 43.631643 ], [ 3.821229, 43.631615 ], [ 3.821227, 43.631584 ], [ 3.82124, 43.631555 ], [ 3.821242, 43.631515 ], [ 3.821239, 43.631484 ], [ 3.821232, 43.631463 ], [ 3.821217, 43.631446 ], [ 3.821213, 43.631434 ], [ 3.821212, 43.631422 ], [ 3.821219, 43.631412 ], [ 3.821227, 43.6314 ], [ 3.821245, 43.631396 ], [ 3.821268, 43.631394 ], [ 3.821302, 43.63139 ], [ 3.821356, 43.631381 ], [ 3.821417, 43.631369 ], [ 3.821484, 43.631356 ], [ 3.821537, 43.63135 ], [ 3.821579, 43.631347 ], [ 3.821611, 43.631346 ], [ 3.821641, 43.631345 ], [ 3.821692, 43.631343 ], [ 3.821751, 43.631343 ], [ 3.821805, 43.631343 ], [ 3.821856, 43.631342 ], [ 3.821907, 43.631339 ], [ 3.821952, 43.631337 ], [ 3.821994, 43.631337 ], [ 3.822034, 43.631336 ], [ 3.822076, 43.631337 ], [ 3.822115, 43.631339 ], [ 3.822146, 43.631338 ], [ 3.82218, 43.631333 ], [ 3.822215, 43.631319 ], [ 3.822233, 43.631293 ], [ 3.822248, 43.631254 ], [ 3.822252, 43.631207 ], [ 3.822243, 43.631156 ], [ 3.822236, 43.631101 ], [ 3.822232, 43.631044 ], [ 3.822225, 43.630991 ], [ 3.822216, 43.630939 ], [ 3.822207, 43.630891 ], [ 3.8222, 43.63085 ], [ 3.822188, 43.630814 ], [ 3.822156, 43.630786 ], [ 3.8221, 43.630773 ], [ 3.822022, 43.630774 ], [ 3.821948, 43.630781 ], [ 3.821868, 43.630785 ], [ 3.821791, 43.630789 ], [ 3.82173, 43.630791 ], [ 3.821683, 43.630795 ], [ 3.821646, 43.630809 ], [ 3.821624, 43.63084 ], [ 3.821618, 43.630887 ], [ 3.821626, 43.630936 ], [ 3.821628, 43.630989 ], [ 3.821623, 43.631042 ], [ 3.821606, 43.631086 ], [ 3.82157, 43.631122 ], [ 3.821524, 43.631143 ], [ 3.82147, 43.631142 ], [ 3.821415, 43.631142 ], [ 3.821367, 43.631141 ], [ 3.821328, 43.631143 ], [ 3.821293, 43.631145 ], [ 3.821256, 43.631141 ], [ 3.821212, 43.631138 ], [ 3.821166, 43.63114 ], [ 3.821113, 43.631147 ], [ 3.821057, 43.631148 ], [ 3.821005, 43.631147 ], [ 3.820959, 43.631148 ], [ 3.820921, 43.631149 ], [ 3.82089, 43.631152 ], [ 3.820865, 43.631155 ], [ 3.820843, 43.631156 ], [ 3.820818, 43.631152 ], [ 3.820792, 43.63113 ], [ 3.820766, 43.631093 ], [ 3.820757, 43.631051 ], [ 3.820755, 43.631008 ], [ 3.820759, 43.630965 ], [ 3.820759, 43.630927 ], [ 3.820748, 43.630899 ], [ 3.820727, 43.630866 ], [ 3.820706, 43.630849 ], [ 3.820677, 43.630839 ], [ 3.820655, 43.630833 ], [ 3.82063, 43.63083 ], [ 3.820607, 43.630811 ], [ 3.820596, 43.630821 ], [ 3.820609, 43.630801 ], [ 3.820616, 43.630775 ], [ 3.820603, 43.630754 ], [ 3.82058, 43.630752 ], [ 3.820531, 43.630752 ], [ 3.820492, 43.630751 ], [ 3.820457, 43.630749 ], [ 3.820389, 43.630752 ], [ 3.820313, 43.630757 ], [ 3.82025, 43.630757 ], [ 3.820174, 43.630755 ], [ 3.820115, 43.630752 ], [ 3.820074, 43.630753 ], [ 3.820059, 43.630755 ], [ 3.820044, 43.630774 ], [ 3.820024, 43.630785 ], [ 3.82001, 43.630798 ], [ 3.819999, 43.63081 ], [ 3.819983, 43.630819 ], [ 3.819968, 43.630827 ], [ 3.819959, 43.630849 ], [ 3.81995, 43.630856 ], [ 3.819921, 43.630849 ], [ 3.819919, 43.630866 ], [ 3.81992, 43.630881 ], [ 3.819922, 43.630906 ], [ 3.819926, 43.630942 ], [ 3.819929, 43.630975 ], [ 3.819933, 43.630999 ], [ 3.819943, 43.631029 ], [ 3.819951, 43.631064 ], [ 3.819946, 43.631096 ], [ 3.819968, 43.631115 ], [ 3.820013, 43.631122 ], [ 3.82008, 43.6311 ], [ 3.820117, 43.631103 ], [ 3.820167, 43.631112 ], [ 3.820197, 43.631119 ], [ 3.820204, 43.631139 ], [ 3.820197, 43.631155 ], [ 3.820163, 43.631158 ], [ 3.820108, 43.631146 ], [ 3.820052, 43.631139 ], [ 3.820007, 43.631157 ], [ 3.819991, 43.631192 ], [ 3.819976, 43.631247 ], [ 3.820074, 43.631435 ], [ 3.820089, 43.631461 ], [ 3.820073, 43.63148 ], [ 3.820098, 43.631484 ], [ 3.820113, 43.631477 ], [ 3.820135, 43.63147 ], [ 3.820128, 43.631453 ], [ 3.820127, 43.631436 ], [ 3.820122, 43.631427 ], [ 3.820133, 43.631401 ], [ 3.82015, 43.631406 ], [ 3.820135, 43.631399 ], [ 3.820158, 43.631414 ], [ 3.820172, 43.631434 ], [ 3.82018, 43.631454 ], [ 3.820164, 43.631444 ], [ 3.82015, 43.631438 ], [ 3.820149, 43.631451 ], [ 3.820132, 43.631455 ], [ 3.820096, 43.631454 ], [ 3.820105, 43.631429 ], [ 3.820105, 43.631416 ], [ 3.82011, 43.631397 ], [ 3.820105, 43.631363 ], [ 3.820079, 43.631319 ], [ 3.820073, 43.631386 ], [ 3.820024, 43.631426 ], [ 3.819912, 43.631457 ], [ 3.819973, 43.631427 ], [ 3.820015, 43.63142 ], [ 3.820045, 43.631419 ], [ 3.820073, 43.631398 ], [ 3.82009, 43.631383 ], [ 3.820102, 43.631387 ], [ 3.820122, 43.631392 ], [ 3.820131, 43.631383 ], [ 3.820175, 43.631434 ], [ 3.820239, 43.631442 ], [ 3.820294, 43.631471 ], [ 3.820322, 43.631485 ], [ 3.820387, 43.631497 ], [ 3.82035, 43.631494 ], [ 3.820368, 43.631496 ], [ 3.820398, 43.631491 ], [ 3.820417, 43.631489 ], [ 3.820444, 43.631478 ], [ 3.82048, 43.631467 ], [ 3.820535, 43.631453 ], [ 3.820551, 43.631455 ], [ 3.820506, 43.63149 ], [ 3.820475, 43.631532 ], [ 3.820429, 43.631607 ], [ 3.820422, 43.631615 ], [ 3.820399, 43.631622 ], [ 3.820383, 43.631604 ], [ 3.820351, 43.631596 ], [ 3.820332, 43.631587 ], [ 3.820312, 43.631577 ], [ 3.820288, 43.63156 ], [ 3.820272, 43.631556 ], [ 3.820266, 43.631568 ], [ 3.820255, 43.631575 ], [ 3.820237, 43.631584 ], [ 3.820215, 43.631587 ], [ 3.820269, 43.631583 ], [ 3.820226, 43.631577 ], [ 3.820223, 43.631588 ], [ 3.820171, 43.631572 ], [ 3.820147, 43.631546 ], [ 3.82015, 43.631523 ], [ 3.820179, 43.631494 ], [ 3.820186, 43.631483 ], [ 3.820186, 43.631474 ], [ 3.820178, 43.631465 ], [ 3.820173, 43.631476 ], [ 3.820158, 43.631475 ], [ 3.820151, 43.631495 ], [ 3.820132, 43.631521 ], [ 3.820052, 43.631568 ], [ 3.820039, 43.631557 ], [ 3.820024, 43.631548 ], [ 3.820036, 43.631543 ], [ 3.820027, 43.631534 ], [ 3.819994, 43.631526 ], [ 3.819948, 43.631536 ], [ 3.819896, 43.631553 ], [ 3.819851, 43.631546 ], [ 3.819786, 43.631543 ], [ 3.819724, 43.63154 ], [ 3.819666, 43.631549 ], [ 3.819605, 43.631552 ], [ 3.819541, 43.631559 ], [ 3.819481, 43.631558 ], [ 3.819422, 43.631558 ], [ 3.819381, 43.631565 ], [ 3.819361, 43.631573 ], [ 3.819374, 43.63157 ], [ 3.819387, 43.631575 ], [ 3.819369, 43.631574 ], [ 3.819356, 43.631576 ], [ 3.819358, 43.631585 ], [ 3.819352, 43.631598 ], [ 3.819345, 43.631608 ], [ 3.819357, 43.631603 ], [ 3.819366, 43.631597 ], [ 3.819375, 43.631588 ], [ 3.819396, 43.631579 ], [ 3.819412, 43.631573 ], [ 3.819424, 43.631568 ], [ 3.819445, 43.631564 ], [ 3.819472, 43.631563 ], [ 3.819504, 43.631558 ], [ 3.819516, 43.631557 ], [ 3.819543, 43.631557 ], [ 3.819576, 43.631558 ], [ 3.819611, 43.631555 ], [ 3.819642, 43.631561 ], [ 3.81966, 43.631562 ], [ 3.819677, 43.631567 ], [ 3.819673, 43.631538 ], [ 3.81967, 43.631562 ], [ 3.819773, 43.631607 ], [ 3.819839, 43.631636 ], [ 3.819843, 43.631644 ], [ 3.81985, 43.631657 ], [ 3.819807, 43.631662 ], [ 3.819754, 43.631647 ], [ 3.819708, 43.631649 ], [ 3.819645, 43.631651 ], [ 3.819642, 43.631686 ], [ 3.819611, 43.63169 ], [ 3.819596, 43.631678 ], [ 3.819566, 43.631667 ], [ 3.819551, 43.631667 ], [ 3.819518, 43.631664 ], [ 3.819509, 43.631675 ], [ 3.819504, 43.631685 ], [ 3.819488, 43.631694 ], [ 3.819471, 43.6317 ], [ 3.819456, 43.631705 ], [ 3.819435, 43.631707 ], [ 3.81941, 43.631706 ], [ 3.819382, 43.631689 ], [ 3.819352, 43.631673 ], [ 3.819323, 43.631665 ], [ 3.819296, 43.631662 ], [ 3.819262, 43.631646 ], [ 3.819239, 43.631639 ], [ 3.819219, 43.631636 ], [ 3.819197, 43.631642 ], [ 3.819177, 43.63164 ], [ 3.819161, 43.631642 ], [ 3.819143, 43.631637 ], [ 3.819121, 43.631637 ], [ 3.819108, 43.631633 ], [ 3.819093, 43.631641 ], [ 3.819074, 43.631635 ], [ 3.819071, 43.63162 ], [ 3.819077, 43.631607 ], [ 3.819091, 43.631598 ], [ 3.81911, 43.631586 ], [ 3.819126, 43.631572 ], [ 3.819135, 43.631564 ], [ 3.819137, 43.63155 ], [ 3.819084, 43.631518 ], [ 3.819075, 43.631506 ], [ 3.819131, 43.631484 ], [ 3.819205, 43.631671 ], [ 3.819246, 43.631688 ], [ 3.819254, 43.631723 ], [ 3.819228, 43.631706 ], [ 3.819272, 43.631713 ], [ 3.819321, 43.631695 ], [ 3.81933, 43.631686 ], [ 3.819357, 43.631678 ], [ 3.819373, 43.631667 ], [ 3.819364, 43.63166 ], [ 3.81937, 43.63165 ], [ 3.819384, 43.631648 ], [ 3.819415, 43.63165 ], [ 3.819452, 43.631651 ], [ 3.819507, 43.631652 ], [ 3.819564, 43.631658 ], [ 3.819612, 43.63166 ], [ 3.819663, 43.631659 ], [ 3.819709, 43.631658 ], [ 3.819749, 43.631664 ], [ 3.819797, 43.63166 ], [ 3.819825, 43.631659 ], [ 3.819845, 43.631655 ], [ 3.819863, 43.631651 ], [ 3.819882, 43.631647 ], [ 3.819936, 43.631648 ], [ 3.819972, 43.631636 ], [ 3.820017, 43.631618 ], [ 3.82007, 43.631597 ], [ 3.82004, 43.631585 ], [ 3.820009, 43.631572 ], [ 3.819958, 43.631546 ], [ 3.819962, 43.631512 ], [ 3.819958, 43.631502 ], [ 3.819951, 43.631488 ], [ 3.819935, 43.631468 ], [ 3.819927, 43.631458 ], [ 3.819924, 43.631445 ], [ 3.819927, 43.631435 ], [ 3.819943, 43.631442 ], [ 3.819962, 43.631447 ], [ 3.819975, 43.63145 ], [ 3.819949, 43.631448 ], [ 3.819837, 43.631314 ], [ 3.81984, 43.631326 ], [ 3.819857, 43.631351 ], [ 3.819873, 43.631377 ], [ 3.819888, 43.631382 ], [ 3.819902, 43.631407 ], [ 3.819895, 43.631431 ], [ 3.819913, 43.631441 ], [ 3.819909, 43.63145 ], [ 3.819916, 43.631462 ], [ 3.819914, 43.631473 ], [ 3.819911, 43.631489 ], [ 3.819935, 43.631478 ], [ 3.81999, 43.631467 ], [ 3.820014, 43.631457 ], [ 3.820033, 43.631432 ], [ 3.820037, 43.631401 ], [ 3.820056, 43.631304 ], [ 3.820048, 43.631295 ], [ 3.82004, 43.631271 ], [ 3.820024, 43.631254 ], [ 3.820007, 43.631232 ], [ 3.820001, 43.631195 ], [ 3.819993, 43.631173 ], [ 3.820014, 43.631159 ], [ 3.819989, 43.631177 ], [ 3.819993, 43.631194 ], [ 3.819982, 43.631203 ], [ 3.819973, 43.63121 ], [ 3.819981, 43.631202 ], [ 3.819916, 43.631296 ], [ 3.819975, 43.631252 ], [ 3.819999, 43.631239 ], [ 3.820027, 43.631222 ], [ 3.820039, 43.631214 ], [ 3.820062, 43.631211 ], [ 3.82006, 43.631201 ], [ 3.820053, 43.631192 ], [ 3.820042, 43.631187 ], [ 3.820035, 43.631178 ], [ 3.82004, 43.631163 ], [ 3.82004, 43.631147 ], [ 3.820028, 43.631115 ], [ 3.820017, 43.631091 ], [ 3.820011, 43.631083 ], [ 3.820015, 43.631093 ], [ 3.820266, 43.630875 ], [ 3.820192, 43.630899 ], [ 3.820195, 43.630925 ], [ 3.820204, 43.630933 ], [ 3.820164, 43.630938 ], [ 3.820146, 43.630942 ], [ 3.820143, 43.630959 ], [ 3.820133, 43.630973 ], [ 3.820079, 43.630981 ], [ 3.820042, 43.630983 ], [ 3.820008, 43.631004 ], [ 3.819991, 43.631027 ], [ 3.819973, 43.631038 ], [ 3.819973, 43.631047 ], [ 3.819973, 43.631058 ], [ 3.819972, 43.631071 ], [ 3.819976, 43.631081 ], [ 3.81998, 43.63109 ], [ 3.819987, 43.631105 ], [ 3.819994, 43.631116 ], [ 3.820001, 43.631132 ], [ 3.820004, 43.631142 ], [ 3.819999, 43.631133 ], [ 3.820023, 43.631135 ], [ 3.820028, 43.631123 ], [ 3.820037, 43.631104 ], [ 3.82004, 43.631088 ], [ 3.820035, 43.63106 ], [ 3.82003, 43.631032 ], [ 3.820022, 43.631008 ], [ 3.820019, 43.63099 ], [ 3.820015, 43.630975 ], [ 3.820009, 43.630955 ], [ 3.820005, 43.630934 ], [ 3.820009, 43.630922 ], [ 3.820009, 43.630906 ], [ 3.820023, 43.630918 ], [ 3.820016, 43.630903 ], [ 3.820017, 43.630885 ], [ 3.820026, 43.630854 ], [ 3.820033, 43.630824 ], [ 3.820026, 43.630791 ], [ 3.820018, 43.630774 ], [ 3.820008, 43.630765 ], [ 3.819981, 43.630756 ], [ 3.81993, 43.630753 ], [ 3.819886, 43.630749 ], [ 3.819855, 43.630749 ], [ 3.819833, 43.630758 ], [ 3.819808, 43.630783 ], [ 3.819765, 43.630806 ], [ 3.819712, 43.630823 ], [ 3.819649, 43.630831 ], [ 3.819586, 43.630833 ], [ 3.819526, 43.630834 ], [ 3.819473, 43.630833 ], [ 3.819425, 43.63084 ], [ 3.81937, 43.630851 ], [ 3.81932, 43.630865 ], [ 3.819304, 43.630897 ], [ 3.819264, 43.630917 ], [ 3.819242, 43.630926 ], [ 3.819226, 43.630925 ], [ 3.819209, 43.630933 ], [ 3.81919, 43.630932 ], [ 3.819169, 43.630932 ], [ 3.819181, 43.630942 ], [ 3.819164, 43.630939 ], [ 3.819156, 43.630924 ], [ 3.819141, 43.63092 ], [ 3.819115, 43.630916 ], [ 3.819083, 43.630918 ], [ 3.819079, 43.6309 ], [ 3.819065, 43.630881 ], [ 3.819024, 43.630861 ], [ 3.818987, 43.630848 ], [ 3.818975, 43.630843 ], [ 3.818961, 43.630833 ], [ 3.818946, 43.630824 ], [ 3.818931, 43.630817 ], [ 3.818919, 43.630802 ], [ 3.81892, 43.630792 ], [ 3.818929, 43.630785 ], [ 3.818916, 43.630782 ], [ 3.818929, 43.630787 ], [ 3.818944, 43.630788 ], [ 3.818954, 43.630793 ], [ 3.818967, 43.6308 ], [ 3.818985, 43.630809 ], [ 3.81897, 43.630819 ], [ 3.818985, 43.63083 ], [ 3.819006, 43.63084 ], [ 3.819026, 43.630852 ], [ 3.819043, 43.630864 ], [ 3.819047, 43.630879 ], [ 3.819063, 43.630893 ], [ 3.819097, 43.630901 ], [ 3.819146, 43.630902 ], [ 3.819188, 43.630898 ], [ 3.819218, 43.630889 ], [ 3.819242, 43.630878 ], [ 3.819266, 43.630866 ], [ 3.819303, 43.630854 ], [ 3.819357, 43.630843 ], [ 3.819405, 43.630831 ], [ 3.819467, 43.630829 ], [ 3.819538, 43.630834 ], [ 3.819609, 43.630837 ], [ 3.819666, 43.630835 ], [ 3.819712, 43.630825 ], [ 3.819717, 43.630808 ], [ 3.819711, 43.630791 ], [ 3.819706, 43.630779 ], [ 3.819713, 43.630762 ], [ 3.819729, 43.630731 ], [ 3.81973, 43.630699 ], [ 3.819719, 43.630685 ], [ 3.81973, 43.63068 ], [ 3.819733, 43.630664 ], [ 3.819711, 43.630674 ], [ 3.819641, 43.630656 ], [ 3.819559, 43.630656 ], [ 3.81946, 43.630647 ], [ 3.819361, 43.630633 ], [ 3.819255, 43.630613 ], [ 3.81915, 43.630581 ], [ 3.819045, 43.630547 ], [ 3.818945, 43.630504 ], [ 3.818855, 43.630446 ], [ 3.818772, 43.630383 ], [ 3.818698, 43.630317 ], [ 3.818628, 43.630243 ], [ 3.818548, 43.630167 ], [ 3.818465, 43.630079 ], [ 3.818383, 43.629992 ], [ 3.818306, 43.629907 ], [ 3.818226, 43.629822 ], [ 3.818157, 43.629739 ], [ 3.818092, 43.629655 ], [ 3.81802, 43.629577 ], [ 3.817947, 43.629507 ], [ 3.817883, 43.629449 ], [ 3.817826, 43.629393 ], [ 3.817778, 43.629342 ], [ 3.817739, 43.629299 ], [ 3.817711, 43.629263 ], [ 3.817693, 43.629236 ], [ 3.817682, 43.629217 ], [ 3.817694, 43.629211 ], [ 3.817687, 43.629198 ], [ 3.817673, 43.62917 ], [ 3.817643, 43.629136 ], [ 3.817595, 43.629106 ], [ 3.817536, 43.629089 ], [ 3.81748, 43.629088 ], [ 3.817422, 43.629098 ], [ 3.817357, 43.629099 ], [ 3.817281, 43.629087 ], [ 3.817202, 43.629088 ], [ 3.817122, 43.629088 ], [ 3.817046, 43.629088 ], [ 3.816978, 43.629085 ], [ 3.816918, 43.629083 ], [ 3.816863, 43.629083 ], [ 3.816812, 43.629084 ], [ 3.816762, 43.629086 ], [ 3.816704, 43.629092 ], [ 3.816639, 43.629095 ], [ 3.816577, 43.629096 ], [ 3.816513, 43.629104 ], [ 3.816448, 43.62911 ], [ 3.816383, 43.62912 ], [ 3.816324, 43.629132 ], [ 3.81627, 43.629142 ], [ 3.816226, 43.62915 ], [ 3.816195, 43.629153 ], [ 3.816168, 43.629153 ], [ 3.816136, 43.62914 ], [ 3.816126, 43.629128 ], [ 3.816103, 43.629112 ], [ 3.816098, 43.629082 ], [ 3.816072, 43.629048 ], [ 3.816038, 43.629011 ], [ 3.816007, 43.628979 ], [ 3.815982, 43.628948 ], [ 3.81596, 43.628918 ], [ 3.81594, 43.628896 ], [ 3.815927, 43.628875 ], [ 3.815908, 43.628852 ], [ 3.815896, 43.628837 ], [ 3.81588, 43.628808 ], [ 3.815873, 43.628789 ], [ 3.815858, 43.628769 ], [ 3.815854, 43.628754 ], [ 3.815863, 43.628769 ], [ 3.815876, 43.628765 ], [ 3.815907, 43.628764 ], [ 3.815942, 43.628759 ], [ 3.81598, 43.628774 ], [ 3.81602, 43.628792 ], [ 3.816046, 43.62881 ], [ 3.816081, 43.628829 ], [ 3.816091, 43.628848 ], [ 3.816098, 43.628863 ], [ 3.816104, 43.62888 ], [ 3.816158, 43.628872 ], [ 3.816198, 43.62887 ], [ 3.816249, 43.628856 ], [ 3.816302, 43.628839 ], [ 3.816375, 43.628826 ], [ 3.816437, 43.628826 ], [ 3.816508, 43.628836 ], [ 3.816591, 43.628848 ], [ 3.816665, 43.628866 ], [ 3.816756, 43.628884 ], [ 3.816826, 43.628891 ], [ 3.816872, 43.628899 ], [ 3.816895, 43.628896 ], [ 3.816871, 43.628881 ], [ 3.81684, 43.628877 ], [ 3.816812, 43.62887 ], [ 3.816773, 43.628857 ], [ 3.816732, 43.628853 ], [ 3.816696, 43.628854 ], [ 3.816645, 43.628855 ], [ 3.816611, 43.628853 ], [ 3.816583, 43.62884 ], [ 3.816579, 43.62882 ], [ 3.8166, 43.628801 ], [ 3.816635, 43.628802 ], [ 3.816671, 43.628817 ], [ 3.816727, 43.628849 ], [ 3.816795, 43.628889 ], [ 3.816846, 43.628923 ], [ 3.81689, 43.628936 ], [ 3.816911, 43.628935 ], [ 3.816942, 43.628935 ], [ 3.816957, 43.628937 ], [ 3.816968, 43.628943 ], [ 3.816979, 43.628938 ], [ 3.816964, 43.62894 ], [ 3.816933, 43.628949 ], [ 3.816916, 43.628952 ], [ 3.816903, 43.628952 ], [ 3.81691, 43.628963 ], [ 3.81691, 43.62898 ], [ 3.81689, 43.628991 ], [ 3.81686, 43.628997 ], [ 3.816813, 43.629011 ], [ 3.816784, 43.629025 ], [ 3.816786, 43.629035 ], [ 3.816783, 43.629047 ], [ 3.816782, 43.629079 ], [ 3.816779, 43.629093 ], [ 3.816753, 43.629102 ], [ 3.816734, 43.6291 ], [ 3.81672, 43.629091 ], [ 3.816717, 43.629071 ], [ 3.816721, 43.629085 ], [ 3.816755, 43.629078 ], [ 3.816804, 43.629076 ], [ 3.816867, 43.629077 ], [ 3.816926, 43.629084 ], [ 3.816988, 43.629084 ], [ 3.817065, 43.629074 ], [ 3.817137, 43.629076 ], [ 3.817213, 43.629078 ], [ 3.817284, 43.62908 ], [ 3.817336, 43.629081 ], [ 3.817363, 43.62908 ], [ 3.817382, 43.629076 ], [ 3.817409, 43.629077 ], [ 3.817449, 43.629076 ], [ 3.817477, 43.629076 ], [ 3.817496, 43.629076 ], [ 3.817522, 43.629069 ], [ 3.817532, 43.629042 ], [ 3.817534, 43.628989 ], [ 3.817529, 43.628934 ], [ 3.817513, 43.62888 ], [ 3.8175, 43.628823 ], [ 3.817501, 43.62877 ], [ 3.817495, 43.628713 ], [ 3.817483, 43.628661 ], [ 3.817473, 43.628609 ], [ 3.817461, 43.628568 ], [ 3.817457, 43.62854 ], [ 3.817448, 43.628514 ], [ 3.817435, 43.628492 ], [ 3.817424, 43.62847 ], [ 3.817429, 43.628456 ], [ 3.817438, 43.628439 ], [ 3.817445, 43.628421 ], [ 3.81745, 43.628411 ], [ 3.817453, 43.628401 ], [ 3.817461, 43.628394 ], [ 3.817458, 43.628377 ], [ 3.817455, 43.628361 ], [ 3.817422, 43.628349 ], [ 3.817378, 43.628351 ], [ 3.817346, 43.628357 ], [ 3.817293, 43.62837 ], [ 3.817236, 43.628372 ], [ 3.817168, 43.628364 ], [ 3.817118, 43.628353 ], [ 3.817056, 43.628342 ], [ 3.817012, 43.628336 ], [ 3.816961, 43.628332 ], [ 3.816917, 43.62833 ], [ 3.81689, 43.628329 ], [ 3.816886, 43.628289 ], [ 3.816885, 43.628252 ], [ 3.816881, 43.628222 ], [ 3.816876, 43.628209 ], [ 3.816843, 43.628197 ], [ 3.816814, 43.628195 ], [ 3.816763, 43.628193 ], [ 3.816712, 43.628201 ], [ 3.816669, 43.628195 ], [ 3.81663, 43.628196 ], [ 3.816585, 43.628194 ], [ 3.816565, 43.628191 ], [ 3.81654, 43.628189 ], [ 3.816532, 43.62818 ], [ 3.816564, 43.628181 ], [ 3.816604, 43.628188 ], [ 3.816656, 43.628187 ], [ 3.816705, 43.628187 ], [ 3.81674, 43.628185 ], [ 3.816758, 43.628186 ], [ 3.816779, 43.628179 ], [ 3.816804, 43.628162 ], [ 3.816832, 43.628139 ], [ 3.816832, 43.628089 ], [ 3.816837, 43.628035 ], [ 3.816854, 43.627994 ], [ 3.816874, 43.627953 ], [ 3.816892, 43.627932 ], [ 3.816923, 43.627946 ], [ 3.816985, 43.62797 ], [ 3.817071, 43.627981 ], [ 3.817157, 43.627977 ], [ 3.817228, 43.627968 ], [ 3.817289, 43.627951 ], [ 3.817333, 43.627933 ], [ 3.817364, 43.627909 ], [ 3.817396, 43.627897 ], [ 3.817431, 43.627888 ], [ 3.817441, 43.627877 ], [ 3.817424, 43.627851 ], [ 3.817428, 43.62782 ], [ 3.817416, 43.627796 ], [ 3.817407, 43.627776 ], [ 3.817409, 43.627756 ], [ 3.817402, 43.62774 ], [ 3.817394, 43.627722 ], [ 3.817392, 43.627707 ], [ 3.817399, 43.627687 ], [ 3.817424, 43.627675 ], [ 3.817467, 43.627672 ], [ 3.817502, 43.627655 ], [ 3.817543, 43.627636 ], [ 3.817586, 43.627617 ], [ 3.817634, 43.627585 ], [ 3.817685, 43.627573 ], [ 3.817708, 43.627547 ], [ 3.817711, 43.627507 ], [ 3.817713, 43.627468 ], [ 3.817704, 43.627428 ], [ 3.817711, 43.627387 ], [ 3.817701, 43.627351 ], [ 3.817668, 43.627319 ], [ 3.817593, 43.627294 ], [ 3.817539, 43.627283 ], [ 3.817508, 43.627273 ], [ 3.817491, 43.627246 ], [ 3.817464, 43.627227 ], [ 3.817384, 43.627219 ], [ 3.817327, 43.627216 ], [ 3.817255, 43.627215 ], [ 3.817193, 43.627211 ], [ 3.817104, 43.6272 ], [ 3.817022, 43.627193 ], [ 3.816938, 43.627173 ], [ 3.81685, 43.627157 ], [ 3.816773, 43.627146 ], [ 3.816693, 43.627137 ], [ 3.816622, 43.627134 ], [ 3.816545, 43.627135 ], [ 3.816466, 43.627131 ], [ 3.816395, 43.627132 ], [ 3.816324, 43.627134 ], [ 3.816237, 43.627135 ], [ 3.81614, 43.627132 ], [ 3.816034, 43.627117 ], [ 3.815929, 43.627103 ], [ 3.815809, 43.627088 ], [ 3.815688, 43.627074 ], [ 3.81559, 43.627063 ], [ 3.815489, 43.627051 ], [ 3.815386, 43.62704 ], [ 3.815287, 43.627034 ], [ 3.815195, 43.627027 ], [ 3.815102, 43.62702 ], [ 3.815, 43.627008 ], [ 3.814905, 43.626995 ], [ 3.814806, 43.626988 ], [ 3.814699, 43.626989 ], [ 3.814595, 43.626987 ], [ 3.814484, 43.626978 ], [ 3.814374, 43.62697 ], [ 3.814258, 43.626958 ], [ 3.814147, 43.626945 ], [ 3.814043, 43.626914 ], [ 3.813944, 43.626871 ], [ 3.81386, 43.626821 ], [ 3.813785, 43.626752 ], [ 3.813713, 43.626675 ], [ 3.813642, 43.626595 ], [ 3.813572, 43.626518 ], [ 3.813504, 43.626438 ], [ 3.813428, 43.626353 ], [ 3.813359, 43.626272 ], [ 3.813291, 43.62619 ], [ 3.813218, 43.626106 ], [ 3.813139, 43.626024 ], [ 3.813062, 43.62594 ], [ 3.812997, 43.625851 ], [ 3.812932, 43.625767 ], [ 3.812861, 43.625684 ], [ 3.812781, 43.625607 ], [ 3.812706, 43.625525 ], [ 3.812635, 43.625435 ], [ 3.812559, 43.625344 ], [ 3.812477, 43.625256 ], [ 3.812394, 43.625171 ], [ 3.812319, 43.62509 ], [ 3.812247, 43.625006 ], [ 3.812177, 43.624924 ], [ 3.812107, 43.624847 ], [ 3.812035, 43.624767 ], [ 3.811965, 43.624682 ], [ 3.811894, 43.624596 ], [ 3.811819, 43.624514 ], [ 3.811748, 43.624439 ], [ 3.811682, 43.624365 ], [ 3.811615, 43.624289 ], [ 3.811552, 43.624215 ], [ 3.811494, 43.624147 ], [ 3.811443, 43.624089 ], [ 3.811402, 43.624038 ], [ 3.811371, 43.623992 ], [ 3.811357, 43.623951 ], [ 3.81135, 43.623918 ], [ 3.811349, 43.623886 ], [ 3.811351, 43.62386 ], [ 3.811353, 43.623844 ], [ 3.811374, 43.623825 ], [ 3.8114, 43.623801 ], [ 3.811414, 43.623787 ], [ 3.811428, 43.623757 ], [ 3.811431, 43.623711 ], [ 3.811459, 43.623654 ], [ 3.811511, 43.623587 ], [ 3.811579, 43.623521 ], [ 3.811661, 43.623459 ], [ 3.811745, 43.623409 ], [ 3.811823, 43.623363 ], [ 3.811895, 43.623316 ], [ 3.811965, 43.623269 ], [ 3.81204, 43.623224 ], [ 3.812111, 43.623182 ], [ 3.812179, 43.623135 ], [ 3.812249, 43.623081 ], [ 3.812329, 43.623024 ], [ 3.813307, 43.62251 ], [ 3.813411, 43.622442 ], [ 3.81349, 43.622374 ], [ 3.813579, 43.622306 ], [ 3.81367, 43.62224 ], [ 3.813769, 43.622174 ], [ 3.813873, 43.62211 ], [ 3.813979, 43.622051 ], [ 3.814083, 43.62199 ], [ 3.814184, 43.621922 ], [ 3.814292, 43.621854 ], [ 3.814401, 43.621791 ], [ 3.814511, 43.621724 ], [ 3.814622, 43.621657 ], [ 3.814734, 43.621589 ], [ 3.814846, 43.621524 ], [ 3.81496, 43.621458 ], [ 3.815074, 43.621393 ], [ 3.815185, 43.621329 ], [ 3.815289, 43.621264 ], [ 3.815394, 43.621197 ], [ 3.815505, 43.621131 ], [ 3.81562, 43.621065 ], [ 3.81573, 43.620995 ], [ 3.815838, 43.620925 ], [ 3.815949, 43.620855 ], [ 3.816058, 43.620793 ], [ 3.816153, 43.620738 ], [ 3.816235, 43.620689 ], [ 3.816318, 43.620638 ], [ 3.816409, 43.620583 ], [ 3.8165, 43.620529 ], [ 3.816589, 43.620471 ], [ 3.816678, 43.620409 ], [ 3.816773, 43.620347 ], [ 3.816869, 43.620285 ], [ 3.816968, 43.620226 ], [ 3.817064, 43.620175 ], [ 3.817147, 43.62013 ], [ 3.817221, 43.620088 ], [ 3.817279, 43.620048 ], [ 3.817322, 43.620016 ], [ 3.817345, 43.619994 ], [ 3.817355, 43.619977 ], [ 3.817362, 43.619966 ], [ 3.817371, 43.619936 ], [ 3.817377, 43.619896 ], [ 3.817387, 43.619845 ], [ 3.8174, 43.619787 ], [ 3.817417, 43.619727 ], [ 3.817462, 43.619669 ], [ 3.817528, 43.619613 ], [ 3.817609, 43.619571 ], [ 3.817706, 43.619545 ], [ 3.817814, 43.619528 ], [ 3.81793, 43.619539 ], [ 3.818034, 43.619565 ], [ 3.81812, 43.619607 ], [ 3.81818, 43.619669 ], [ 3.818218, 43.61974 ], [ 3.818228, 43.619817 ], [ 3.818206, 43.619897 ], [ 3.818155, 43.619969 ], [ 3.818083, 43.620032 ], [ 3.817884, 43.620111 ], [ 3.817767, 43.620131 ], [ 3.817645, 43.620146 ], [ 3.817523, 43.620148 ], [ 3.817404, 43.620158 ], [ 3.817289, 43.620188 ], [ 3.817181, 43.620236 ], [ 3.817091, 43.620302 ], [ 3.816997, 43.620374 ], [ 3.816909, 43.620449 ], [ 3.816817, 43.620516 ], [ 3.816722, 43.620579 ], [ 3.81663, 43.620636 ], [ 3.81654, 43.620689 ], [ 3.816449, 43.620742 ], [ 3.81636, 43.620797 ], [ 3.816264, 43.620849 ], [ 3.816169, 43.620899 ], [ 3.816073, 43.620952 ], [ 3.815975, 43.621007 ], [ 3.81587, 43.621061 ], [ 3.815764, 43.621111 ], [ 3.81566, 43.621164 ], [ 3.815561, 43.62122 ], [ 3.815461, 43.621272 ], [ 3.815368, 43.621332 ], [ 3.815276, 43.621395 ], [ 3.815177, 43.621456 ], [ 3.815081, 43.621515 ], [ 3.814983, 43.621575 ], [ 3.814884, 43.621635 ], [ 3.814783, 43.621694 ], [ 3.814685, 43.621755 ], [ 3.814583, 43.621812 ], [ 3.814477, 43.621869 ], [ 3.814375, 43.621931 ], [ 3.814271, 43.621993 ], [ 3.81417, 43.622055 ], [ 3.814069, 43.622115 ], [ 3.813962, 43.622172 ], [ 3.813865, 43.622239 ], [ 3.813762, 43.622305 ], [ 3.813659, 43.622369 ], [ 3.813558, 43.622438 ], [ 3.813457, 43.622508 ], [ 3.81335, 43.622572 ], [ 3.813245, 43.622638 ], [ 3.813133, 43.622701 ], [ 3.813027, 43.622764 ], [ 3.812923, 43.622826 ], [ 3.812822, 43.622893 ], [ 3.812724, 43.622963 ], [ 3.812625, 43.623026 ], [ 3.812523, 43.623087 ], [ 3.812423, 43.623151 ], [ 3.812323, 43.623215 ], [ 3.812217, 43.623279 ], [ 3.812108, 43.623339 ], [ 3.812007, 43.623402 ], [ 3.811902, 43.623466 ], [ 3.811796, 43.623529 ], [ 3.811691, 43.623595 ], [ 3.811595, 43.623661 ], [ 3.811526, 43.623742 ], [ 3.81149, 43.623838 ], [ 3.811488, 43.623944 ], [ 3.811518, 43.624046 ], [ 3.81158, 43.624144 ], [ 3.811657, 43.624229 ], [ 3.811736, 43.624312 ], [ 3.811816, 43.624387 ], [ 3.811885, 43.624457 ], [ 3.811943, 43.62452 ], [ 3.811988, 43.624569 ], [ 3.81202, 43.624599 ], [ 3.812039, 43.624612 ], [ 3.812063, 43.624619 ], [ 3.812097, 43.624607 ], [ 3.81212, 43.624575 ], [ 3.812122, 43.62453 ], [ 3.812101, 43.624465 ], [ 3.812096, 43.624393 ], [ 3.812094, 43.62433 ], [ 3.812096, 43.624287 ], [ 3.812091, 43.624261 ], [ 3.812084, 43.624239 ], [ 3.812083, 43.624217 ], [ 3.812075, 43.62417 ], [ 3.812094, 43.62414 ], [ 3.8121, 43.624129 ], [ 3.812109, 43.624119 ], [ 3.812101, 43.624101 ], [ 3.812094, 43.624074 ], [ 3.812101, 43.624039 ], [ 3.812106, 43.624019 ], [ 3.812116, 43.623995 ], [ 3.812119, 43.623985 ], [ 3.812124, 43.62397 ], [ 3.812125, 43.623955 ], [ 3.812105, 43.623947 ], [ 3.812086, 43.623943 ], [ 3.812067, 43.623929 ], [ 3.812045, 43.623917 ], [ 3.812037, 43.623924 ], [ 3.812026, 43.62393 ], [ 3.81201, 43.623933 ], [ 3.811991, 43.623928 ], [ 3.811968, 43.623929 ], [ 3.811955, 43.623927 ], [ 3.811943, 43.623924 ], [ 3.811939, 43.623914 ], [ 3.811933, 43.6239 ], [ 3.811927, 43.623888 ], [ 3.811917, 43.623877 ], [ 3.811905, 43.623871 ], [ 3.811899, 43.623862 ], [ 3.811901, 43.62385 ], [ 3.811898, 43.623841 ], [ 3.811899, 43.623822 ], [ 3.811894, 43.623812 ], [ 3.811893, 43.623802 ], [ 3.811897, 43.623787 ], [ 3.811886, 43.623781 ], [ 3.81189, 43.62375 ], [ 3.811886, 43.623737 ], [ 3.811892, 43.623725 ], [ 3.81191, 43.62371 ], [ 3.811916, 43.623698 ], [ 3.811925, 43.623676 ], [ 3.811935, 43.623655 ], [ 3.811928, 43.623628 ], [ 3.811933, 43.623615 ], [ 3.811942, 43.623605 ], [ 3.811963, 43.623594 ], [ 3.811984, 43.623584 ], [ 3.811997, 43.623577 ], [ 3.812012, 43.623565 ], [ 3.812042, 43.623557 ], [ 3.812058, 43.623553 ], [ 3.812073, 43.623549 ], [ 3.812091, 43.623543 ], [ 3.812104, 43.623541 ], [ 3.812118, 43.623538 ], [ 3.812136, 43.623531 ], [ 3.812153, 43.623528 ], [ 3.812168, 43.623531 ], [ 3.812186, 43.623531 ], [ 3.81221, 43.623532 ], [ 3.81223, 43.623529 ], [ 3.812247, 43.623529 ], [ 3.812275, 43.623534 ], [ 3.812291, 43.623534 ], [ 3.81232, 43.623531 ], [ 3.812338, 43.623535 ], [ 3.812357, 43.623531 ], [ 3.812355, 43.623547 ], [ 3.812336, 43.623554 ], [ 3.812323, 43.623563 ], [ 3.812306, 43.623569 ], [ 3.812291, 43.623575 ], [ 3.812262, 43.623583 ], [ 3.812244, 43.623587 ], [ 3.812229, 43.623591 ], [ 3.812215, 43.623598 ], [ 3.812201, 43.6236 ], [ 3.812189, 43.623607 ], [ 3.812175, 43.623624 ], [ 3.81217, 43.623638 ], [ 3.812174, 43.623655 ], [ 3.812181, 43.62367 ], [ 3.812183, 43.623682 ], [ 3.812181, 43.623692 ], [ 3.812188, 43.623701 ], [ 3.812189, 43.623711 ], [ 3.812194, 43.623722 ], [ 3.812196, 43.623735 ], [ 3.812199, 43.623752 ], [ 3.812195, 43.623766 ], [ 3.812195, 43.623776 ], [ 3.812199, 43.623792 ], [ 3.812202, 43.623801 ], [ 3.812213, 43.623811 ], [ 3.812215, 43.62382 ], [ 3.812224, 43.623835 ], [ 3.812228, 43.623851 ], [ 3.812237, 43.623866 ], [ 3.812242, 43.623876 ], [ 3.812232, 43.623884 ], [ 3.812213, 43.623907 ], [ 3.812207, 43.623916 ], [ 3.812201, 43.623941 ], [ 3.812239, 43.62397 ], [ 3.812244, 43.623979 ], [ 3.812246, 43.623991 ], [ 3.812255, 43.623998 ], [ 3.812254, 43.624025 ], [ 3.812244, 43.624046 ], [ 3.812231, 43.624059 ], [ 3.812224, 43.624074 ], [ 3.812217, 43.624088 ], [ 3.812218, 43.624104 ], [ 3.812222, 43.624115 ], [ 3.812223, 43.62414 ], [ 3.81222, 43.624156 ], [ 3.812205, 43.624181 ], [ 3.812197, 43.624206 ], [ 3.812206, 43.624231 ], [ 3.812219, 43.62425 ], [ 3.812225, 43.62427 ], [ 3.81223, 43.624289 ], [ 3.812229, 43.624303 ], [ 3.812223, 43.62432 ], [ 3.812198, 43.624338 ], [ 3.812182, 43.624358 ], [ 3.812187, 43.624368 ], [ 3.812178, 43.624389 ], [ 3.81217, 43.624415 ], [ 3.812172, 43.624431 ], [ 3.812167, 43.624443 ], [ 3.812169, 43.624457 ], [ 3.812177, 43.624486 ], [ 3.812186, 43.624513 ], [ 3.812194, 43.62454 ], [ 3.812195, 43.624562 ], [ 3.812199, 43.624571 ], [ 3.812203, 43.624584 ], [ 3.81219, 43.624585 ], [ 3.812172, 43.624566 ], [ 3.812161, 43.624555 ], [ 3.812152, 43.624541 ], [ 3.812146, 43.62453 ], [ 3.812142, 43.624519 ], [ 3.812136, 43.624507 ], [ 3.812129, 43.624493 ], [ 3.812121, 43.62448 ], [ 3.812115, 43.624464 ], [ 3.812109, 43.624452 ], [ 3.812103, 43.62444 ], [ 3.812096, 43.624427 ], [ 3.812092, 43.624416 ], [ 3.812092, 43.624402 ], [ 3.812091, 43.624389 ], [ 3.812088, 43.624379 ], [ 3.812085, 43.624367 ], [ 3.812079, 43.624357 ], [ 3.812072, 43.624345 ], [ 3.812063, 43.624336 ], [ 3.812054, 43.624324 ], [ 3.812047, 43.624314 ], [ 3.812046, 43.624304 ], [ 3.812046, 43.624294 ], [ 3.81205, 43.624281 ], [ 3.812053, 43.62427 ], [ 3.812052, 43.62426 ], [ 3.812057, 43.624246 ], [ 3.812067, 43.624235 ], [ 3.812077, 43.624223 ], [ 3.812077, 43.624203 ], [ 3.812086, 43.624183 ], [ 3.812092, 43.624169 ], [ 3.812097, 43.624156 ], [ 3.8121, 43.624141 ], [ 3.812102, 43.62413 ], [ 3.812104, 43.624118 ], [ 3.812105, 43.624104 ], [ 3.812104, 43.62409 ], [ 3.812105, 43.624079 ], [ 3.812105, 43.624066 ], [ 3.812104, 43.624053 ], [ 3.8121, 43.624042 ], [ 3.812099, 43.62403 ], [ 3.812099, 43.624018 ], [ 3.812098, 43.623998 ], [ 3.812102, 43.623979 ], [ 3.812103, 43.623967 ], [ 3.812097, 43.623953 ], [ 3.812095, 43.623942 ], [ 3.812085, 43.623935 ], [ 3.812073, 43.623932 ], [ 3.812058, 43.623921 ], [ 3.812045, 43.62391 ], [ 3.81204, 43.623901 ], [ 3.812029, 43.623893 ], [ 3.81201, 43.623891 ], [ 3.811997, 43.623892 ], [ 3.811982, 43.623891 ], [ 3.811961, 43.623887 ], [ 3.811952, 43.623875 ], [ 3.811952, 43.623852 ], [ 3.811944, 43.623815 ], [ 3.811938, 43.62377 ], [ 3.811937, 43.62372 ], [ 3.811946, 43.623669 ], [ 3.811963, 43.623627 ], [ 3.811998, 43.623592 ], [ 3.812065, 43.623583 ], [ 3.812149, 43.623581 ], [ 3.812233, 43.623577 ], [ 3.812319, 43.623573 ], [ 3.812407, 43.623567 ], [ 3.812491, 43.623559 ], [ 3.812556, 43.623554 ], [ 3.812598, 43.62355 ], [ 3.81264, 43.623548 ], [ 3.812688, 43.623548 ], [ 3.812741, 43.623551 ], [ 3.812803, 43.623555 ], [ 3.81287, 43.623555 ], [ 3.812935, 43.623549 ], [ 3.813002, 43.623541 ], [ 3.813071, 43.623537 ], [ 3.813126, 43.623537 ], [ 3.813179, 43.623537 ], [ 3.813219, 43.623537 ], [ 3.813254, 43.623536 ], [ 3.813291, 43.623539 ], [ 3.813324, 43.623541 ], [ 3.81334, 43.623538 ], [ 3.813347, 43.623547 ], [ 3.813349, 43.623567 ], [ 3.813332, 43.623583 ], [ 3.813297, 43.623595 ], [ 3.813254, 43.623607 ], [ 3.813225, 43.623627 ], [ 3.813177, 43.623613 ], [ 3.813107, 43.623617 ], [ 3.813033, 43.623617 ], [ 3.812949, 43.623618 ], [ 3.812877, 43.623625 ], [ 3.812807, 43.623629 ], [ 3.812746, 43.623633 ], [ 3.812703, 43.623633 ], [ 3.812682, 43.62364 ], [ 3.81267, 43.623648 ], [ 3.81268, 43.623658 ], [ 3.812691, 43.623679 ], [ 3.812698, 43.623705 ], [ 3.81269, 43.623738 ], [ 3.812689, 43.623776 ], [ 3.812702, 43.623818 ], [ 3.812726, 43.623842 ], [ 3.812752, 43.623845 ], [ 3.812721, 43.623854 ], [ 3.81267, 43.623855 ], [ 3.812611, 43.623862 ], [ 3.812583, 43.623881 ], [ 3.812568, 43.623907 ], [ 3.812579, 43.62393 ], [ 3.812586, 43.623961 ], [ 3.812581, 43.624001 ], [ 3.812578, 43.624046 ], [ 3.812581, 43.624089 ], [ 3.812585, 43.624124 ], [ 3.812601, 43.624144 ], [ 3.812625, 43.62416 ], [ 3.812682, 43.624152 ], [ 3.812739, 43.624151 ], [ 3.812781, 43.624148 ], [ 3.812799, 43.624144 ], [ 3.812809, 43.624137 ], [ 3.812833, 43.62415 ], [ 3.812909, 43.624179 ], [ 3.812897, 43.624168 ], [ 3.812851, 43.62416 ], [ 3.812832, 43.624158 ], [ 3.812791, 43.624148 ], [ 3.812793, 43.624137 ], [ 3.812808, 43.624134 ], [ 3.812844, 43.624136 ], [ 3.812892, 43.624141 ], [ 3.812898, 43.624132 ], [ 3.812922, 43.624151 ], [ 3.812959, 43.624163 ], [ 3.812979, 43.624155 ], [ 3.813039, 43.624124 ], [ 3.813113, 43.624142 ], [ 3.813095, 43.624148 ], [ 3.813083, 43.62413 ], [ 3.813063, 43.624114 ], [ 3.812986, 43.624096 ], [ 3.812862, 43.624059 ], [ 3.812794, 43.624072 ], [ 3.812739, 43.624067 ], [ 3.812661, 43.624092 ], [ 3.8126, 43.624066 ], [ 3.812573, 43.624 ], [ 3.812561, 43.623941 ], [ 3.812547, 43.623874 ], [ 3.812549, 43.623809 ], [ 3.812572, 43.623753 ], [ 3.812598, 43.62372 ], [ 3.812604, 43.623696 ], [ 3.812601, 43.623673 ], [ 3.812601, 43.623658 ], [ 3.812595, 43.623645 ], [ 3.81259, 43.623627 ], [ 3.812579, 43.623616 ], [ 3.812552, 43.623603 ], [ 3.812503, 43.623602 ], [ 3.812445, 43.623612 ], [ 3.812376, 43.623613 ], [ 3.812292, 43.623615 ], [ 3.812222, 43.623621 ], [ 3.812161, 43.623635 ], [ 3.81211, 43.623658 ], [ 3.812079, 43.623692 ], [ 3.812092, 43.623742 ], [ 3.812115, 43.623795 ], [ 3.812112, 43.623873 ], [ 3.812108, 43.623957 ], [ 3.81211, 43.62404 ], [ 3.812115, 43.624118 ], [ 3.812122, 43.62419 ], [ 3.812127, 43.624265 ], [ 3.812134, 43.62434 ], [ 3.812145, 43.62441 ], [ 3.812153, 43.624478 ], [ 3.81215, 43.624533 ], [ 3.812138, 43.624579 ], [ 3.812144, 43.624627 ], [ 3.812173, 43.624673 ], [ 3.812198, 43.624703 ], [ 3.812232, 43.624732 ], [ 3.812263, 43.624768 ], [ 3.812291, 43.624803 ], [ 3.812327, 43.624838 ], [ 3.812355, 43.624846 ], [ 3.812394, 43.624853 ], [ 3.812448, 43.624841 ], [ 3.812491, 43.624816 ], [ 3.812527, 43.624788 ], [ 3.81255, 43.624764 ], [ 3.812554, 43.624739 ], [ 3.812552, 43.624709 ], [ 3.812556, 43.624677 ], [ 3.812565, 43.624647 ], [ 3.812544, 43.62461 ], [ 3.812538, 43.624571 ], [ 3.812545, 43.624536 ], [ 3.812543, 43.624494 ], [ 3.81253, 43.62445 ], [ 3.812524, 43.624403 ], [ 3.812519, 43.624358 ], [ 3.812519, 43.624316 ], [ 3.812535, 43.624282 ], [ 3.812547, 43.624267 ], [ 3.812578, 43.624256 ], [ 3.812633, 43.624254 ], [ 3.812691, 43.62425 ], [ 3.812747, 43.624245 ], [ 3.812808, 43.624246 ], [ 3.812879, 43.624246 ], [ 3.812944, 43.624244 ], [ 3.813011, 43.624241 ], [ 3.813084, 43.62424 ], [ 3.813159, 43.624239 ], [ 3.813219, 43.624238 ], [ 3.813298, 43.624238 ], [ 3.813245, 43.624243 ], [ 3.813142, 43.62427 ], [ 3.813126, 43.624271 ], [ 3.813111, 43.62427 ], [ 3.813064, 43.624293 ], [ 3.812983, 43.624308 ], [ 3.812922, 43.624309 ], [ 3.812909, 43.62431 ], [ 3.812886, 43.624311 ], [ 3.812852, 43.624309 ], [ 3.812804, 43.624297 ], [ 3.812766, 43.624296 ], [ 3.812754, 43.624296 ], [ 3.812727, 43.624296 ], [ 3.812703, 43.624297 ], [ 3.812689, 43.624295 ], [ 3.812676, 43.624293 ], [ 3.812691, 43.624287 ], [ 3.812671, 43.624289 ], [ 3.812652, 43.624288 ], [ 3.812639, 43.6243 ], [ 3.812645, 43.624308 ], [ 3.812631, 43.624323 ], [ 3.812617, 43.624335 ], [ 3.812608, 43.624343 ], [ 3.812594, 43.624356 ], [ 3.812592, 43.624367 ], [ 3.81259, 43.624382 ], [ 3.812595, 43.624397 ], [ 3.812589, 43.624405 ], [ 3.812595, 43.624416 ], [ 3.812608, 43.624426 ], [ 3.812601, 43.624439 ], [ 3.81261, 43.624448 ], [ 3.81262, 43.624461 ], [ 3.812626, 43.624474 ], [ 3.812638, 43.624488 ], [ 3.812636, 43.624504 ], [ 3.812633, 43.624514 ], [ 3.812643, 43.624528 ], [ 3.812654, 43.62455 ], [ 3.812658, 43.624563 ], [ 3.812661, 43.624583 ], [ 3.81266, 43.624594 ], [ 3.812657, 43.624629 ], [ 3.812655, 43.624655 ], [ 3.812651, 43.624671 ], [ 3.812665, 43.624672 ], [ 3.812694, 43.624671 ], [ 3.81274, 43.62467 ], [ 3.812789, 43.624679 ], [ 3.812842, 43.624684 ], [ 3.812887, 43.624685 ], [ 3.812914, 43.624687 ], [ 3.812944, 43.624683 ], [ 3.812949, 43.62467 ], [ 3.812952, 43.624653 ], [ 3.812952, 43.624628 ], [ 3.812957, 43.624614 ], [ 3.812968, 43.624598 ], [ 3.812983, 43.624613 ], [ 3.812995, 43.624621 ], [ 3.812994, 43.624632 ], [ 3.812989, 43.62464 ], [ 3.812978, 43.624644 ], [ 3.812962, 43.624642 ], [ 3.812953, 43.624636 ], [ 3.812939, 43.624629 ], [ 3.812932, 43.624621 ], [ 3.812945, 43.624613 ], [ 3.812933, 43.624608 ], [ 3.812934, 43.624598 ], [ 3.812918, 43.624587 ], [ 3.812909, 43.624579 ], [ 3.812914, 43.624566 ], [ 3.812923, 43.624558 ], [ 3.812923, 43.624547 ], [ 3.812923, 43.624537 ], [ 3.812915, 43.62452 ], [ 3.812927, 43.624515 ], [ 3.812933, 43.6245 ], [ 3.812948, 43.624483 ], [ 3.812957, 43.624463 ], [ 3.812949, 43.624444 ], [ 3.812951, 43.624435 ], [ 3.81295, 43.624425 ], [ 3.812954, 43.624415 ], [ 3.812961, 43.624405 ], [ 3.812969, 43.624395 ], [ 3.812981, 43.624386 ], [ 3.81299, 43.624379 ], [ 3.812996, 43.624396 ], [ 3.812999, 43.624409 ], [ 3.813001, 43.624426 ], [ 3.812989, 43.624436 ], [ 3.812969, 43.624446 ], [ 3.812958, 43.624452 ], [ 3.812952, 43.624462 ], [ 3.812968, 43.624474 ], [ 3.812969, 43.624489 ], [ 3.812954, 43.62451 ], [ 3.812942, 43.624525 ], [ 3.81294, 43.624539 ], [ 3.812938, 43.624551 ], [ 3.812942, 43.624562 ], [ 3.812944, 43.624571 ], [ 3.812952, 43.624581 ], [ 3.812964, 43.624597 ], [ 3.812966, 43.624608 ], [ 3.812986, 43.624604 ], [ 3.813026, 43.624609 ], [ 3.813054, 43.624616 ], [ 3.813079, 43.624618 ], [ 3.813116, 43.624622 ], [ 3.813157, 43.624617 ], [ 3.81321, 43.624615 ], [ 3.813256, 43.624622 ], [ 3.813285, 43.624623 ], [ 3.813298, 43.624625 ], [ 3.813309, 43.624629 ], [ 3.813282, 43.624641 ], [ 3.81323, 43.624659 ], [ 3.813176, 43.624663 ], [ 3.813123, 43.624673 ], [ 3.813073, 43.624687 ], [ 3.813021, 43.624698 ], [ 3.812988, 43.624704 ], [ 3.812976, 43.624711 ], [ 3.812978, 43.624727 ], [ 3.812982, 43.62476 ], [ 3.812993, 43.624789 ], [ 3.813007, 43.624822 ], [ 3.813018, 43.624857 ], [ 3.813024, 43.624874 ], [ 3.813029, 43.624889 ], [ 3.813027, 43.624899 ], [ 3.813029, 43.62491 ], [ 3.813023, 43.624921 ], [ 3.81302, 43.624932 ], [ 3.813, 43.624929 ], [ 3.812988, 43.624944 ], [ 3.812962, 43.624959 ], [ 3.812961, 43.624972 ], [ 3.812955, 43.624981 ], [ 3.812963, 43.625001 ], [ 3.812962, 43.625016 ], [ 3.81295, 43.625026 ], [ 3.812941, 43.625036 ], [ 3.812931, 43.625045 ], [ 3.812946, 43.625051 ], [ 3.812961, 43.625051 ], [ 3.812976, 43.625041 ], [ 3.812995, 43.62503 ], [ 3.813008, 43.62503 ], [ 3.813023, 43.625038 ], [ 3.813039, 43.625048 ], [ 3.813051, 43.625051 ], [ 3.813061, 43.625064 ], [ 3.813064, 43.625084 ], [ 3.813041, 43.625074 ], [ 3.813048, 43.625132 ], [ 3.813049, 43.625146 ], [ 3.813043, 43.625186 ], [ 3.813042, 43.625207 ], [ 3.813055, 43.625214 ], [ 3.813055, 43.625229 ], [ 3.813055, 43.625244 ], [ 3.813073, 43.625261 ], [ 3.813066, 43.625269 ], [ 3.813051, 43.625269 ], [ 3.813035, 43.625284 ], [ 3.813033, 43.625294 ], [ 3.813024, 43.625303 ], [ 3.813018, 43.625315 ], [ 3.813007, 43.625324 ], [ 3.813, 43.625345 ], [ 3.812986, 43.625359 ], [ 3.812978, 43.625371 ], [ 3.812969, 43.625382 ], [ 3.812963, 43.625393 ], [ 3.812978, 43.625386 ], [ 3.81298, 43.625374 ], [ 3.812974, 43.62536 ], [ 3.812974, 43.625344 ], [ 3.812979, 43.625329 ], [ 3.812973, 43.625316 ], [ 3.812968, 43.625301 ], [ 3.812967, 43.625286 ], [ 3.812976, 43.625258 ], [ 3.812973, 43.625245 ], [ 3.812975, 43.62523 ], [ 3.812975, 43.625214 ], [ 3.812974, 43.625196 ], [ 3.812974, 43.625181 ], [ 3.812976, 43.625168 ], [ 3.812976, 43.625153 ], [ 3.812978, 43.62514 ], [ 3.812975, 43.625129 ], [ 3.812973, 43.625116 ], [ 3.812969, 43.625104 ], [ 3.812965, 43.625091 ], [ 3.812961, 43.625078 ], [ 3.812955, 43.625067 ], [ 3.812945, 43.625053 ], [ 3.81295, 43.625042 ], [ 3.81296, 43.625033 ], [ 3.812962, 43.625022 ], [ 3.81297, 43.625004 ], [ 3.812972, 43.624992 ], [ 3.812961, 43.624981 ], [ 3.812956, 43.624973 ], [ 3.812952, 43.624961 ], [ 3.812956, 43.624951 ], [ 3.812958, 43.624938 ], [ 3.81296, 43.624923 ], [ 3.812948, 43.624899 ], [ 3.812944, 43.624886 ], [ 3.812943, 43.624874 ], [ 3.812943, 43.624862 ], [ 3.812924, 43.624854 ], [ 3.812908, 43.624846 ], [ 3.812895, 43.624852 ], [ 3.812867, 43.62485 ], [ 3.812851, 43.624841 ], [ 3.812835, 43.624836 ], [ 3.812822, 43.624833 ], [ 3.812801, 43.624835 ], [ 3.812778, 43.624838 ], [ 3.812754, 43.624839 ], [ 3.812743, 43.624853 ], [ 3.812729, 43.624853 ], [ 3.812715, 43.62485 ], [ 3.812706, 43.62484 ], [ 3.812714, 43.624832 ], [ 3.812727, 43.624824 ], [ 3.81274, 43.624823 ], [ 3.812769, 43.624822 ], [ 3.812793, 43.624821 ], [ 3.812809, 43.624817 ], [ 3.812837, 43.624808 ], [ 3.812859, 43.624806 ], [ 3.812891, 43.624803 ], [ 3.812936, 43.624824 ], [ 3.812942, 43.624832 ], [ 3.812953, 43.624843 ], [ 3.812959, 43.62486 ], [ 3.81298, 43.624875 ], [ 3.812984, 43.624886 ], [ 3.81299, 43.6249 ], [ 3.812995, 43.624921 ], [ 3.812996, 43.624936 ], [ 3.812994, 43.624954 ], [ 3.812979, 43.624958 ], [ 3.812977, 43.624971 ], [ 3.812978, 43.624982 ], [ 3.812961, 43.624992 ], [ 3.812965, 43.625009 ], [ 3.812972, 43.625019 ], [ 3.812969, 43.625028 ], [ 3.812961, 43.625035 ], [ 3.812971, 43.625042 ], [ 3.812972, 43.625018 ], [ 3.812959, 43.62499 ], [ 3.812949, 43.624965 ], [ 3.812952, 43.62494 ], [ 3.812952, 43.624923 ], [ 3.812945, 43.624903 ], [ 3.812942, 43.624882 ], [ 3.812938, 43.624867 ], [ 3.81293, 43.624855 ], [ 3.812901, 43.624851 ], [ 3.812873, 43.624854 ], [ 3.812835, 43.624857 ], [ 3.812799, 43.62486 ], [ 3.812758, 43.62486 ], [ 3.812726, 43.624857 ], [ 3.812686, 43.624852 ], [ 3.812643, 43.624853 ], [ 3.812609, 43.624853 ], [ 3.812582, 43.624853 ], [ 3.812557, 43.624853 ], [ 3.812533, 43.624855 ], [ 3.81251, 43.624855 ], [ 3.812497, 43.624858 ], [ 3.812486, 43.624867 ], [ 3.812479, 43.624875 ], [ 3.812455, 43.624886 ], [ 3.812441, 43.62489 ], [ 3.812424, 43.624891 ], [ 3.8124, 43.624887 ], [ 3.812389, 43.624896 ], [ 3.812376, 43.624905 ], [ 3.81239, 43.624921 ], [ 3.812405, 43.624929 ], [ 3.812423, 43.624936 ], [ 3.812419, 43.624948 ], [ 3.81242, 43.624961 ], [ 3.812412, 43.624974 ], [ 3.812402, 43.624983 ], [ 3.812424, 43.624985 ], [ 3.812443, 43.62498 ], [ 3.812451, 43.624993 ], [ 3.812458, 43.625004 ], [ 3.812463, 43.625013 ], [ 3.812471, 43.625026 ], [ 3.812479, 43.625036 ], [ 3.812492, 43.625044 ], [ 3.81248, 43.625042 ], [ 3.812468, 43.625033 ], [ 3.812458, 43.625024 ], [ 3.812446, 43.625016 ], [ 3.812438, 43.625 ], [ 3.812436, 43.624988 ], [ 3.812435, 43.624976 ], [ 3.812417, 43.624955 ], [ 3.812411, 43.624942 ], [ 3.812399, 43.624944 ], [ 3.812406, 43.624971 ], [ 3.812425, 43.624993 ], [ 3.812438, 43.625004 ], [ 3.812447, 43.625018 ], [ 3.812451, 43.625033 ], [ 3.812452, 43.625045 ], [ 3.812453, 43.625054 ], [ 3.812456, 43.625063 ], [ 3.812459, 43.625079 ], [ 3.812472, 43.625099 ], [ 3.81248, 43.62511 ], [ 3.812493, 43.625125 ], [ 3.8125, 43.625133 ], [ 3.812508, 43.625145 ], [ 3.812514, 43.625155 ], [ 3.81253, 43.625161 ], [ 3.812547, 43.62516 ], [ 3.812565, 43.625159 ], [ 3.812581, 43.625161 ], [ 3.812593, 43.625163 ], [ 3.812604, 43.625168 ], [ 3.812596, 43.625176 ], [ 3.8126, 43.625164 ], [ 3.812604, 43.625154 ], [ 3.812588, 43.625144 ], [ 3.812568, 43.625143 ], [ 3.812549, 43.625143 ], [ 3.812552, 43.625161 ], [ 3.812567, 43.625187 ], [ 3.812587, 43.625209 ], [ 3.812611, 43.625234 ], [ 3.812633, 43.625258 ], [ 3.812649, 43.625277 ], [ 3.812666, 43.625297 ], [ 3.812685, 43.625316 ], [ 3.81271, 43.625341 ], [ 3.812731, 43.625364 ], [ 3.812748, 43.625381 ], [ 3.812762, 43.625395 ], [ 3.812775, 43.625405 ], [ 3.812786, 43.625411 ], [ 3.812769, 43.625418 ], [ 3.81276, 43.625411 ], [ 3.812756, 43.625399 ], [ 3.812748, 43.625385 ], [ 3.812744, 43.625373 ], [ 3.812736, 43.62536 ], [ 3.812732, 43.625346 ], [ 3.812724, 43.625338 ], [ 3.812714, 43.62533 ], [ 3.812704, 43.625324 ], [ 3.812694, 43.62531 ], [ 3.812691, 43.625286 ], [ 3.812678, 43.625273 ], [ 3.812661, 43.625266 ], [ 3.81265, 43.62527 ], [ 3.812649, 43.625284 ], [ 3.812657, 43.625296 ], [ 3.812662, 43.625309 ], [ 3.812669, 43.625322 ], [ 3.812677, 43.625332 ], [ 3.812682, 43.625343 ], [ 3.812685, 43.625354 ], [ 3.812695, 43.625366 ], [ 3.812704, 43.625379 ], [ 3.812706, 43.625393 ], [ 3.812717, 43.625403 ], [ 3.81273, 43.625409 ], [ 3.812743, 43.625416 ], [ 3.81276, 43.625421 ], [ 3.812771, 43.625427 ], [ 3.812782, 43.625446 ], [ 3.812791, 43.625463 ], [ 3.812807, 43.625487 ], [ 3.812829, 43.625511 ], [ 3.812858, 43.625531 ], [ 3.812889, 43.625551 ], [ 3.812912, 43.625572 ], [ 3.812943, 43.625592 ], [ 3.812979, 43.625606 ], [ 3.813021, 43.625616 ], [ 3.813059, 43.625624 ], [ 3.81309, 43.625628 ], [ 3.813118, 43.625629 ], [ 3.813137, 43.625627 ], [ 3.813152, 43.625619 ], [ 3.813161, 43.625608 ], [ 3.81317, 43.6256 ], [ 3.813184, 43.625587 ], [ 3.813189, 43.625579 ], [ 3.813234, 43.625573 ], [ 3.81326, 43.625568 ], [ 3.813277, 43.625556 ], [ 3.813283, 43.625544 ], [ 3.813289, 43.625535 ], [ 3.813299, 43.625529 ], [ 3.813318, 43.625525 ], [ 3.813344, 43.625518 ], [ 3.813367, 43.62551 ], [ 3.813386, 43.625498 ], [ 3.813399, 43.625488 ], [ 3.813408, 43.625479 ], [ 3.813421, 43.625478 ], [ 3.813427, 43.625487 ], [ 3.81343, 43.625472 ], [ 3.813436, 43.625438 ], [ 3.813441, 43.625395 ], [ 3.813442, 43.625364 ], [ 3.81345, 43.625339 ], [ 3.813453, 43.625317 ], [ 3.813451, 43.625301 ], [ 3.81345, 43.625292 ], [ 3.813455, 43.625301 ], [ 3.813455, 43.625291 ], [ 3.813457, 43.625282 ], [ 3.813469, 43.625279 ], [ 3.813477, 43.625269 ], [ 3.813462, 43.625261 ], [ 3.813449, 43.625266 ], [ 3.813442, 43.625273 ], [ 3.813428, 43.62528 ], [ 3.813414, 43.62528 ], [ 3.813399, 43.62528 ], [ 3.813401, 43.625293 ], [ 3.813399, 43.625284 ], [ 3.813396, 43.625275 ], [ 3.813396, 43.625262 ], [ 3.813393, 43.62525 ], [ 3.813412, 43.625249 ], [ 3.813429, 43.625255 ], [ 3.813446, 43.625258 ], [ 3.813434, 43.625261 ], [ 3.81342, 43.625263 ], [ 3.813412, 43.625272 ], [ 3.813418, 43.62528 ], [ 3.81343, 43.625284 ], [ 3.813444, 43.625283 ], [ 3.813432, 43.625285 ], [ 3.813436, 43.625294 ], [ 3.813421, 43.625298 ], [ 3.813429, 43.625311 ], [ 3.813437, 43.625318 ], [ 3.813441, 43.625309 ], [ 3.81343, 43.625303 ], [ 3.813422, 43.62531 ], [ 3.813411, 43.625316 ], [ 3.813429, 43.625312 ], [ 3.813442, 43.625303 ], [ 3.813429, 43.625295 ], [ 3.813439, 43.62529 ], [ 3.813438, 43.625278 ], [ 3.813436, 43.625269 ], [ 3.813432, 43.625257 ], [ 3.813429, 43.625245 ], [ 3.813423, 43.625257 ], [ 3.813438, 43.625263 ], [ 3.813443, 43.625271 ], [ 3.813457, 43.625278 ], [ 3.813472, 43.625278 ], [ 3.813482, 43.625269 ], [ 3.813497, 43.62526 ], [ 3.813487, 43.625273 ], [ 3.813489, 43.625289 ], [ 3.813501, 43.625294 ], [ 3.813491, 43.625302 ], [ 3.813478, 43.625306 ], [ 3.813465, 43.625311 ], [ 3.813448, 43.625304 ], [ 3.813435, 43.625289 ], [ 3.81343, 43.625281 ], [ 3.813439, 43.625273 ], [ 3.81348, 43.625273 ], [ 3.813489, 43.625281 ], [ 3.813483, 43.625289 ], [ 3.813493, 43.625295 ], [ 3.813512, 43.62529 ], [ 3.813504, 43.625282 ], [ 3.813517, 43.62529 ], [ 3.813532, 43.6253 ], [ 3.813544, 43.625305 ], [ 3.813555, 43.625313 ], [ 3.81356, 43.625305 ], [ 3.81355, 43.625315 ], [ 3.813546, 43.625326 ], [ 3.81354, 43.625335 ], [ 3.813532, 43.625346 ], [ 3.813522, 43.625352 ], [ 3.813518, 43.62534 ], [ 3.813505, 43.625346 ], [ 3.813492, 43.625354 ], [ 3.81348, 43.625357 ], [ 3.813469, 43.62535 ], [ 3.813479, 43.625342 ], [ 3.813485, 43.625351 ], [ 3.813476, 43.625343 ], [ 3.813463, 43.625339 ], [ 3.813447, 43.62534 ], [ 3.81344, 43.625332 ], [ 3.813452, 43.625323 ], [ 3.813457, 43.625315 ], [ 3.813452, 43.625305 ], [ 3.813438, 43.625306 ], [ 3.813422, 43.625311 ], [ 3.813427, 43.625321 ], [ 3.813444, 43.625329 ], [ 3.813468, 43.625317 ], [ 3.813478, 43.62531 ], [ 3.813472, 43.625301 ], [ 3.813463, 43.625295 ], [ 3.813475, 43.625282 ], [ 3.813489, 43.625286 ], [ 3.813505, 43.625287 ], [ 3.813519, 43.625284 ], [ 3.813535, 43.625279 ], [ 3.813545, 43.62527 ], [ 3.813543, 43.625252 ], [ 3.813539, 43.625238 ], [ 3.813537, 43.625228 ], [ 3.813548, 43.625223 ], [ 3.813557, 43.625231 ], [ 3.813557, 43.625244 ], [ 3.813554, 43.625253 ], [ 3.81355, 43.625263 ], [ 3.81355, 43.625273 ], [ 3.813539, 43.625279 ], [ 3.81353, 43.625271 ], [ 3.813519, 43.625258 ], [ 3.813495, 43.625252 ], [ 3.813488, 43.625267 ], [ 3.813502, 43.625271 ], [ 3.813517, 43.625268 ], [ 3.813532, 43.625266 ], [ 3.813545, 43.625265 ], [ 3.813541, 43.625277 ], [ 3.813532, 43.625287 ], [ 3.813525, 43.625296 ], [ 3.813514, 43.625301 ], [ 3.813503, 43.625295 ], [ 3.813491, 43.625291 ], [ 3.81346, 43.625301 ], [ 3.813441, 43.625318 ], [ 3.81343, 43.625332 ], [ 3.813423, 43.625343 ], [ 3.813436, 43.625344 ], [ 3.813438, 43.625334 ], [ 3.813442, 43.625319 ], [ 3.813457, 43.625325 ], [ 3.813469, 43.625321 ], [ 3.813481, 43.625319 ], [ 3.813495, 43.625317 ], [ 3.813477, 43.625317 ], [ 3.81346, 43.625318 ], [ 3.813445, 43.62532 ], [ 3.813421, 43.625321 ], [ 3.813396, 43.625323 ], [ 3.813372, 43.625329 ], [ 3.813356, 43.625334 ], [ 3.813358, 43.625324 ], [ 3.813359, 43.625313 ], [ 3.813382, 43.625303 ], [ 3.813407, 43.625293 ], [ 3.813415, 43.625278 ], [ 3.813422, 43.625268 ], [ 3.813423, 43.625252 ], [ 3.813433, 43.625232 ], [ 3.813446, 43.625219 ], [ 3.813444, 43.625202 ], [ 3.81344, 43.625189 ], [ 3.813445, 43.625179 ], [ 3.813467, 43.625166 ], [ 3.813473, 43.625155 ], [ 3.813474, 43.62513 ], [ 3.813476, 43.625118 ], [ 3.813472, 43.625104 ], [ 3.813528, 43.625098 ], [ 3.813533, 43.625082 ], [ 3.813539, 43.625059 ], [ 3.81354, 43.625038 ], [ 3.813543, 43.625026 ], [ 3.813529, 43.625008 ], [ 3.813537, 43.624997 ], [ 3.813555, 43.624982 ], [ 3.813573, 43.624969 ], [ 3.813578, 43.624953 ], [ 3.813571, 43.624934 ], [ 3.813561, 43.624918 ], [ 3.813551, 43.624912 ], [ 3.813544, 43.624894 ], [ 3.813556, 43.624875 ], [ 3.813565, 43.624867 ], [ 3.813563, 43.624851 ], [ 3.813556, 43.624831 ], [ 3.813549, 43.624815 ], [ 3.813523, 43.624786 ], [ 3.813505, 43.624766 ], [ 3.813488, 43.624751 ], [ 3.813472, 43.624735 ], [ 3.813458, 43.624725 ], [ 3.813445, 43.624716 ], [ 3.81344, 43.624704 ], [ 3.813436, 43.624682 ], [ 3.81343, 43.624673 ], [ 3.813421, 43.624663 ], [ 3.813423, 43.624646 ], [ 3.813424, 43.62463 ], [ 3.81342, 43.624621 ], [ 3.813428, 43.624609 ], [ 3.813424, 43.624586 ], [ 3.813416, 43.624566 ], [ 3.813414, 43.624556 ], [ 3.813418, 43.624546 ], [ 3.813422, 43.624516 ], [ 3.813435, 43.624511 ], [ 3.81344, 43.624498 ], [ 3.813432, 43.624488 ], [ 3.813445, 43.624491 ], [ 3.813434, 43.62448 ], [ 3.813431, 43.624465 ], [ 3.813438, 43.624477 ], [ 3.813438, 43.624488 ], [ 3.813438, 43.624499 ], [ 3.813439, 43.624509 ], [ 3.813437, 43.624519 ], [ 3.813434, 43.624537 ], [ 3.813438, 43.624546 ], [ 3.813438, 43.624564 ], [ 3.813436, 43.624577 ], [ 3.813433, 43.62459 ], [ 3.813439, 43.624605 ], [ 3.813432, 43.62463 ], [ 3.813429, 43.624654 ], [ 3.813402, 43.624704 ], [ 3.81339, 43.624733 ], [ 3.813378, 43.624749 ], [ 3.813372, 43.624768 ], [ 3.813359, 43.624789 ], [ 3.813347, 43.624781 ], [ 3.813347, 43.624797 ], [ 3.813345, 43.624807 ], [ 3.813342, 43.624821 ], [ 3.813345, 43.624837 ], [ 3.813348, 43.624847 ], [ 3.813348, 43.624856 ], [ 3.813348, 43.624866 ], [ 3.813351, 43.624876 ], [ 3.813352, 43.624888 ], [ 3.813352, 43.6249 ], [ 3.81335, 43.624914 ], [ 3.813346, 43.624933 ], [ 3.813345, 43.624945 ], [ 3.813346, 43.624966 ], [ 3.813345, 43.624985 ], [ 3.813343, 43.625004 ], [ 3.813345, 43.625017 ], [ 3.813341, 43.625038 ], [ 3.813337, 43.625061 ], [ 3.813338, 43.625083 ], [ 3.813341, 43.625097 ], [ 3.813342, 43.62511 ], [ 3.813342, 43.625129 ], [ 3.813342, 43.625146 ], [ 3.813343, 43.625158 ], [ 3.813342, 43.625169 ], [ 3.813343, 43.625191 ], [ 3.813344, 43.625202 ], [ 3.813343, 43.62522 ], [ 3.813343, 43.625231 ], [ 3.813343, 43.625242 ], [ 3.813347, 43.625256 ], [ 3.813353, 43.625275 ], [ 3.813354, 43.625296 ], [ 3.813357, 43.625316 ], [ 3.813359, 43.625342 ], [ 3.813372, 43.625342 ], [ 3.813389, 43.625332 ], [ 3.813391, 43.625323 ], [ 3.813358, 43.625329 ], [ 3.813311, 43.625328 ], [ 3.813287, 43.625298 ], [ 3.813283, 43.625253 ], [ 3.813289, 43.6252 ], [ 3.813295, 43.625137 ], [ 3.813298, 43.625072 ], [ 3.813297, 43.625017 ], [ 3.813291, 43.624951 ], [ 3.813293, 43.624885 ], [ 3.813299, 43.624813 ], [ 3.813309, 43.624736 ], [ 3.813311, 43.624681 ], [ 3.813303, 43.62463 ], [ 3.813314, 43.624574 ], [ 3.813331, 43.624517 ], [ 3.813341, 43.624462 ], [ 3.813347, 43.6244 ], [ 3.813349, 43.624345 ], [ 3.813349, 43.624292 ], [ 3.813343, 43.624242 ], [ 3.813341, 43.624186 ], [ 3.813337, 43.624126 ], [ 3.813335, 43.624067 ], [ 3.813328, 43.624006 ], [ 3.813326, 43.623957 ], [ 3.81333, 43.623909 ], [ 3.813334, 43.623867 ], [ 3.813338, 43.623832 ], [ 3.813342, 43.623823 ], [ 3.81334, 43.623799 ], [ 3.81334, 43.623772 ], [ 3.813343, 43.623748 ], [ 3.813349, 43.62374 ], [ 3.81333, 43.623733 ], [ 3.813342, 43.623739 ], [ 3.813356, 43.62374 ], [ 3.813377, 43.62374 ], [ 3.813395, 43.623744 ], [ 3.813415, 43.623745 ], [ 3.813429, 43.623749 ], [ 3.813443, 43.623756 ], [ 3.813449, 43.623767 ], [ 3.813449, 43.623777 ], [ 3.813453, 43.623793 ], [ 3.813433, 43.623813 ], [ 3.813426, 43.623823 ], [ 3.813402, 43.623829 ], [ 3.813387, 43.623825 ], [ 3.813404, 43.623832 ], [ 3.81355, 43.623782 ], [ 3.813563, 43.623796 ], [ 3.813577, 43.623805 ], [ 3.813551, 43.6238 ], [ 3.813567, 43.623792 ], [ 3.813577, 43.623783 ], [ 3.813534, 43.623773 ], [ 3.813522, 43.623757 ], [ 3.813509, 43.623741 ], [ 3.813509, 43.623728 ], [ 3.813488, 43.623719 ], [ 3.813473, 43.623699 ], [ 3.813465, 43.623691 ], [ 3.813473, 43.623682 ], [ 3.813476, 43.623673 ], [ 3.813459, 43.623644 ], [ 3.813453, 43.623614 ], [ 3.813424, 43.623587 ], [ 3.813389, 43.623577 ], [ 3.813381, 43.623568 ], [ 3.813405, 43.623575 ], [ 3.813409, 43.62356 ], [ 3.813464, 43.623582 ], [ 3.813487, 43.623596 ], [ 3.813508, 43.623612 ], [ 3.813494, 43.623623 ], [ 3.813456, 43.623621 ], [ 3.813422, 43.623618 ], [ 3.813669, 43.623652 ], [ 3.813615, 43.623699 ], [ 3.813606, 43.623716 ], [ 3.813586, 43.623725 ], [ 3.813568, 43.623748 ], [ 3.81353, 43.623784 ], [ 3.813489, 43.623802 ], [ 3.813466, 43.623833 ], [ 3.813454, 43.623845 ], [ 3.813468, 43.623814 ], [ 3.813481, 43.623805 ], [ 3.813475, 43.623814 ], [ 3.813478, 43.623804 ], [ 3.813473, 43.623814 ], [ 3.813458, 43.623799 ], [ 3.813458, 43.623785 ], [ 3.813463, 43.623764 ], [ 3.813456, 43.623741 ], [ 3.813465, 43.623714 ], [ 3.81344, 43.623678 ], [ 3.813415, 43.623654 ], [ 3.813419, 43.623638 ], [ 3.813423, 43.623629 ], [ 3.813391, 43.623618 ], [ 3.813363, 43.6236 ], [ 3.81332, 43.623583 ], [ 3.813288, 43.62357 ], [ 3.813264, 43.623559 ], [ 3.813232, 43.623552 ], [ 3.813211, 43.623534 ], [ 3.81321, 43.623507 ], [ 3.813231, 43.623473 ], [ 3.813238, 43.623438 ], [ 3.813249, 43.623402 ], [ 3.813243, 43.623367 ], [ 3.813268, 43.623356 ], [ 3.813283, 43.623356 ], [ 3.813275, 43.623324 ], [ 3.813281, 43.623306 ], [ 3.813293, 43.623302 ], [ 3.813308, 43.623309 ], [ 3.813314, 43.623334 ], [ 3.813326, 43.623339 ], [ 3.813337, 43.623334 ], [ 3.813342, 43.623303 ], [ 3.813361, 43.623289 ], [ 3.813415, 43.623308 ], [ 3.81345, 43.623337 ], [ 3.813424, 43.623328 ], [ 3.813447, 43.623303 ], [ 3.813473, 43.623313 ], [ 3.813494, 43.623319 ], [ 3.813494, 43.623296 ], [ 3.813496, 43.623282 ], [ 3.8135, 43.623265 ], [ 3.813499, 43.623247 ], [ 3.813497, 43.623201 ], [ 3.813491, 43.623183 ], [ 3.813506, 43.62316 ], [ 3.813498, 43.623146 ], [ 3.813492, 43.623133 ], [ 3.813482, 43.623117 ], [ 3.813474, 43.623103 ], [ 3.813468, 43.623088 ], [ 3.813462, 43.623077 ], [ 3.813391, 43.622984 ], [ 3.813404, 43.622972 ], [ 3.813405, 43.622961 ], [ 3.813428, 43.622985 ], [ 3.813436, 43.623035 ], [ 3.813442, 43.623058 ], [ 3.813445, 43.62307 ], [ 3.813442, 43.623082 ], [ 3.813448, 43.623073 ], [ 3.813461, 43.623089 ], [ 3.813444, 43.623062 ], [ 3.813436, 43.62305 ], [ 3.813427, 43.623031 ], [ 3.813428, 43.623015 ], [ 3.813424, 43.623005 ], [ 3.813435, 43.622995 ], [ 3.813439, 43.622981 ], [ 3.813445, 43.622971 ], [ 3.81344, 43.622954 ], [ 3.813422, 43.622973 ], [ 3.813448, 43.62299 ], [ 3.813453, 43.623006 ], [ 3.813454, 43.622991 ], [ 3.813447, 43.622976 ], [ 3.813448, 43.622963 ], [ 3.813478, 43.622956 ], [ 3.813537, 43.622954 ], [ 3.813574, 43.622947 ], [ 3.813592, 43.62294 ], [ 3.813628, 43.622933 ], [ 3.813639, 43.62294 ], [ 3.813619, 43.622947 ], [ 3.813636, 43.622945 ], [ 3.813657, 43.622958 ], [ 3.81367, 43.622978 ], [ 3.813693, 43.622974 ], [ 3.813709, 43.623003 ], [ 3.813691, 43.623046 ], [ 3.813676, 43.623025 ], [ 3.813646, 43.623029 ], [ 3.813601, 43.62306 ], [ 3.813578, 43.623081 ], [ 3.81358, 43.623099 ], [ 3.813509, 43.623122 ], [ 3.813415, 43.623197 ], [ 3.81339, 43.623256 ], [ 3.813355, 43.623313 ], [ 3.813339, 43.623361 ], [ 3.813369, 43.623407 ], [ 3.813388, 43.623439 ], [ 3.81338, 43.623451 ], [ 3.813342, 43.623447 ], [ 3.813267, 43.623443 ], [ 3.813168, 43.623456 ], [ 3.81307, 43.623467 ], [ 3.812974, 43.623479 ], [ 3.812886, 43.623488 ], [ 3.812809, 43.623495 ], [ 3.812745, 43.623504 ], [ 3.812704, 43.623509 ], [ 3.812683, 43.623502 ], [ 3.812687, 43.62348 ], [ 3.812703, 43.623464 ], [ 3.812709, 43.62345 ], [ 3.812724, 43.623432 ], [ 3.812744, 43.623412 ], [ 3.812785, 43.623407 ], [ 3.812833, 43.6234 ], [ 3.812862, 43.623372 ], [ 3.812866, 43.623343 ], [ 3.812865, 43.623329 ], [ 3.81287, 43.62332 ], [ 3.812873, 43.623329 ], [ 3.812857, 43.623324 ], [ 3.812847, 43.623329 ], [ 3.812847, 43.623493 ], [ 3.812873, 43.623532 ], [ 3.812889, 43.62352 ], [ 3.812909, 43.623506 ], [ 3.812945, 43.623489 ], [ 3.812969, 43.623477 ], [ 3.813, 43.623468 ], [ 3.813039, 43.623455 ], [ 3.813102, 43.623419 ], [ 3.813117, 43.623405 ], [ 3.813124, 43.623395 ], [ 3.813141, 43.623373 ], [ 3.813138, 43.623396 ], [ 3.813094, 43.623372 ], [ 3.813116, 43.623379 ], [ 3.813149, 43.623392 ], [ 3.813164, 43.623394 ], [ 3.813015, 43.623378 ], [ 3.813006, 43.623366 ], [ 3.813056, 43.623388 ], [ 3.813044, 43.623381 ], [ 3.813064, 43.623372 ], [ 3.81306, 43.623384 ], [ 3.813044, 43.623391 ], [ 3.813038, 43.623399 ], [ 3.813005, 43.623434 ], [ 3.812985, 43.623432 ], [ 3.812959, 43.623438 ], [ 3.812928, 43.623427 ], [ 3.812892, 43.623376 ], [ 3.812781, 43.623461 ], [ 3.81271, 43.623462 ], [ 3.812694, 43.623476 ], [ 3.812679, 43.623476 ], [ 3.812692, 43.623468 ], [ 3.812688, 43.62349 ], [ 3.812709, 43.623492 ], [ 3.812724, 43.623509 ], [ 3.812747, 43.623548 ], [ 3.812776, 43.623603 ], [ 3.812783, 43.623616 ], [ 3.812841, 43.623634 ], [ 3.81293, 43.623597 ], [ 3.81301, 43.623554 ], [ 3.813026, 43.623614 ], [ 3.81317, 43.623696 ], [ 3.813239, 43.62367 ], [ 3.813253, 43.623663 ], [ 3.813282, 43.623624 ], [ 3.813293, 43.623613 ], [ 3.813305, 43.623597 ], [ 3.813313, 43.623585 ], [ 3.813329, 43.623569 ], [ 3.813335, 43.623559 ], [ 3.81334, 43.62355 ], [ 3.813347, 43.623541 ], [ 3.813359, 43.623539 ], [ 3.813371, 43.623536 ], [ 3.813382, 43.623532 ], [ 3.813395, 43.623534 ], [ 3.813396, 43.623521 ], [ 3.81338, 43.623492 ], [ 3.813338, 43.623451 ], [ 3.813305, 43.62343 ], [ 3.813299, 43.623407 ], [ 3.813319, 43.62339 ], [ 3.813333, 43.623374 ], [ 3.813325, 43.623355 ], [ 3.813321, 43.623342 ], [ 3.813328, 43.623335 ], [ 3.813334, 43.623324 ], [ 3.81334, 43.62331 ], [ 3.813356, 43.623294 ], [ 3.813351, 43.623278 ], [ 3.813339, 43.623262 ], [ 3.813345, 43.623233 ], [ 3.813365, 43.623229 ], [ 3.81338, 43.623229 ], [ 3.813399, 43.623211 ], [ 3.813434, 43.623227 ], [ 3.813428, 43.623236 ], [ 3.813407, 43.623221 ], [ 3.813433, 43.623225 ], [ 3.813429, 43.623263 ], [ 3.813432, 43.623239 ], [ 3.813423, 43.623214 ], [ 3.813414, 43.623207 ], [ 3.813407, 43.623188 ], [ 3.813416, 43.623173 ], [ 3.813427, 43.623156 ], [ 3.813376, 43.623146 ], [ 3.813401, 43.623161 ], [ 3.813399, 43.623171 ], [ 3.813419, 43.623185 ], [ 3.813397, 43.62316 ], [ 3.813413, 43.623163 ], [ 3.813428, 43.623149 ], [ 3.813471, 43.623158 ], [ 3.813521, 43.623168 ], [ 3.813519, 43.623135 ], [ 3.813544, 43.623118 ], [ 3.81354, 43.623099 ], [ 3.813524, 43.623099 ], [ 3.813522, 43.623086 ], [ 3.813472, 43.623081 ], [ 3.813415, 43.623088 ], [ 3.813396, 43.623088 ], [ 3.813388, 43.623073 ], [ 3.813383, 43.623055 ], [ 3.813368, 43.62303 ], [ 3.813369, 43.623021 ], [ 3.813414, 43.623031 ], [ 3.813456, 43.623004 ], [ 3.813476, 43.623006 ], [ 3.813419, 43.622996 ], [ 3.813404, 43.622979 ], [ 3.813374, 43.622954 ], [ 3.813424, 43.622964 ], [ 3.813463, 43.622957 ], [ 3.813447, 43.62296 ], [ 3.813421, 43.622983 ], [ 3.813433, 43.623013 ], [ 3.813426, 43.623033 ], [ 3.813455, 43.623027 ], [ 3.813441, 43.623066 ], [ 3.813439, 43.623081 ], [ 3.813441, 43.623092 ], [ 3.813427, 43.623111 ], [ 3.813417, 43.623136 ], [ 3.813412, 43.623145 ], [ 3.813405, 43.623165 ], [ 3.813421, 43.623169 ], [ 3.813421, 43.623193 ], [ 3.81341, 43.62321 ], [ 3.813421, 43.623218 ], [ 3.813426, 43.623246 ], [ 3.813423, 43.623256 ], [ 3.813416, 43.623283 ], [ 3.813432, 43.623273 ], [ 3.813451, 43.623259 ], [ 3.813465, 43.623244 ], [ 3.813476, 43.623229 ], [ 3.813464, 43.623189 ], [ 3.813464, 43.623139 ], [ 3.813462, 43.623075 ], [ 3.81345, 43.623009 ], [ 3.813447, 43.622946 ], [ 3.813434, 43.622885 ], [ 3.813425, 43.622823 ], [ 3.813424, 43.62277 ], [ 3.813427, 43.62273 ], [ 3.813451, 43.62269 ], [ 3.813485, 43.622659 ], [ 3.813507, 43.62264 ], [ 3.813536, 43.622624 ], [ 3.813567, 43.622608 ], [ 3.813605, 43.622582 ], [ 3.813628, 43.622554 ], [ 3.813657, 43.622528 ], [ 3.813691, 43.622519 ], [ 3.813711, 43.622527 ], [ 3.813733, 43.622539 ], [ 3.813753, 43.622539 ], [ 3.813773, 43.622536 ], [ 3.813768, 43.622508 ], [ 3.813768, 43.622469 ], [ 3.813757, 43.622434 ], [ 3.813753, 43.622397 ], [ 3.813753, 43.622363 ], [ 3.813768, 43.622328 ], [ 3.813802, 43.622305 ], [ 3.813828, 43.6223 ], [ 3.81385, 43.622299 ], [ 3.813884, 43.622303 ], [ 3.813916, 43.622309 ], [ 3.813946, 43.622308 ], [ 3.814005, 43.6223 ], [ 3.814054, 43.622294 ], [ 3.814119, 43.622296 ], [ 3.814172, 43.622298 ], [ 3.814238, 43.622309 ], [ 3.814293, 43.622326 ], [ 3.814321, 43.622335 ], [ 3.81435, 43.622328 ], [ 3.81439, 43.622319 ], [ 3.81442, 43.622316 ], [ 3.814447, 43.622323 ], [ 3.814426, 43.622337 ], [ 3.814387, 43.622338 ], [ 3.81437, 43.622335 ], [ 3.814358, 43.622339 ], [ 3.814352, 43.622349 ], [ 3.814342, 43.622358 ], [ 3.814341, 43.622368 ], [ 3.814353, 43.622379 ], [ 3.814368, 43.622393 ], [ 3.814214, 43.622373 ], [ 3.814333, 43.62263 ], [ 3.814296, 43.62254 ], [ 3.814326, 43.622522 ], [ 3.814312, 43.622502 ], [ 3.814328, 43.622467 ], [ 3.814359, 43.622432 ], [ 3.814309, 43.622437 ], [ 3.814288, 43.622437 ], [ 3.814263, 43.622458 ], [ 3.814236, 43.62246 ], [ 3.814236, 43.622451 ], [ 3.814214, 43.622436 ], [ 3.814195, 43.622402 ], [ 3.814165, 43.62235 ], [ 3.814145, 43.622346 ], [ 3.814134, 43.622357 ], [ 3.814146, 43.622351 ], [ 3.814118, 43.622343 ], [ 3.814092, 43.622365 ], [ 3.814053, 43.622384 ], [ 3.814058, 43.622411 ], [ 3.81405, 43.622447 ], [ 3.814004, 43.622442 ], [ 3.814037, 43.622469 ], [ 3.814003, 43.622497 ], [ 3.81396, 43.622473 ], [ 3.813928, 43.622458 ], [ 3.813923, 43.622475 ], [ 3.813912, 43.62247 ], [ 3.813918, 43.622448 ], [ 3.813911, 43.62246 ], [ 3.813898, 43.622459 ], [ 3.813903, 43.622444 ], [ 3.813911, 43.622434 ], [ 3.813901, 43.622441 ], [ 3.813955, 43.622453 ], [ 3.813965, 43.622468 ], [ 3.813993, 43.622502 ], [ 3.814057, 43.622508 ], [ 3.814093, 43.622494 ], [ 3.814086, 43.62247 ], [ 3.814079, 43.622415 ], [ 3.814111, 43.622417 ], [ 3.814094, 43.62241 ], [ 3.814128, 43.622422 ], [ 3.814105, 43.622452 ], [ 3.814097, 43.622469 ], [ 3.814112, 43.622481 ], [ 3.814144, 43.622461 ], [ 3.814105, 43.622482 ], [ 3.814074, 43.622466 ], [ 3.813997, 43.622467 ], [ 3.813976, 43.622488 ], [ 3.814032, 43.622518 ], [ 3.813848, 43.62248 ], [ 3.813834, 43.622484 ], [ 3.813822, 43.622474 ], [ 3.813817, 43.622465 ], [ 3.813846, 43.622478 ], [ 3.81383, 43.622461 ], [ 3.813822, 43.622476 ], [ 3.813805, 43.622489 ], [ 3.813794, 43.622513 ], [ 3.813787, 43.622553 ], [ 3.813787, 43.622577 ], [ 3.813787, 43.622596 ], [ 3.813793, 43.622608 ], [ 3.813781, 43.622619 ], [ 3.813774, 43.62263 ], [ 3.813774, 43.622652 ], [ 3.813772, 43.622664 ], [ 3.813792, 43.622665 ], [ 3.813677, 43.622636 ], [ 3.813694, 43.622625 ], [ 3.81368, 43.622658 ], [ 3.813714, 43.622672 ], [ 3.813733, 43.622681 ], [ 3.813743, 43.622687 ], [ 3.81373, 43.622689 ], [ 3.813751, 43.622692 ], [ 3.813754, 43.62271 ], [ 3.813737, 43.622708 ], [ 3.813724, 43.622712 ], [ 3.813751, 43.622721 ], [ 3.813821, 43.622695 ], [ 3.81386, 43.622679 ], [ 3.813886, 43.622691 ], [ 3.813917, 43.622722 ], [ 3.813937, 43.622747 ], [ 3.813973, 43.622752 ], [ 3.81401, 43.622773 ], [ 3.814032, 43.622826 ], [ 3.814105, 43.622897 ], [ 3.814131, 43.622932 ], [ 3.814174, 43.622959 ], [ 3.814237, 43.622995 ], [ 3.814266, 43.622999 ], [ 3.81428, 43.622973 ], [ 3.814293, 43.62292 ], [ 3.814288, 43.622911 ], [ 3.814283, 43.6229 ], [ 3.814272, 43.622895 ], [ 3.814274, 43.62286 ], [ 3.814286, 43.62286 ], [ 3.814269, 43.622838 ], [ 3.814267, 43.622812 ], [ 3.814274, 43.6228 ], [ 3.81428, 43.622789 ], [ 3.814259, 43.622798 ], [ 3.814246, 43.622807 ], [ 3.814276, 43.622825 ], [ 3.814286, 43.622835 ], [ 3.814344, 43.622863 ], [ 3.81434, 43.622881 ], [ 3.814333, 43.622896 ], [ 3.814341, 43.622917 ], [ 3.814314, 43.622914 ], [ 3.81429, 43.622913 ], [ 3.814252, 43.622937 ], [ 3.814279, 43.622946 ], [ 3.81426, 43.622938 ], [ 3.814283, 43.622954 ], [ 3.814297, 43.622959 ], [ 3.81433, 43.622948 ], [ 3.814351, 43.622936 ], [ 3.814371, 43.622933 ], [ 3.814377, 43.62292 ], [ 3.814386, 43.622911 ], [ 3.814404, 43.622895 ], [ 3.814423, 43.622907 ], [ 3.814471, 43.622916 ], [ 3.814491, 43.622894 ], [ 3.814518, 43.622867 ], [ 3.81453, 43.622883 ], [ 3.814552, 43.622889 ], [ 3.814557, 43.6229 ], [ 3.814563, 43.622886 ], [ 3.814535, 43.622886 ], [ 3.814549, 43.622889 ], [ 3.814562, 43.622887 ], [ 3.814548, 43.622867 ], [ 3.814574, 43.622843 ], [ 3.814588, 43.622808 ], [ 3.814601, 43.622793 ], [ 3.8146, 43.62278 ], [ 3.814616, 43.62276 ], [ 3.814634, 43.622762 ], [ 3.814782, 43.622659 ], [ 3.814745, 43.622671 ], [ 3.814709, 43.622672 ], [ 3.81469, 43.622675 ], [ 3.814696, 43.62269 ], [ 3.81468, 43.622679 ], [ 3.814661, 43.622666 ], [ 3.814648, 43.622668 ], [ 3.814618, 43.62267 ], [ 3.814596, 43.622643 ], [ 3.81458, 43.622634 ], [ 3.814596, 43.622643 ], [ 3.814584, 43.622611 ], [ 3.8146, 43.622593 ], [ 3.814607, 43.62258 ], [ 3.81461, 43.622596 ], [ 3.814634, 43.622599 ], [ 3.814648, 43.622588 ], [ 3.814635, 43.622596 ], [ 3.814646, 43.622599 ], [ 3.814544, 43.622574 ], [ 3.814656, 43.622531 ], [ 3.814706, 43.622519 ], [ 3.814744, 43.622501 ], [ 3.814754, 43.622492 ], [ 3.814782, 43.622493 ], [ 3.814776, 43.622512 ], [ 3.814773, 43.622501 ], [ 3.81479, 43.622512 ], [ 3.814781, 43.62249 ], [ 3.814744, 43.622492 ], [ 3.81473, 43.622492 ], [ 3.814708, 43.622481 ], [ 3.814704, 43.622455 ], [ 3.814686, 43.622425 ], [ 3.814635, 43.622405 ], [ 3.81462, 43.622383 ], [ 3.814637, 43.622371 ], [ 3.81463, 43.622347 ], [ 3.814626, 43.622334 ], [ 3.814604, 43.622321 ], [ 3.814569, 43.622322 ], [ 3.814521, 43.622335 ], [ 3.814455, 43.622333 ], [ 3.814378, 43.622332 ], [ 3.814299, 43.622337 ], [ 3.814225, 43.622343 ], [ 3.814157, 43.622337 ], [ 3.814091, 43.622335 ], [ 3.814041, 43.62233 ], [ 3.814007, 43.622332 ], [ 3.813958, 43.622343 ], [ 3.813909, 43.622328 ], [ 3.813883, 43.622318 ], [ 3.813869, 43.622296 ], [ 3.813836, 43.622294 ], [ 3.813806, 43.622309 ], [ 3.813785, 43.622338 ], [ 3.813789, 43.622369 ], [ 3.813789, 43.622411 ], [ 3.813792, 43.622445 ], [ 3.813792, 43.622484 ], [ 3.813779, 43.622525 ], [ 3.813747, 43.622569 ], [ 3.813712, 43.622611 ], [ 3.813673, 43.622654 ], [ 3.813619, 43.622693 ], [ 3.81356, 43.622724 ], [ 3.813502, 43.622758 ], [ 3.813458, 43.622795 ], [ 3.813448, 43.622841 ], [ 3.813458, 43.622882 ], [ 3.813488, 43.622924 ], [ 3.813534, 43.622953 ], [ 3.813603, 43.622965 ], [ 3.813665, 43.622972 ], [ 3.813727, 43.622983 ], [ 3.813797, 43.622982 ], [ 3.813864, 43.62297 ], [ 3.813931, 43.622965 ], [ 3.814015, 43.62296 ], [ 3.8141, 43.622963 ], [ 3.814182, 43.622966 ], [ 3.814245, 43.622969 ], [ 3.814302, 43.622971 ], [ 3.814369, 43.622973 ], [ 3.814419, 43.622976 ], [ 3.814465, 43.622979 ], [ 3.814503, 43.622982 ], [ 3.814541, 43.62298 ], [ 3.814575, 43.622977 ], [ 3.814603, 43.622979 ], [ 3.814637, 43.622971 ], [ 3.814672, 43.622965 ], [ 3.814699, 43.62296 ], [ 3.814751, 43.622948 ], [ 3.8148, 43.62293 ], [ 3.814882, 43.622916 ], [ 3.814963, 43.622915 ], [ 3.815023, 43.622909 ], [ 3.81508, 43.622893 ], [ 3.815113, 43.622886 ], [ 3.81514, 43.622897 ], [ 3.815151, 43.622902 ], [ 3.81516, 43.622917 ], [ 3.815197, 43.622946 ], [ 3.815218, 43.622974 ], [ 3.815229, 43.62299 ], [ 3.815245, 43.622992 ], [ 3.815261, 43.623003 ], [ 3.815269, 43.62302 ], [ 3.815274, 43.623032 ], [ 3.815177, 43.623074 ], [ 3.815201, 43.623058 ], [ 3.81523, 43.623047 ], [ 3.815254, 43.623038 ], [ 3.815267, 43.623037 ], [ 3.815279, 43.623043 ], [ 3.815284, 43.623055 ], [ 3.81529, 43.623073 ], [ 3.815299, 43.623088 ], [ 3.815309, 43.623093 ], [ 3.815319, 43.6231 ], [ 3.814907, 43.623149 ], [ 3.81492, 43.623094 ], [ 3.814941, 43.623067 ], [ 3.814906, 43.623061 ], [ 3.814918, 43.623052 ], [ 3.81497, 43.623048 ], [ 3.815021, 43.623049 ], [ 3.81505, 43.623039 ], [ 3.815077, 43.623033 ], [ 3.815107, 43.623028 ], [ 3.815136, 43.623022 ], [ 3.815166, 43.623016 ], [ 3.815179, 43.623016 ], [ 3.815197, 43.623018 ], [ 3.815199, 43.623027 ], [ 3.815195, 43.623039 ], [ 3.815182, 43.623067 ], [ 3.815186, 43.6231 ], [ 3.815186, 43.623139 ], [ 3.815189, 43.623186 ], [ 3.815186, 43.623225 ], [ 3.81519, 43.623271 ], [ 3.815194, 43.623299 ], [ 3.815202, 43.623313 ], [ 3.815208, 43.623329 ], [ 3.815218, 43.62334 ], [ 3.815215, 43.623327 ], [ 3.815207, 43.623337 ], [ 3.815207, 43.623347 ], [ 3.815208, 43.62336 ], [ 3.815195, 43.623374 ], [ 3.815184, 43.623388 ], [ 3.815177, 43.623396 ], [ 3.81518, 43.623407 ], [ 3.815163, 43.623405 ], [ 3.81517, 43.623392 ], [ 3.815162, 43.623376 ], [ 3.815022, 43.623294 ], [ 3.815039, 43.623304 ], [ 3.815048, 43.623314 ], [ 3.815077, 43.623306 ], [ 3.815117, 43.623327 ], [ 3.815176, 43.62331 ], [ 3.815198, 43.623335 ], [ 3.81521, 43.623339 ], [ 3.815203, 43.623355 ], [ 3.815225, 43.623348 ], [ 3.81524, 43.623353 ], [ 3.815255, 43.623341 ], [ 3.815265, 43.623334 ], [ 3.815287, 43.623334 ], [ 3.815265, 43.623334 ], [ 3.815221, 43.623332 ], [ 3.815159, 43.623324 ], [ 3.815096, 43.623323 ], [ 3.815051, 43.623317 ], [ 3.815025, 43.623313 ], [ 3.814971, 43.623318 ], [ 3.814956, 43.623317 ], [ 3.81499, 43.623315 ], [ 3.814987, 43.623324 ], [ 3.815002, 43.623331 ], [ 3.815021, 43.623328 ], [ 3.814995, 43.623332 ], [ 3.814536, 43.623489 ], [ 3.814642, 43.623479 ], [ 3.814673, 43.623471 ], [ 3.814678, 43.623456 ], [ 3.814686, 43.623438 ], [ 3.81468, 43.623429 ], [ 3.814698, 43.623429 ], [ 3.814684, 43.62343 ], [ 3.814707, 43.623414 ], [ 3.814737, 43.623418 ], [ 3.814762, 43.62341 ], [ 3.814789, 43.623395 ], [ 3.814785, 43.623404 ], [ 3.814969, 43.623257 ], [ 3.815045, 43.623291 ], [ 3.815053, 43.623282 ], [ 3.815042, 43.623256 ], [ 3.815033, 43.623249 ], [ 3.815012, 43.623251 ], [ 3.81499, 43.623247 ], [ 3.814968, 43.623256 ], [ 3.814948, 43.623262 ], [ 3.814934, 43.623259 ], [ 3.81493, 43.623269 ], [ 3.814924, 43.623252 ], [ 3.814914, 43.623245 ], [ 3.814916, 43.623229 ], [ 3.814921, 43.623221 ], [ 3.814929, 43.623213 ] ] ] } }
]
}
