{
"type": "FeatureCollection",
"name": "10_11",
"crs": { "type": "name", "properties": { "name": "urn:ogc:def:crs:OGC:1.3:CRS84" } },
"features": [
{ "type": "Feature", "properties": { "Name": "9 mars 2020 10:43:44", "description": "", "timestamp": null, "begin": "2020\/03\/09 09:43:44", "end": "2020\/03\/09 14:49:26", "altitudeMode": null, "tessellate": -1, "extrude": 0, "visibility": -1, "drawOrder": null, "icon": null }, "geometry": { "type": "MultiLineString", "coordinates": [ [ [ -0.573994, 44.810796 ], [ -0.574035, 44.810887 ], [ -0.574099, 44.810987 ], [ -0.57402, 44.811133 ], [ -0.57409, 44.811052 ], [ -0.574125, 44.811158 ], [ -0.574088, 44.811268 ], [ -0.574069, 44.811358 ], [ -0.573989, 44.811444 ], [ -0.574008, 44.811552 ], [ -0.574025, 44.811646 ], [ -0.574024, 44.811739 ], [ -0.573986, 44.811828 ], [ -0.573948, 44.811935 ], [ -0.573908, 44.812021 ], [ -0.573868, 44.812133 ], [ -0.573874, 44.812228 ], [ -0.57383, 44.812328 ], [ -0.573797, 44.812423 ], [ -0.573747, 44.812518 ], [ -0.573732, 44.812628 ], [ -0.573697, 44.81272 ], [ -0.573649, 44.812804 ], [ -0.573605, 44.812904 ], [ -0.573579, 44.813025 ], [ -0.573588, 44.813128 ], [ -0.57371, 44.813062 ], [ -0.573582, 44.813055 ], [ -0.57347, 44.813112 ], [ -0.573341, 44.813124 ], [ -0.573417, 44.813044 ], [ -0.573508, 44.812973 ], [ -0.573547, 44.812879 ], [ -0.573516, 44.81274 ], [ -0.573391, 44.81293 ], [ -0.573382, 44.813021 ], [ -0.573462, 44.813094 ], [ -0.573369, 44.81316 ], [ -0.573434, 44.81324 ], [ -0.573526, 44.813308 ], [ -0.573407, 44.813347 ], [ -0.573296, 44.813411 ], [ -0.573179, 44.813452 ], [ -0.573096, 44.813528 ], [ -0.573078, 44.81363 ], [ -0.573057, 44.813725 ], [ -0.573034, 44.813834 ], [ -0.572973, 44.813917 ], [ -0.572981, 44.814012 ], [ -0.572972, 44.814114 ], [ -0.572965, 44.814209 ], [ -0.572944, 44.814302 ], [ -0.572795, 44.814301 ], [ -0.572657, 44.814274 ], [ -0.572778, 44.814356 ], [ -0.572818, 44.814462 ], [ -0.572817, 44.814563 ], [ -0.572808, 44.814656 ], [ -0.57282, 44.814752 ], [ -0.572754, 44.814862 ], [ -0.572651, 44.814948 ], [ -0.572679, 44.815049 ], [ -0.572716, 44.815156 ], [ -0.572717, 44.815248 ], [ -0.57279, 44.815329 ], [ -0.572665, 44.815306 ], [ -0.572535, 44.815357 ], [ -0.572483, 44.815448 ], [ -0.572421, 44.815538 ], [ -0.572353, 44.815631 ], [ -0.572305, 44.815718 ], [ -0.572291, 44.815817 ], [ -0.572267, 44.815907 ], [ -0.572192, 44.815993 ], [ -0.572308, 44.816038 ], [ -0.572425, 44.816095 ], [ -0.572313, 44.816166 ], [ -0.572288, 44.816255 ], [ -0.572292, 44.816369 ], [ -0.572318, 44.816466 ], [ -0.572302, 44.81656 ], [ -0.57228, 44.816658 ], [ -0.572195, 44.816744 ], [ -0.57224, 44.816849 ], [ -0.572251, 44.816941 ], [ -0.572261, 44.817047 ], [ -0.572101, 44.817287 ], [ -0.572193, 44.81735 ], [ -0.572248, 44.817434 ], [ -0.572276, 44.817523 ], [ -0.572343, 44.817609 ], [ -0.572367, 44.817715 ], [ -0.572388, 44.817806 ], [ -0.5724, 44.817908 ], [ -0.572453, 44.818005 ], [ -0.572471, 44.818099 ], [ -0.572367, 44.818205 ], [ -0.572218, 44.818199 ], [ -0.572089, 44.818209 ], [ -0.572225, 44.818198 ], [ -0.572316, 44.818455 ], [ -0.572356, 44.818573 ], [ -0.572402, 44.818671 ], [ -0.57246, 44.81877 ], [ -0.572514, 44.81886 ], [ -0.572491, 44.818965 ], [ -0.572404, 44.819041 ], [ -0.572316, 44.819109 ], [ -0.572307, 44.819236 ], [ -0.572282, 44.819364 ], [ -0.572282, 44.819474 ], [ -0.572293, 44.819566 ], [ -0.572246, 44.819658 ], [ -0.572111, 44.819689 ], [ -0.572118, 44.81978 ], [ -0.572316, 44.81978 ], [ -0.572443, 44.819777 ], [ -0.572491, 44.819891 ], [ -0.572496, 44.819989 ], [ -0.572533, 44.820076 ], [ -0.572581, 44.82016 ], [ -0.572559, 44.820262 ], [ -0.57253, 44.820354 ], [ -0.572497, 44.820464 ], [ -0.572363, 44.820473 ], [ -0.57241, 44.820562 ], [ -0.572369, 44.820656 ], [ -0.572362, 44.820787 ], [ -0.57239, 44.820885 ], [ -0.572404, 44.82098 ], [ -0.572317, 44.821049 ], [ -0.572414, 44.821128 ], [ -0.572483, 44.821219 ], [ -0.572361, 44.821274 ], [ -0.572499, 44.821289 ], [ -0.572374, 44.821303 ], [ -0.572369, 44.821397 ], [ -0.572442, 44.821488 ], [ -0.572343, 44.821546 ], [ -0.572231, 44.821591 ], [ -0.572331, 44.821521 ], [ -0.572462, 44.821542 ], [ -0.572511, 44.821638 ], [ -0.572638, 44.821666 ], [ -0.57226, 44.821661 ], [ -0.57212, 44.821649 ], [ -0.57225, 44.821647 ], [ -0.572384, 44.821656 ], [ -0.572264, 44.821624 ], [ -0.572536, 44.821871 ], [ -0.572498, 44.821983 ], [ -0.572507, 44.822082 ], [ -0.572549, 44.82218 ], [ -0.572581, 44.822281 ], [ -0.572558, 44.822371 ], [ -0.572568, 44.822476 ], [ -0.57249, 44.822358 ], [ -0.572594, 44.822494 ], [ -0.572517, 44.822577 ], [ -0.572489, 44.82267 ], [ -0.572578, 44.822747 ], [ -0.572729, 44.822762 ], [ -0.572631, 44.822823 ], [ -0.572578, 44.822729 ], [ -0.572523, 44.822816 ], [ -0.572398, 44.82284 ], [ -0.572376, 44.822944 ], [ -0.572405, 44.823033 ], [ -0.572279, 44.823047 ], [ -0.572333, 44.822964 ], [ -0.572427, 44.822883 ], [ -0.572515, 44.822799 ], [ -0.572582, 44.822708 ], [ -0.57244, 44.822868 ], [ -0.572537, 44.822786 ], [ -0.57248, 44.822868 ], [ -0.572411, 44.822952 ], [ -0.572563, 44.823134 ], [ -0.572596, 44.823226 ], [ -0.572572, 44.82332 ], [ -0.572586, 44.823414 ], [ -0.572628, 44.823501 ], [ -0.572621, 44.823591 ], [ -0.572561, 44.823679 ], [ -0.572542, 44.823787 ], [ -0.572562, 44.823878 ], [ -0.572544, 44.823974 ], [ -0.572582, 44.824064 ], [ -0.572493, 44.824333 ], [ -0.572494, 44.824433 ], [ -0.572514, 44.824531 ], [ -0.572538, 44.824634 ], [ -0.572515, 44.824722 ], [ -0.572561, 44.824816 ], [ -0.572696, 44.82481 ], [ -0.572613, 44.824884 ], [ -0.572742, 44.824899 ], [ -0.572882, 44.824908 ], [ -0.573013, 44.824939 ], [ -0.573155, 44.824917 ], [ -0.573294, 44.824925 ], [ -0.573424, 44.824932 ], [ -0.573565, 44.824945 ], [ -0.57371, 44.824967 ], [ -0.573836, 44.824934 ], [ -0.573975, 44.82492 ], [ -0.574094, 44.824884 ], [ -0.574217, 44.82485 ], [ -0.574105, 44.824666 ], [ -0.574175, 44.824753 ], [ -0.574284, 44.824799 ], [ -0.574405, 44.824835 ], [ -0.574535, 44.824869 ], [ -0.574585, 44.824956 ], [ -0.574492, 44.825027 ], [ -0.574444, 44.824689 ], [ -0.574473, 44.824777 ], [ -0.574604, 44.824787 ], [ -0.574735, 44.8248 ], [ -0.575071, 44.824845 ], [ -0.575035, 44.824675 ], [ -0.57485, 44.82466 ], [ -0.574715, 44.824687 ], [ -0.574836, 44.824726 ], [ -0.574754, 44.824801 ], [ -0.57461, 44.824804 ], [ -0.574457, 44.824805 ], [ -0.574322, 44.824792 ], [ -0.574191, 44.824784 ], [ -0.574064, 44.824827 ], [ -0.573937, 44.82486 ], [ -0.573795, 44.824875 ], [ -0.573653, 44.82488 ], [ -0.573521, 44.824891 ], [ -0.573384, 44.82491 ], [ -0.573252, 44.824935 ], [ -0.573124, 44.824946 ], [ -0.573, 44.825005 ], [ -0.572854, 44.824986 ], [ -0.57273, 44.824936 ], [ -0.572615, 44.824985 ], [ -0.572512, 44.825044 ], [ -0.572527, 44.825135 ], [ -0.57253, 44.825242 ], [ -0.572524, 44.825332 ], [ -0.572589, 44.825495 ], [ -0.572757, 44.825528 ], [ -0.572865, 44.825597 ], [ -0.572813, 44.82569 ], [ -0.572708, 44.825745 ], [ -0.572931, 44.825961 ], [ -0.572649, 44.825815 ], [ -0.572605, 44.825904 ], [ -0.572508, 44.825982 ], [ -0.57258, 44.826156 ], [ -0.572439, 44.826145 ], [ -0.572517, 44.826223 ], [ -0.572561, 44.82631 ], [ -0.572454, 44.826374 ], [ -0.572422, 44.826483 ], [ -0.572394, 44.826573 ], [ -0.572565, 44.826779 ], [ -0.572371, 44.826567 ], [ -0.572415, 44.826658 ], [ -0.572395, 44.826757 ], [ -0.572389, 44.826862 ], [ -0.572442, 44.826946 ], [ -0.572456, 44.827036 ], [ -0.572239, 44.827126 ] ], [ [ -0.573883, 44.810713 ], [ -0.573877, 44.81081 ], [ -0.57386, 44.810908 ], [ -0.57397, 44.810962 ], [ -0.573983, 44.811053 ], [ -0.573942, 44.811153 ], [ -0.573871, 44.811236 ], [ -0.573785, 44.811317 ], [ -0.573786, 44.811422 ], [ -0.573819, 44.811514 ], [ -0.573828, 44.811607 ], [ -0.573767, 44.811686 ], [ -0.573847, 44.811761 ], [ -0.573825, 44.811858 ], [ -0.573743, 44.811947 ], [ -0.573675, 44.81203 ], [ -0.573799, 44.81201 ], [ -0.573752, 44.812115 ], [ -0.57367, 44.812199 ], [ -0.573705, 44.812299 ], [ -0.57367, 44.812405 ], [ -0.573584, 44.812483 ], [ -0.573521, 44.81257 ], [ -0.573493, 44.812667 ], [ -0.57346, 44.812766 ], [ -0.573422, 44.812853 ], [ -0.573376, 44.812938 ], [ -0.573397, 44.813026 ], [ -0.57336, 44.813124 ], [ -0.573268, 44.813187 ], [ -0.573211, 44.813275 ], [ -0.573142, 44.813352 ], [ -0.573103, 44.813454 ], [ -0.573008, 44.813532 ], [ -0.572966, 44.81362 ], [ -0.572986, 44.813709 ], [ -0.572907, 44.813805 ], [ -0.572862, 44.813898 ], [ -0.572808, 44.813997 ], [ -0.572753, 44.814082 ], [ -0.572713, 44.814173 ], [ -0.572692, 44.814271 ], [ -0.57267, 44.814368 ], [ -0.572621, 44.814457 ], [ -0.572589, 44.814555 ], [ -0.572556, 44.81465 ], [ -0.572511, 44.814736 ], [ -0.572492, 44.814827 ], [ -0.572583, 44.8149 ], [ -0.572531, 44.815007 ], [ -0.57264, 44.815072 ], [ -0.572674, 44.815169 ], [ -0.572599, 44.815266 ], [ -0.572569, 44.81536 ], [ -0.572602, 44.815459 ], [ -0.572575, 44.815351 ], [ -0.572559, 44.815459 ], [ -0.572592, 44.815553 ], [ -0.572583, 44.815645 ], [ -0.57263, 44.815733 ], [ -0.572623, 44.815824 ], [ -0.572519, 44.815881 ], [ -0.572415, 44.815941 ], [ -0.572342, 44.816043 ], [ -0.57231, 44.816155 ], [ -0.572315, 44.816261 ], [ -0.572354, 44.816375 ], [ -0.572248, 44.81644 ], [ -0.572198, 44.816529 ], [ -0.572191, 44.816637 ], [ -0.572167, 44.816741 ], [ -0.572157, 44.816835 ], [ -0.572281, 44.816859 ], [ -0.572304, 44.816961 ], [ -0.572269, 44.817072 ], [ -0.572246, 44.817183 ], [ -0.572238, 44.817283 ], [ -0.572196, 44.817379 ], [ -0.572152, 44.817469 ], [ -0.572134, 44.817563 ], [ -0.572191, 44.817668 ], [ -0.572234, 44.817771 ], [ -0.572245, 44.817862 ], [ -0.572242, 44.817957 ], [ -0.572208, 44.818053 ], [ -0.572251, 44.818163 ], [ -0.572265, 44.818253 ], [ -0.572325, 44.818341 ], [ -0.572342, 44.818431 ], [ -0.572392, 44.818524 ], [ -0.572338, 44.818618 ], [ -0.572282, 44.818721 ], [ -0.572261, 44.818826 ], [ -0.572333, 44.818904 ], [ -0.572333, 44.819006 ], [ -0.572401, 44.819086 ], [ -0.572294, 44.819135 ], [ -0.572305, 44.819233 ], [ -0.572343, 44.819321 ], [ -0.572244, 44.81938 ], [ -0.572204, 44.819477 ], [ -0.572167, 44.819571 ], [ -0.572133, 44.819659 ], [ -0.572063, 44.819744 ], [ -0.572026, 44.819831 ], [ -0.571922, 44.819897 ], [ -0.571939, 44.819992 ], [ -0.571951, 44.820088 ], [ -0.572002, 44.820174 ], [ -0.571893, 44.820236 ], [ -0.571878, 44.820326 ], [ -0.571933, 44.820421 ], [ -0.572061, 44.820447 ], [ -0.572144, 44.820517 ], [ -0.572266, 44.82054 ], [ -0.572367, 44.820597 ], [ -0.572312, 44.820687 ], [ -0.57238, 44.820765 ], [ -0.572411, 44.820854 ], [ -0.572436, 44.820957 ], [ -0.572424, 44.821047 ], [ -0.572392, 44.821137 ], [ -0.572389, 44.821228 ], [ -0.572401, 44.82133 ], [ -0.572299, 44.821384 ], [ -0.572377, 44.821459 ], [ -0.572343, 44.821552 ], [ -0.572424, 44.821628 ], [ -0.572378, 44.821735 ], [ -0.572454, 44.821816 ], [ -0.572496, 44.821904 ], [ -0.572443, 44.821996 ], [ -0.572421, 44.822088 ], [ -0.572416, 44.822203 ], [ -0.572414, 44.822293 ], [ -0.572304, 44.822348 ], [ -0.572238, 44.822426 ], [ -0.572378, 44.822432 ], [ -0.572488, 44.822486 ], [ -0.572402, 44.822555 ], [ -0.572419, 44.822649 ], [ -0.572385, 44.822747 ], [ -0.572349, 44.822854 ], [ -0.572334, 44.822948 ], [ -0.572462, 44.822937 ], [ -0.572523, 44.823043 ], [ -0.572564, 44.823136 ], [ -0.57254, 44.823225 ], [ -0.572489, 44.823307 ], [ -0.57253, 44.823397 ], [ -0.572558, 44.823487 ], [ -0.572564, 44.823579 ], [ -0.57249, 44.823662 ], [ -0.572506, 44.823753 ], [ -0.572535, 44.823866 ], [ -0.572527, 44.823961 ], [ -0.572559, 44.824058 ], [ -0.57257, 44.824151 ], [ -0.572682, 44.824206 ], [ -0.572532, 44.82421 ], [ -0.572655, 44.824235 ], [ -0.572509, 44.824205 ], [ -0.572439, 44.824129 ], [ -0.57238, 44.824285 ], [ -0.572263, 44.82425 ], [ -0.572143, 44.824196 ], [ -0.572029, 44.824148 ], [ -0.572151, 44.824112 ], [ -0.57229, 44.824188 ], [ -0.572423, 44.824203 ], [ -0.57251, 44.824284 ], [ -0.572599, 44.824365 ], [ -0.572603, 44.824459 ], [ -0.572623, 44.824549 ], [ -0.572607, 44.824641 ], [ -0.572591, 44.824735 ], [ -0.572598, 44.824839 ], [ -0.572634, 44.82494 ], [ -0.572646, 44.825034 ], [ -0.572592, 44.825128 ], [ -0.572635, 44.825225 ], [ -0.572667, 44.825327 ], [ -0.572592, 44.825413 ], [ -0.572547, 44.825506 ], [ -0.572539, 44.825605 ], [ -0.572571, 44.825694 ], [ -0.572612, 44.825783 ], [ -0.572591, 44.825895 ], [ -0.57252, 44.826001 ], [ -0.572433, 44.826069 ], [ -0.57251, 44.826141 ], [ -0.572357, 44.826158 ], [ -0.572216, 44.826159 ], [ -0.572088, 44.826157 ], [ -0.571961, 44.826159 ], [ -0.571841, 44.826187 ], [ -0.571986, 44.826199 ], [ -0.572117, 44.826191 ], [ -0.572253, 44.826192 ], [ -0.572388, 44.826206 ], [ -0.572513, 44.826237 ], [ -0.572588, 44.82633 ], [ -0.572637, 44.82642 ], [ -0.572594, 44.826505 ], [ -0.572518, 44.82659 ], [ -0.572501, 44.826679 ], [ -0.572557, 44.826762 ], [ -0.572452, 44.826815 ], [ -0.572574, 44.82685 ], [ -0.572596, 44.826944 ], [ -0.572494, 44.827028 ], [ -0.572395, 44.827085 ], [ -0.572301, 44.827145 ], [ -0.572188, 44.827082 ], [ -0.572066, 44.827124 ], [ -0.571963, 44.827068 ], [ -0.57176, 44.827112 ], [ -0.571863, 44.827171 ], [ -0.571884, 44.82704 ], [ -0.571741, 44.827066 ], [ -0.571572, 44.826891 ], [ -0.571714, 44.827037 ], [ -0.571595, 44.827073 ], [ -0.571502, 44.827006 ], [ -0.57137, 44.826993 ], [ -0.571246, 44.826971 ], [ -0.571167, 44.827041 ], [ -0.57108, 44.827109 ], [ -0.57093, 44.827098 ], [ -0.571058, 44.827092 ], [ -0.570937, 44.827055 ], [ -0.570807, 44.827051 ], [ -0.570678, 44.827072 ], [ -0.570805, 44.827104 ], [ -0.570787, 44.827211 ], [ -0.570667, 44.827164 ], [ -0.570734, 44.827075 ], [ -0.570794, 44.826947 ], [ -0.570785, 44.827075 ], [ -0.570714, 44.82693 ], [ -0.57063, 44.827123 ], [ -0.570581, 44.827034 ], [ -0.570574, 44.826932 ], [ -0.5706, 44.827022 ], [ -0.570576, 44.826856 ], [ -0.570412, 44.827122 ], [ -0.570383, 44.826941 ], [ -0.570374, 44.826841 ], [ -0.570398, 44.82694 ], [ -0.570418, 44.827029 ], [ -0.570292, 44.827031 ], [ -0.570165, 44.827014 ], [ -0.570111, 44.826933 ], [ -0.570016, 44.827004 ], [ -0.569941, 44.826914 ], [ -0.569848, 44.826849 ], [ -0.569778, 44.826932 ], [ -0.569798, 44.82684 ], [ -0.569967, 44.826875 ], [ -0.569857, 44.82683 ], [ -0.569728, 44.826837 ], [ -0.570356, 44.826766 ], [ -0.570201, 44.826805 ], [ -0.570108, 44.826889 ], [ -0.569762, 44.826968 ], [ -0.569645, 44.826916 ], [ -0.569513, 44.826903 ], [ -0.569379, 44.826926 ], [ -0.569308, 44.826843 ], [ -0.569238, 44.826768 ], [ -0.56933, 44.826691 ], [ -0.569468, 44.826621 ], [ -0.569626, 44.826615 ], [ -0.569755, 44.826588 ], [ -0.569903, 44.826598 ], [ -0.570025, 44.826572 ], [ -0.570079, 44.826658 ], [ -0.570155, 44.826572 ], [ -0.570258, 44.826626 ], [ -0.570441, 44.826746 ], [ -0.570244, 44.826718 ], [ -0.570242, 44.826815 ], [ -0.570291, 44.826906 ], [ -0.570322, 44.827 ], [ -0.570287, 44.827089 ], [ -0.570181, 44.82714 ], [ -0.570226, 44.827242 ], [ -0.570142, 44.827318 ], [ -0.570202, 44.827548 ], [ -0.570239, 44.827462 ], [ -0.570162, 44.827548 ], [ -0.570144, 44.827641 ], [ -0.570278, 44.827637 ], [ -0.570184, 44.827709 ], [ -0.570179, 44.827612 ], [ -0.570121, 44.827699 ], [ -0.57027, 44.827723 ], [ -0.570024, 44.827797 ], [ -0.570135, 44.827848 ], [ -0.569991, 44.827822 ], [ -0.569877, 44.827875 ], [ -0.570289, 44.827828 ], [ -0.570161, 44.82786 ], [ -0.570197, 44.827947 ], [ -0.570236, 44.828038 ], [ -0.570119, 44.828097 ], [ -0.570037, 44.828321 ], [ -0.570176, 44.828368 ], [ -0.570188, 44.82827 ], [ -0.570059, 44.828282 ], [ -0.570042, 44.828398 ], [ -0.570066, 44.828501 ], [ -0.570085, 44.828606 ], [ -0.570028, 44.828695 ], [ -0.569918, 44.82875 ], [ -0.570015, 44.828677 ], [ -0.570092, 44.828567 ], [ -0.570066, 44.828675 ], [ -0.570041, 44.828767 ], [ -0.569987, 44.828852 ], [ -0.569997, 44.828951 ], [ -0.570126, 44.828992 ], [ -0.570034, 44.829072 ], [ -0.569895, 44.829069 ], [ -0.569875, 44.82898 ], [ -0.569792, 44.828907 ], [ -0.569784, 44.829008 ], [ -0.569646, 44.829031 ], [ -0.569507, 44.829014 ], [ -0.56958, 44.828931 ], [ -0.56963, 44.828838 ], [ -0.569657, 44.828749 ], [ -0.569536, 44.828799 ], [ -0.569554, 44.828892 ], [ -0.569478, 44.828974 ], [ -0.569431, 44.829069 ], [ -0.569379, 44.829153 ], [ -0.569274, 44.829224 ], [ -0.569383, 44.829282 ], [ -0.569523, 44.829293 ], [ -0.569583, 44.829198 ], [ -0.569726, 44.829229 ], [ -0.569849, 44.829265 ], [ -0.569986, 44.829278 ], [ -0.570118, 44.829285 ], [ -0.57026, 44.829256 ], [ -0.570391, 44.829296 ], [ -0.570347, 44.829382 ], [ -0.570267, 44.829478 ], [ -0.570218, 44.829563 ], [ -0.570261, 44.829652 ], [ -0.570263, 44.829559 ], [ -0.570299, 44.829472 ], [ -0.570307, 44.829379 ], [ -0.570408, 44.829317 ], [ -0.570533, 44.829274 ], [ -0.570397, 44.829329 ], [ -0.57026, 44.829349 ], [ -0.570126, 44.829344 ], [ -0.570014, 44.829302 ], [ -0.569889, 44.829251 ], [ -0.569773, 44.829297 ], [ -0.569669, 44.829239 ], [ -0.56954, 44.829204 ], [ -0.569414, 44.829205 ], [ -0.569288, 44.829218 ], [ -0.56916, 44.829225 ], [ -0.569032, 44.829241 ], [ -0.568906, 44.829258 ], [ -0.568775, 44.829295 ], [ -0.5687, 44.829207 ], [ -0.56857, 44.829185 ], [ -0.568465, 44.829255 ], [ -0.568354, 44.829185 ], [ -0.568375, 44.82908 ], [ -0.568433, 44.828992 ], [ -0.568473, 44.828903 ], [ -0.568503, 44.828813 ], [ -0.568529, 44.828724 ], [ -0.568551, 44.828629 ], [ -0.568576, 44.828527 ], [ -0.568646, 44.828443 ], [ -0.568708, 44.828352 ], [ -0.568688, 44.828245 ], [ -0.56879, 44.828171 ], [ -0.568869, 44.828096 ], [ -0.568926, 44.828002 ], [ -0.568944, 44.827907 ], [ -0.568964, 44.827815 ], [ -0.568959, 44.827723 ], [ -0.568983, 44.827619 ], [ -0.568976, 44.827518 ], [ -0.568971, 44.827419 ], [ -0.569016, 44.827334 ], [ -0.568999, 44.827235 ], [ -0.569002, 44.827134 ], [ -0.569074, 44.827048 ], [ -0.569115, 44.826957 ], [ -0.569149, 44.826868 ], [ -0.56924, 44.826932 ], [ -0.569308, 44.826848 ], [ -0.569371, 44.826759 ], [ -0.569384, 44.82666 ], [ -0.569352, 44.826561 ], [ -0.569443, 44.826478 ], [ -0.569507, 44.826398 ], [ -0.569524, 44.826302 ], [ -0.569393, 44.826294 ], [ -0.56941, 44.826198 ], [ -0.569452, 44.826111 ], [ -0.569476, 44.826022 ], [ -0.56949, 44.825928 ], [ -0.569489, 44.825837 ], [ -0.569519, 44.825729 ], [ -0.569588, 44.825652 ], [ -0.569673, 44.825581 ], [ -0.569644, 44.825493 ], [ -0.569672, 44.825403 ], [ -0.569779, 44.825351 ], [ -0.56987, 44.825278 ], [ -0.569877, 44.825179 ], [ -0.56975, 44.825169 ], [ -0.569609, 44.825162 ], [ -0.569531, 44.825081 ], [ -0.569634, 44.825022 ], [ -0.569731, 44.824955 ], [ -0.569808, 44.824881 ], [ -0.569931, 44.824837 ], [ -0.570045, 44.824777 ], [ -0.570072, 44.824685 ], [ -0.570138, 44.824606 ], [ -0.570136, 44.824508 ], [ -0.570132, 44.824413 ], [ -0.570206, 44.824336 ], [ -0.57024, 44.824248 ], [ -0.5703, 44.824159 ], [ -0.570308, 44.824057 ], [ -0.570331, 44.823956 ], [ -0.570356, 44.823866 ], [ -0.570365, 44.823769 ], [ -0.570437, 44.82369 ], [ -0.570484, 44.823604 ], [ -0.570507, 44.823511 ], [ -0.570532, 44.82341 ], [ -0.570622, 44.823338 ], [ -0.570644, 44.823246 ], [ -0.57069, 44.823142 ], [ -0.570769, 44.823068 ], [ -0.570827, 44.822985 ], [ -0.570887, 44.822871 ], [ -0.571027, 44.822833 ], [ -0.57108, 44.822734 ], [ -0.570989, 44.822655 ], [ -0.570965, 44.822558 ], [ -0.571024, 44.822469 ], [ -0.570986, 44.822374 ], [ -0.571003, 44.822282 ], [ -0.571041, 44.82219 ], [ -0.570987, 44.822103 ], [ -0.570995, 44.822013 ], [ -0.571059, 44.821924 ], [ -0.571174, 44.821885 ], [ -0.5712, 44.821795 ], [ -0.571228, 44.821695 ], [ -0.571267, 44.821599 ], [ -0.571371, 44.82152 ], [ -0.571365, 44.821419 ], [ -0.571437, 44.821334 ], [ -0.571495, 44.821245 ], [ -0.571531, 44.821146 ], [ -0.571575, 44.82105 ], [ -0.571595, 44.820953 ], [ -0.571618, 44.82086 ], [ -0.571676, 44.820772 ], [ -0.57168, 44.820669 ], [ -0.571715, 44.820576 ], [ -0.57179, 44.8205 ], [ -0.571799, 44.820409 ], [ -0.571884, 44.820331 ], [ -0.571922, 44.82024 ], [ -0.572004, 44.820153 ], [ -0.572008, 44.820056 ], [ -0.572041, 44.819959 ], [ -0.572036, 44.819861 ], [ -0.572076, 44.81976 ], [ -0.572142, 44.819682 ], [ -0.572217, 44.819598 ], [ -0.572178, 44.819511 ], [ -0.57213, 44.819425 ], [ -0.572219, 44.819357 ], [ -0.572342, 44.819301 ], [ -0.572278, 44.819216 ], [ -0.572246, 44.819116 ], [ -0.572157, 44.819037 ], [ -0.572071, 44.818967 ], [ -0.572049, 44.818866 ], [ -0.572036, 44.818772 ], [ -0.572094, 44.818689 ], [ -0.57212, 44.818597 ], [ -0.572137, 44.818506 ], [ -0.572028, 44.818455 ], [ -0.572076, 44.818359 ], [ -0.572152, 44.818283 ], [ -0.572169, 44.818186 ], [ -0.572108, 44.818099 ], [ -0.572048, 44.818012 ], [ -0.572061, 44.817911 ], [ -0.572097, 44.817818 ], [ -0.572164, 44.817726 ], [ -0.572191, 44.817632 ], [ -0.572202, 44.817539 ], [ -0.572159, 44.817448 ], [ -0.572148, 44.817352 ], [ -0.572147, 44.817243 ], [ -0.57205, 44.817173 ], [ -0.572059, 44.817071 ], [ -0.572064, 44.816973 ], [ -0.572023, 44.816881 ], [ -0.572042, 44.816789 ], [ -0.572122, 44.816714 ], [ -0.572163, 44.816622 ], [ -0.5722, 44.81653 ], [ -0.572215, 44.816435 ], [ -0.572224, 44.816339 ], [ -0.572268, 44.816242 ], [ -0.572269, 44.816149 ], [ -0.572311, 44.816064 ], [ -0.572335, 44.815976 ], [ -0.572328, 44.815119 ], [ -0.572346, 44.815024 ], [ -0.572421, 44.814938 ], [ -0.572456, 44.814842 ], [ -0.572489, 44.81474 ], [ -0.572535, 44.81465 ], [ -0.572566, 44.814561 ], [ -0.572626, 44.814473 ], [ -0.57268, 44.814387 ], [ -0.572706, 44.814293 ], [ -0.572738, 44.814198 ], [ -0.572769, 44.814102 ], [ -0.572799, 44.814009 ], [ -0.572855, 44.813921 ], [ -0.572911, 44.813834 ], [ -0.57296, 44.813738 ], [ -0.573016, 44.813652 ], [ -0.572991, 44.813559 ], [ -0.573038, 44.813473 ], [ -0.573109, 44.813374 ], [ -0.573206, 44.813309 ] ] ] } }
]
}
