{
"type": "FeatureCollection",
"name": "28 févr 2020 14:33:30",
"crs": { "type": "name", "properties": { "name": "urn:ogc:def:crs:OGC:1.3:CRS84" } },
"features": [
{ "type": "Feature", "properties": { "Name": "28 févr 2020 14:33:30", "description": "", "begin": "2020\/02\/28 13:33:31.082+00", "end": "2020\/02\/28 15:37:46.135+00" }, "geometry": { "type": "MultiLineString", "coordinates": [ [ [ 3.906891, 43.606142 ], [ 3.906879, 43.606039 ], [ 3.906894, 43.605933 ], [ 3.906904, 43.605837 ], [ 3.90692, 43.605741 ], [ 3.906948, 43.605651 ], [ 3.906979, 43.605554 ], [ 3.906947, 43.605461 ], [ 3.90692, 43.60537 ], [ 3.906926, 43.605276 ], [ 3.907035, 43.605208 ], [ 3.907013, 43.605305 ], [ 3.907064, 43.605389 ], [ 3.907189, 43.605405 ], [ 3.90733, 43.605415 ], [ 3.907461, 43.605403 ], [ 3.907594, 43.605398 ], [ 3.907674, 43.605329 ] ], [ [ 3.907984, 43.60566 ], [ 3.907404, 43.60542 ], [ 3.907514, 43.605498 ], [ 3.908074, 43.60578 ], [ 3.908119, 43.605865 ], [ 3.908135, 43.605957 ], [ 3.908274, 43.605982 ], [ 3.908931, 43.606009 ], [ 3.908329, 43.605973 ], [ 3.908855, 43.606071 ], [ 3.908719, 43.606017 ], [ 3.908595, 43.606008 ], [ 3.908581, 43.605912 ], [ 3.908525, 43.605815 ], [ 3.908465, 43.605729 ], [ 3.908358, 43.605682 ], [ 3.90823, 43.605684 ], [ 3.908083, 43.605683 ], [ 3.908049, 43.605594 ], [ 3.908136, 43.605528 ], [ 3.907991, 43.605513 ], [ 3.907867, 43.6055 ], [ 3.907777, 43.605416 ] ], [ [ 3.904556, 43.604103 ], [ 3.904614, 43.603846 ], [ 3.904532, 43.603917 ], [ 3.904462, 43.604009 ], [ 3.904357, 43.604073 ], [ 3.904233, 43.604119 ], [ 3.904107, 43.604145 ], [ 3.903977, 43.604178 ], [ 3.903868, 43.604236 ], [ 3.903761, 43.604296 ], [ 3.90366, 43.604356 ], [ 3.903556, 43.604423 ], [ 3.903463, 43.604495 ], [ 3.90341, 43.60458 ], [ 3.903346, 43.604669 ], [ 3.903298, 43.60476 ], [ 3.903261, 43.604851 ], [ 3.903223, 43.604952 ], [ 3.90318, 43.60505 ], [ 3.903143, 43.605145 ], [ 3.903099, 43.605235 ], [ 3.903051, 43.60533 ], [ 3.902962, 43.605393 ] ], [ [ 3.903552, 43.60669 ], [ 3.903633, 43.606528 ], [ 3.903508, 43.606553 ], [ 3.903389, 43.606584 ], [ 3.90326, 43.606617 ], [ 3.903154, 43.606671 ], [ 3.903054, 43.606738 ], [ 3.90304, 43.606833 ], [ 3.903044, 43.606927 ], [ 3.903005, 43.607024 ], [ 3.903127, 43.607051 ], [ 3.903261, 43.607065 ], [ 3.903395, 43.607067 ] ], [ [ 3.904079, 43.607576 ], [ 3.903947, 43.607492 ], [ 3.904112, 43.6074 ], [ 3.904219, 43.607349 ], [ 3.904319, 43.607294 ], [ 3.90419, 43.607271 ], [ 3.904132, 43.607366 ], [ 3.904044, 43.607434 ], [ 3.903946, 43.607491 ], [ 3.903857, 43.607557 ], [ 3.903823, 43.607651 ], [ 3.903877, 43.607734 ], [ 3.903866, 43.607643 ], [ 3.903918, 43.607558 ], [ 3.903992, 43.607482 ], [ 3.904088, 43.607413 ], [ 3.904174, 43.607335 ], [ 3.904242, 43.607259 ], [ 3.90433, 43.60719 ] ], [ [ 3.898957, 43.601277 ], [ 3.898661, 43.601296 ], [ 3.898726, 43.601498 ], [ 3.898606, 43.601463 ] ] ] } }
]
}
