{
"type": "FeatureCollection",
"name": "25 févr 2020 09:34:50",
"crs": { "type": "name", "properties": { "name": "urn:ogc:def:crs:OGC:1.3:CRS84" } },
"features": [
{ "type": "Feature", "properties": { "Name": "25 févr 2020 09:34:50", "description": "", "begin": "2020\/02\/25 08:34:50.387+00", "end": "2020\/02\/25 14:19:33.186+00" }, "geometry": { "type": "MultiLineString", "coordinates": [ [ [ 3.871126, 43.635282 ], [ 3.870973, 43.635336 ], [ 3.870837, 43.635352 ], [ 3.870696, 43.635404 ], [ 3.870539, 43.635441 ], [ 3.870405, 43.635482 ], [ 3.870277, 43.635503 ], [ 3.870153, 43.635529 ], [ 3.869982, 43.635532 ], [ 3.869786, 43.635538 ], [ 3.869552, 43.635545 ], [ 3.869414, 43.635549 ], [ 3.869278, 43.63555 ], [ 3.869153, 43.635549 ], [ 3.868934, 43.635545 ], [ 3.868765, 43.635561 ], [ 3.868624, 43.635559 ], [ 3.868484, 43.635576 ], [ 3.868431, 43.635661 ], [ 3.868447, 43.635767 ], [ 3.868484, 43.635884 ], [ 3.868546, 43.635983 ], [ 3.868603, 43.636098 ], [ 3.868667, 43.63625 ], [ 3.868718, 43.6364 ], [ 3.868777, 43.636536 ], [ 3.86885, 43.636686 ], [ 3.868906, 43.636845 ], [ 3.868951, 43.636962 ], [ 3.869, 43.637092 ], [ 3.869059, 43.637227 ], [ 3.869103, 43.637317 ], [ 3.869169, 43.637403 ], [ 3.869141, 43.637315 ], [ 3.869216, 43.637395 ], [ 3.869351, 43.63738 ], [ 3.86945, 43.637318 ], [ 3.869523, 43.637238 ], [ 3.869632, 43.637183 ], [ 3.869749, 43.637215 ], [ 3.86962, 43.637224 ], [ 3.869522, 43.637287 ], [ 3.869397, 43.637292 ], [ 3.869317, 43.63721 ], [ 3.869395, 43.637281 ], [ 3.869533, 43.637267 ], [ 3.86965, 43.637221 ], [ 3.869694, 43.637319 ], [ 3.869638, 43.637415 ], [ 3.869606, 43.637318 ], [ 3.869598, 43.637226 ], [ 3.869718, 43.637197 ], [ 3.869742, 43.637297 ], [ 3.869763, 43.637402 ], [ 3.869734, 43.637496 ], [ 3.869866, 43.637464 ], [ 3.869991, 43.637477 ], [ 3.869869, 43.637422 ], [ 3.869792, 43.637347 ], [ 3.869665, 43.63735 ], [ 3.869536, 43.637363 ], [ 3.869411, 43.637389 ], [ 3.869252, 43.637405 ], [ 3.869361, 43.637354 ], [ 3.869482, 43.637324 ], [ 3.869607, 43.637329 ], [ 3.869717, 43.637279 ], [ 3.86975, 43.637189 ], [ 3.869806, 43.637104 ], [ 3.869788, 43.637203 ], [ 3.869787, 43.637307 ], [ 3.869694, 43.637371 ], [ 3.86955, 43.63735 ], [ 3.869461, 43.637418 ], [ 3.8693, 43.637393 ], [ 3.86919, 43.637352 ], [ 3.869178, 43.637485 ], [ 3.869246, 43.637622 ], [ 3.869377, 43.637812 ], [ 3.869511, 43.637944 ], [ 3.869689, 43.638047 ], [ 3.869832, 43.63812 ], [ 3.869944, 43.638163 ], [ 3.86978, 43.638143 ], [ 3.86967, 43.638072 ], [ 3.869573, 43.638011 ], [ 3.869446, 43.637999 ], [ 3.869575, 43.637958 ], [ 3.869719, 43.638033 ], [ 3.869831, 43.638117 ], [ 3.869948, 43.638152 ], [ 3.870074, 43.638197 ], [ 3.8702, 43.638223 ], [ 3.870338, 43.638253 ], [ 3.870451, 43.638308 ], [ 3.870606, 43.638368 ], [ 3.870752, 43.638418 ], [ 3.87089, 43.638466 ], [ 3.871023, 43.638383 ], [ 3.871073, 43.638286 ], [ 3.87112, 43.638171 ], [ 3.871299, 43.638112 ], [ 3.871472, 43.638084 ], [ 3.871656, 43.638053 ], [ 3.871847, 43.638029 ], [ 3.871979, 43.638031 ], [ 3.87183, 43.638048 ], [ 3.871702, 43.638083 ], [ 3.871551, 43.638108 ], [ 3.871398, 43.638133 ], [ 3.871262, 43.638171 ], [ 3.871148, 43.638258 ], [ 3.871084, 43.638371 ], [ 3.871025, 43.63846 ], [ 3.871157, 43.638537 ], [ 3.871288, 43.638565 ], [ 3.871415, 43.638596 ], [ 3.871553, 43.638604 ], [ 3.871701, 43.638653 ], [ 3.871847, 43.638698 ], [ 3.87198, 43.63871 ], [ 3.872138, 43.638722 ], [ 3.87233, 43.638732 ], [ 3.87248, 43.638779 ], [ 3.872612, 43.63882 ], [ 3.872478, 43.638753 ], [ 3.872321, 43.638711 ], [ 3.872171, 43.638729 ], [ 3.872252, 43.638799 ], [ 3.872423, 43.638852 ], [ 3.872578, 43.638897 ], [ 3.872761, 43.638938 ], [ 3.87292, 43.638977 ], [ 3.873068, 43.639023 ], [ 3.873217, 43.639079 ], [ 3.873337, 43.639156 ], [ 3.873447, 43.639241 ], [ 3.873554, 43.639136 ], [ 3.873617, 43.639005 ], [ 3.873661, 43.638908 ], [ 3.873733, 43.638737 ], [ 3.873768, 43.638574 ], [ 3.873758, 43.638482 ], [ 3.873739, 43.638301 ], [ 3.873697, 43.638129 ], [ 3.873667, 43.63804 ], [ 3.87352, 43.638036 ], [ 3.873389, 43.638029 ], [ 3.873207, 43.638011 ], [ 3.87294, 43.637981 ], [ 3.872792, 43.637976 ], [ 3.87261, 43.637914 ], [ 3.872478, 43.637877 ], [ 3.872348, 43.637875 ], [ 3.872193, 43.637847 ], [ 3.872112, 43.637768 ], [ 3.872142, 43.637631 ], [ 3.872144, 43.637531 ], [ 3.872133, 43.637437 ], [ 3.872088, 43.63735 ], [ 3.872216, 43.637348 ], [ 3.872161, 43.637439 ], [ 3.872165, 43.637552 ], [ 3.872127, 43.637643 ], [ 3.872418, 43.637604 ], [ 3.872179, 43.637554 ], [ 3.872138, 43.637656 ], [ 3.872171, 43.637764 ], [ 3.872283, 43.637855 ], [ 3.872272, 43.638012 ], [ 3.872363, 43.637939 ], [ 3.872523, 43.637961 ], [ 3.872698, 43.638015 ], [ 3.872857, 43.638024 ], [ 3.873012, 43.638025 ], [ 3.873132, 43.637973 ], [ 3.873164, 43.637868 ], [ 3.873102, 43.637788 ], [ 3.872992, 43.63784 ], [ 3.872968, 43.637943 ], [ 3.873018, 43.637836 ], [ 3.873094, 43.637948 ], [ 3.873196, 43.638002 ], [ 3.87335, 43.638011 ], [ 3.873481, 43.637972 ], [ 3.873477, 43.637811 ], [ 3.873446, 43.637691 ], [ 3.873442, 43.637585 ], [ 3.873488, 43.637486 ], [ 3.873486, 43.637392 ], [ 3.873492, 43.637284 ], [ 3.873495, 43.637193 ], [ 3.873433, 43.637114 ], [ 3.873358, 43.637194 ], [ 3.873336, 43.637289 ], [ 3.87332, 43.637424 ], [ 3.87316, 43.637471 ], [ 3.873001, 43.637476 ], [ 3.872873, 43.637435 ], [ 3.872857, 43.637312 ], [ 3.872835, 43.637222 ], [ 3.872859, 43.636975 ], [ 3.872876, 43.637085 ], [ 3.87274, 43.637116 ], [ 3.872752, 43.637211 ], [ 3.87277, 43.637115 ], [ 3.872832, 43.637031 ], [ 3.872892, 43.63694 ], [ 3.872837, 43.636849 ], [ 3.872841, 43.63695 ], [ 3.872843, 43.637048 ], [ 3.872982, 43.637058 ], [ 3.873147, 43.637067 ], [ 3.873275, 43.637076 ], [ 3.873408, 43.637095 ], [ 3.873439, 43.637001 ], [ 3.873426, 43.636855 ], [ 3.873417, 43.636719 ], [ 3.873383, 43.63663 ], [ 3.873247, 43.636634 ], [ 3.873078, 43.63664 ], [ 3.872926, 43.636652 ], [ 3.872765, 43.636682 ], [ 3.872589, 43.6367 ], [ 3.872433, 43.636718 ], [ 3.872287, 43.636734 ], [ 3.872414, 43.636727 ], [ 3.872544, 43.636706 ], [ 3.872708, 43.636684 ], [ 3.872888, 43.636674 ], [ 3.873039, 43.636678 ], [ 3.873196, 43.636668 ], [ 3.873355, 43.636663 ], [ 3.873267, 43.63659 ], [ 3.873329, 43.636494 ], [ 3.873309, 43.636378 ], [ 3.873265, 43.63625 ], [ 3.873218, 43.636116 ], [ 3.873201, 43.635994 ], [ 3.873205, 43.635904 ], [ 3.873062, 43.635872 ], [ 3.873185, 43.63585 ], [ 3.873248, 43.635738 ], [ 3.873254, 43.635636 ], [ 3.873245, 43.635545 ], [ 3.872916, 43.635561 ], [ 3.873034, 43.635529 ], [ 3.873177, 43.635515 ], [ 3.873262, 43.635437 ], [ 3.873241, 43.635326 ], [ 3.873214, 43.63518 ], [ 3.873198, 43.634994 ], [ 3.873127, 43.634914 ], [ 3.873143, 43.634822 ], [ 3.873233, 43.634729 ], [ 3.873212, 43.634624 ], [ 3.873178, 43.634506 ], [ 3.873144, 43.634384 ], [ 3.873098, 43.634276 ], [ 3.873035, 43.634196 ], [ 3.872966, 43.634116 ], [ 3.872923, 43.634025 ], [ 3.872811, 43.633979 ], [ 3.872723, 43.6339 ], [ 3.872664, 43.63382 ], [ 3.872585, 43.633707 ], [ 3.872546, 43.633606 ], [ 3.872433, 43.633566 ], [ 3.872441, 43.633474 ], [ 3.872392, 43.633382 ], [ 3.87234, 43.633258 ], [ 3.872253, 43.63314 ], [ 3.872206, 43.633043 ], [ 3.872134, 43.632948 ], [ 3.872105, 43.63286 ], [ 3.872052, 43.63275 ], [ 3.87199, 43.632671 ], [ 3.871925, 43.632549 ], [ 3.871872, 43.632462 ], [ 3.871805, 43.63237 ], [ 3.871748, 43.632286 ], [ 3.871669, 43.632205 ], [ 3.871603, 43.63212 ], [ 3.871574, 43.63203 ], [ 3.871548, 43.631927 ], [ 3.871494, 43.631827 ], [ 3.871447, 43.631734 ], [ 3.871441, 43.63162 ], [ 3.871355, 43.63147 ], [ 3.871273, 43.631356 ], [ 3.871222, 43.631265 ], [ 3.871169, 43.631178 ], [ 3.871112, 43.631084 ], [ 3.871063, 43.630995 ], [ 3.870998, 43.630886 ], [ 3.870922, 43.630774 ], [ 3.870852, 43.630663 ], [ 3.870763, 43.630517 ], [ 3.870655, 43.630352 ], [ 3.870562, 43.630211 ], [ 3.870484, 43.630077 ], [ 3.870427, 43.629984 ], [ 3.870547, 43.630083 ], [ 3.870622, 43.630188 ], [ 3.870675, 43.630306 ], [ 3.870758, 43.630377 ], [ 3.870819, 43.630493 ], [ 3.87087, 43.630599 ], [ 3.870963, 43.630659 ], [ 3.871059, 43.630721 ], [ 3.870971, 43.630652 ], [ 3.871002, 43.630744 ], [ 3.871061, 43.630838 ], [ 3.871105, 43.630937 ], [ 3.87112, 43.631064 ], [ 3.871195, 43.631185 ], [ 3.871299, 43.631313 ], [ 3.871414, 43.631357 ], [ 3.871534, 43.631311 ], [ 3.871622, 43.631223 ], [ 3.871601, 43.631332 ], [ 3.871478, 43.631354 ], [ 3.871373, 43.631409 ], [ 3.871434, 43.631509 ], [ 3.871507, 43.631627 ], [ 3.871564, 43.631715 ], [ 3.871684, 43.63174 ], [ 3.871764, 43.631836 ], [ 3.871831, 43.631979 ], [ 3.871891, 43.632084 ], [ 3.871916, 43.631996 ], [ 3.871794, 43.632023 ], [ 3.871672, 43.632045 ], [ 3.871811, 43.632035 ], [ 3.8719, 43.632131 ], [ 3.871955, 43.632214 ], [ 3.872003, 43.632313 ], [ 3.871985, 43.632408 ], [ 3.87206, 43.632482 ], [ 3.87211, 43.632564 ], [ 3.872196, 43.632647 ], [ 3.872255, 43.632738 ], [ 3.872294, 43.632823 ], [ 3.872402, 43.632871 ], [ 3.872518, 43.632831 ], [ 3.872401, 43.632871 ], [ 3.872309, 43.632942 ], [ 3.87237, 43.633047 ], [ 3.872427, 43.633171 ], [ 3.87248, 43.633289 ], [ 3.872553, 43.633366 ], [ 3.872653, 43.633443 ], [ 3.872711, 43.633566 ], [ 3.872782, 43.633663 ], [ 3.872818, 43.633757 ], [ 3.872959, 43.633752 ], [ 3.87305, 43.633685 ], [ 3.873161, 43.633598 ], [ 3.873305, 43.633501 ], [ 3.873435, 43.633424 ], [ 3.873564, 43.633376 ], [ 3.87367, 43.633453 ], [ 3.873574, 43.633374 ], [ 3.873409, 43.63347 ], [ 3.873288, 43.633514 ], [ 3.873424, 43.633547 ], [ 3.87342, 43.63364 ], [ 3.873324, 43.633721 ], [ 3.873196, 43.63368 ], [ 3.873067, 43.633773 ], [ 3.872926, 43.633802 ], [ 3.873083, 43.633758 ], [ 3.873231, 43.633675 ], [ 3.873377, 43.633599 ], [ 3.873401, 43.63351 ], [ 3.873273, 43.633558 ], [ 3.873146, 43.63364 ], [ 3.873023, 43.633727 ], [ 3.872935, 43.633791 ], [ 3.872922, 43.633881 ], [ 3.872987, 43.63398 ], [ 3.873063, 43.634063 ], [ 3.873208, 43.634037 ], [ 3.873309, 43.633972 ], [ 3.873236, 43.63408 ], [ 3.873193, 43.634173 ], [ 3.87327, 43.634264 ], [ 3.873286, 43.634372 ], [ 3.873411, 43.634426 ], [ 3.873537, 43.634376 ], [ 3.873668, 43.634302 ], [ 3.87378, 43.634245 ], [ 3.873883, 43.634189 ], [ 3.873998, 43.634128 ], [ 3.874115, 43.634059 ], [ 3.874233, 43.634004 ], [ 3.874359, 43.633934 ], [ 3.874545, 43.633864 ], [ 3.874637, 43.6338 ], [ 3.874539, 43.633718 ], [ 3.874434, 43.633646 ], [ 3.874559, 43.633664 ], [ 3.874689, 43.633625 ], [ 3.874791, 43.633564 ], [ 3.874881, 43.633494 ], [ 3.875, 43.63345 ], [ 3.8751, 43.633387 ], [ 3.874995, 43.63332 ], [ 3.87512, 43.633378 ], [ 3.875214, 43.633296 ], [ 3.875246, 43.633206 ], [ 3.875195, 43.633313 ], [ 3.875106, 43.633405 ], [ 3.874979, 43.633454 ], [ 3.874866, 43.633531 ], [ 3.874708, 43.633612 ], [ 3.874621, 43.633679 ], [ 3.874673, 43.63377 ], [ 3.874801, 43.633772 ], [ 3.875013, 43.633599 ], [ 3.875123, 43.633528 ], [ 3.875272, 43.633434 ], [ 3.875365, 43.633346 ], [ 3.875311, 43.633436 ], [ 3.875396, 43.633503 ], [ 3.875273, 43.633521 ], [ 3.875335, 43.633604 ], [ 3.87523, 43.633726 ], [ 3.875108, 43.633811 ], [ 3.875046, 43.633891 ], [ 3.87506, 43.634017 ], [ 3.874973, 43.634087 ], [ 3.874978, 43.634184 ], [ 3.875, 43.634274 ], [ 3.875043, 43.634371 ], [ 3.875104, 43.634463 ], [ 3.875032, 43.63438 ], [ 3.87497, 43.634269 ], [ 3.874937, 43.634178 ], [ 3.874877, 43.634078 ], [ 3.874919, 43.633993 ], [ 3.875033, 43.633952 ], [ 3.875132, 43.633894 ], [ 3.875229, 43.633818 ], [ 3.87522, 43.633727 ], [ 3.875174, 43.633612 ], [ 3.874987, 43.633686 ], [ 3.874831, 43.633776 ], [ 3.874632, 43.633881 ], [ 3.874476, 43.633978 ], [ 3.874359, 43.634037 ], [ 3.874286, 43.634121 ], [ 3.874086, 43.634201 ], [ 3.873914, 43.634293 ], [ 3.873667, 43.634473 ], [ 3.873515, 43.63457 ], [ 3.87338, 43.634634 ], [ 3.873286, 43.634725 ], [ 3.873279, 43.634837 ], [ 3.873272, 43.63496 ], [ 3.873288, 43.635075 ], [ 3.873354, 43.635154 ], [ 3.873336, 43.635248 ], [ 3.873328, 43.635355 ], [ 3.873352, 43.63546 ], [ 3.873465, 43.63551 ], [ 3.873393, 43.635584 ], [ 3.873376, 43.635691 ], [ 3.873404, 43.635784 ], [ 3.873421, 43.635924 ], [ 3.873449, 43.636062 ], [ 3.873475, 43.636153 ], [ 3.873503, 43.636281 ], [ 3.873538, 43.636389 ], [ 3.873664, 43.636451 ], [ 3.873797, 43.636449 ], [ 3.873947, 43.63646 ], [ 3.874081, 43.636508 ], [ 3.874215, 43.636536 ], [ 3.874378, 43.636526 ], [ 3.874445, 43.63645 ], [ 3.874593, 43.636427 ], [ 3.874717, 43.636411 ], [ 3.874848, 43.636373 ], [ 3.875003, 43.636339 ], [ 3.875126, 43.636311 ], [ 3.875265, 43.636284 ], [ 3.875432, 43.636292 ], [ 3.875569, 43.6363 ], [ 3.875697, 43.636354 ], [ 3.875787, 43.636434 ], [ 3.87591, 43.636452 ], [ 3.876234, 43.636378 ], [ 3.876393, 43.636418 ], [ 3.876601, 43.636418 ], [ 3.876778, 43.636463 ], [ 3.876808, 43.636358 ], [ 3.876907, 43.63644 ], [ 3.877091, 43.636487 ], [ 3.87731, 43.636542 ], [ 3.877429, 43.636573 ], [ 3.877549, 43.636602 ], [ 3.877667, 43.63663 ], [ 3.877839, 43.636672 ], [ 3.87799, 43.636682 ], [ 3.878139, 43.636712 ], [ 3.878266, 43.63674 ], [ 3.878454, 43.636774 ], [ 3.87864, 43.636788 ], [ 3.878825, 43.636765 ], [ 3.878987, 43.636747 ], [ 3.879116, 43.636731 ], [ 3.879267, 43.636701 ], [ 3.8794, 43.6367 ], [ 3.879533, 43.636721 ], [ 3.879687, 43.636745 ], [ 3.879811, 43.636731 ], [ 3.879795, 43.636569 ], [ 3.879727, 43.63648 ], [ 3.879609, 43.636405 ], [ 3.879517, 43.636325 ], [ 3.87943, 43.636198 ] ], [ [ 3.873418, 43.635195 ], [ 3.87355, 43.635236 ], [ 3.873724, 43.63527 ], [ 3.873859, 43.635289 ], [ 3.873995, 43.635304 ], [ 3.874118, 43.635322 ], [ 3.874229, 43.635262 ], [ 3.874334, 43.635188 ], [ 3.874445, 43.635111 ], [ 3.874588, 43.635031 ], [ 3.874749, 43.634993 ], [ 3.874897, 43.635 ], [ 3.875025, 43.63499 ], [ 3.875152, 43.634979 ], [ 3.875327, 43.634968 ], [ 3.875475, 43.634962 ], [ 3.875616, 43.634944 ], [ 3.87575, 43.634929 ], [ 3.875888, 43.634971 ], [ 3.875973, 43.635047 ], [ 3.87603, 43.635165 ], [ 3.876063, 43.635255 ], [ 3.876043, 43.63536 ], [ 3.876017, 43.635467 ], [ 3.875971, 43.635568 ], [ 3.87598, 43.635732 ], [ 3.875865, 43.635682 ], [ 3.875702, 43.635713 ], [ 3.875541, 43.635707 ], [ 3.875415, 43.635708 ], [ 3.875244, 43.635678 ], [ 3.875113, 43.635672 ], [ 3.874986, 43.635669 ], [ 3.874824, 43.635647 ], [ 3.87467, 43.635584 ], [ 3.874469, 43.63548 ], [ 3.874313, 43.635422 ], [ 3.874145, 43.635364 ], [ 3.873995, 43.635325 ], [ 3.873844, 43.635305 ], [ 3.874055, 43.635312 ], [ 3.8742, 43.635342 ], [ 3.874335, 43.635354 ], [ 3.874452, 43.635407 ], [ 3.874617, 43.635483 ], [ 3.874783, 43.635566 ], [ 3.874946, 43.635604 ], [ 3.875074, 43.635606 ], [ 3.875215, 43.635619 ], [ 3.875396, 43.635634 ], [ 3.875597, 43.635643 ], [ 3.875792, 43.63562 ], [ 3.875911, 43.63554 ], [ 3.87593, 43.635406 ], [ 3.875935, 43.635253 ], [ 3.875913, 43.635101 ], [ 3.875788, 43.634995 ], [ 3.875617, 43.634971 ], [ 3.875481, 43.634984 ], [ 3.875359, 43.635013 ], [ 3.875196, 43.635023 ], [ 3.875038, 43.635035 ], [ 3.874858, 43.635043 ], [ 3.874728, 43.635064 ], [ 3.874576, 43.635098 ], [ 3.874485, 43.635174 ], [ 3.87436, 43.635241 ], [ 3.874234, 43.635304 ], [ 3.874083, 43.635343 ], [ 3.873927, 43.635338 ], [ 3.873765, 43.635273 ], [ 3.873587, 43.635286 ] ], [ [ 3.879555, 43.63625 ], [ 3.879428, 43.636197 ], [ 3.879344, 43.6361 ], [ 3.879241, 43.636017 ], [ 3.879113, 43.635912 ], [ 3.878976, 43.63582 ], [ 3.878844, 43.635727 ], [ 3.878738, 43.63565 ], [ 3.878618, 43.635703 ], [ 3.878586, 43.635839 ], [ 3.878574, 43.635965 ], [ 3.878552, 43.636066 ], [ 3.878567, 43.636162 ], [ 3.878581, 43.636253 ], [ 3.878523, 43.636144 ], [ 3.87844, 43.636074 ], [ 3.878538, 43.635963 ], [ 3.878572, 43.63583 ], [ 3.87861, 43.635701 ], [ 3.878577, 43.635579 ], [ 3.878478, 43.635484 ], [ 3.878376, 43.635406 ], [ 3.878291, 43.635328 ], [ 3.87822, 43.635249 ], [ 3.878109, 43.635164 ], [ 3.877985, 43.63508 ], [ 3.877848, 43.634975 ], [ 3.8777, 43.634864 ], [ 3.877596, 43.634794 ], [ 3.877468, 43.634833 ], [ 3.877517, 43.634743 ], [ 3.877405, 43.634661 ], [ 3.877276, 43.634598 ], [ 3.877175, 43.634494 ], [ 3.877044, 43.634401 ], [ 3.876886, 43.63427 ], [ 3.876796, 43.634206 ], [ 3.876629, 43.634094 ], [ 3.876517, 43.634019 ], [ 3.876402, 43.634081 ], [ 3.876403, 43.634238 ], [ 3.876383, 43.63435 ], [ 3.876364, 43.634446 ], [ 3.876412, 43.634351 ], [ 3.876427, 43.634244 ], [ 3.876473, 43.634122 ], [ 3.876431, 43.634019 ], [ 3.876363, 43.633927 ], [ 3.876252, 43.633857 ], [ 3.876141, 43.633798 ], [ 3.87603, 43.633734 ], [ 3.875956, 43.633659 ], [ 3.87586, 43.633587 ], [ 3.875764, 43.633514 ], [ 3.875662, 43.633436 ], [ 3.875542, 43.633356 ], [ 3.87543, 43.633273 ], [ 3.875302, 43.63318 ], [ 3.875147, 43.63308 ], [ 3.875, 43.632981 ], [ 3.874875, 43.632905 ], [ 3.874781, 43.632843 ], [ 3.874654, 43.632899 ], [ 3.874606, 43.632982 ], [ 3.87452, 43.633119 ], [ 3.874379, 43.633162 ], [ 3.874218, 43.633167 ], [ 3.874072, 43.633168 ], [ 3.874025, 43.633059 ], [ 3.873992, 43.632939 ], [ 3.87406, 43.632859 ], [ 3.874213, 43.632834 ], [ 3.874087, 43.632876 ], [ 3.874002, 43.632807 ], [ 3.873977, 43.632899 ], [ 3.874001, 43.633013 ], [ 3.87404, 43.633156 ], [ 3.874168, 43.633165 ], [ 3.874298, 43.633169 ], [ 3.874472, 43.633132 ], [ 3.874594, 43.633044 ], [ 3.874703, 43.632948 ], [ 3.874628, 43.63302 ], [ 3.874401, 43.633145 ], [ 3.874222, 43.633156 ], [ 3.874087, 43.633178 ], [ 3.874241, 43.633141 ], [ 3.87447, 43.633101 ], [ 3.874624, 43.633007 ], [ 3.874715, 43.63293 ], [ 3.874682, 43.632824 ], [ 3.874554, 43.632743 ], [ 3.87444, 43.632684 ], [ 3.87433, 43.632615 ], [ 3.874233, 43.632552 ], [ 3.874109, 43.63246 ], [ 3.873975, 43.632373 ], [ 3.873867, 43.632297 ], [ 3.873869, 43.632388 ], [ 3.873847, 43.632287 ], [ 3.87381, 43.632194 ], [ 3.873714, 43.632264 ], [ 3.873601, 43.632306 ], [ 3.873305, 43.632457 ], [ 3.873255, 43.632551 ], [ 3.873252, 43.63265 ], [ 3.873224, 43.632546 ], [ 3.873288, 43.632448 ], [ 3.873391, 43.632377 ], [ 3.873497, 43.632322 ], [ 3.873614, 43.632271 ], [ 3.873723, 43.632207 ], [ 3.873657, 43.632094 ], [ 3.873578, 43.632017 ], [ 3.873462, 43.631931 ], [ 3.873336, 43.631935 ], [ 3.873249, 43.632002 ], [ 3.873142, 43.63206 ], [ 3.873031, 43.632114 ], [ 3.872988, 43.632209 ], [ 3.872996, 43.632115 ], [ 3.873117, 43.632077 ], [ 3.873226, 43.632027 ], [ 3.873325, 43.631969 ], [ 3.873381, 43.631888 ], [ 3.873259, 43.631842 ], [ 3.873179, 43.631769 ], [ 3.873096, 43.631695 ], [ 3.873008, 43.631616 ], [ 3.872933, 43.631544 ], [ 3.872838, 43.631475 ], [ 3.872727, 43.631382 ], [ 3.872628, 43.631306 ], [ 3.872591, 43.631217 ], [ 3.872494, 43.63116 ], [ 3.872387, 43.631085 ], [ 3.872209, 43.630962 ], [ 3.87209, 43.630909 ], [ 3.871953, 43.630835 ], [ 3.871806, 43.630796 ], [ 3.871721, 43.630722 ], [ 3.87158, 43.630646 ], [ 3.871462, 43.630579 ], [ 3.871348, 43.630486 ], [ 3.871241, 43.630392 ], [ 3.871149, 43.630318 ], [ 3.871017, 43.630305 ], [ 3.871005, 43.630178 ], [ 3.87089, 43.630111 ], [ 3.870784, 43.630062 ], [ 3.870737, 43.62997 ], [ 3.870624, 43.629909 ], [ 3.870509, 43.629859 ], [ 3.870715, 43.62985 ], [ 3.870838, 43.62991 ], [ 3.870954, 43.62999 ], [ 3.871078, 43.63008 ], [ 3.871166, 43.63016 ], [ 3.871219, 43.630255 ], [ 3.871335, 43.630324 ], [ 3.871467, 43.630405 ], [ 3.871564, 43.6305 ], [ 3.871685, 43.630612 ], [ 3.871822, 43.630634 ], [ 3.87196, 43.630698 ], [ 3.872073, 43.630783 ], [ 3.872187, 43.63089 ], [ 3.872297, 43.630941 ], [ 3.872391, 43.631003 ], [ 3.872523, 43.630945 ], [ 3.872614, 43.630867 ], [ 3.872516, 43.630935 ], [ 3.872395, 43.630965 ], [ 3.872421, 43.631065 ], [ 3.872528, 43.63113 ], [ 3.872622, 43.631192 ], [ 3.872726, 43.631261 ], [ 3.87285, 43.631273 ], [ 3.872836, 43.631373 ], [ 3.872925, 43.631446 ], [ 3.873018, 43.631513 ], [ 3.872996, 43.631419 ], [ 3.872946, 43.631334 ], [ 3.873024, 43.631428 ], [ 3.873006, 43.631519 ], [ 3.87312, 43.631631 ], [ 3.873297, 43.631646 ], [ 3.873402, 43.631697 ], [ 3.873427, 43.631795 ], [ 3.873464, 43.631889 ], [ 3.87364, 43.632012 ], [ 3.87377, 43.632026 ], [ 3.873875, 43.631958 ], [ 3.873963, 43.631858 ], [ 3.874046, 43.631767 ], [ 3.87413, 43.631689 ], [ 3.874159, 43.631602 ], [ 3.874134, 43.631703 ], [ 3.874037, 43.631769 ], [ 3.874088, 43.631855 ], [ 3.873997, 43.631916 ], [ 3.873888, 43.631991 ], [ 3.87384, 43.632081 ], [ 3.873934, 43.632139 ], [ 3.874022, 43.632212 ], [ 3.874152, 43.632291 ], [ 3.874236, 43.632392 ], [ 3.874354, 43.632462 ], [ 3.874467, 43.632529 ], [ 3.874596, 43.632482 ], [ 3.874687, 43.632391 ], [ 3.874772, 43.632325 ], [ 3.87489, 43.632227 ], [ 3.874781, 43.632331 ], [ 3.874603, 43.632427 ], [ 3.874478, 43.632504 ], [ 3.874497, 43.632593 ], [ 3.874585, 43.63266 ], [ 3.874724, 43.63275 ], [ 3.874846, 43.632763 ], [ 3.874943, 43.632829 ], [ 3.875059, 43.632892 ], [ 3.875106, 43.632808 ], [ 3.875042, 43.632902 ], [ 3.875121, 43.633017 ], [ 3.875217, 43.633089 ], [ 3.875321, 43.633142 ], [ 3.875416, 43.63323 ], [ 3.875532, 43.633287 ], [ 3.875619, 43.633353 ], [ 3.875759, 43.633439 ], [ 3.875855, 43.633499 ], [ 3.875963, 43.633574 ], [ 3.876073, 43.633655 ], [ 3.876185, 43.633731 ], [ 3.876297, 43.63377 ], [ 3.876427, 43.633737 ], [ 3.876531, 43.633682 ], [ 3.876624, 43.633611 ], [ 3.876738, 43.633545 ], [ 3.876752, 43.633427 ], [ 3.876595, 43.633359 ], [ 3.876448, 43.63329 ], [ 3.876324, 43.633226 ], [ 3.876214, 43.633173 ], [ 3.876093, 43.633137 ], [ 3.876147, 43.633056 ], [ 3.876214, 43.633132 ], [ 3.876319, 43.633212 ], [ 3.876436, 43.633243 ], [ 3.876547, 43.633288 ], [ 3.876685, 43.633341 ], [ 3.876766, 43.63342 ], [ 3.876815, 43.633517 ], [ 3.876674, 43.633594 ], [ 3.876583, 43.633656 ], [ 3.876482, 43.633715 ], [ 3.876362, 43.633797 ], [ 3.876412, 43.63388 ], [ 3.876513, 43.633942 ], [ 3.876611, 43.634002 ], [ 3.876711, 43.63406 ], [ 3.876813, 43.634136 ], [ 3.876924, 43.634177 ], [ 3.877039, 43.634255 ], [ 3.877094, 43.63437 ], [ 3.877195, 43.634426 ], [ 3.877302, 43.634518 ], [ 3.877442, 43.634562 ], [ 3.877536, 43.63463 ], [ 3.877623, 43.634723 ], [ 3.877685, 43.634806 ], [ 3.8778, 43.634881 ], [ 3.877939, 43.634975 ], [ 3.878058, 43.635021 ], [ 3.878162, 43.635089 ], [ 3.87823, 43.635181 ], [ 3.87833, 43.635257 ], [ 3.878422, 43.635336 ], [ 3.878573, 43.635441 ], [ 3.878624, 43.635527 ], [ 3.878812, 43.635658 ], [ 3.87893, 43.635726 ], [ 3.879043, 43.635798 ], [ 3.879142, 43.635877 ], [ 3.879244, 43.635931 ], [ 3.879341, 43.636039 ], [ 3.879491, 43.636134 ], [ 3.879661, 43.636248 ], [ 3.879816, 43.636355 ], [ 3.879947, 43.636315 ], [ 3.879858, 43.63639 ], [ 3.879979, 43.636418 ], [ 3.880056, 43.636533 ], [ 3.880129, 43.636613 ], [ 3.88024, 43.636693 ], [ 3.880356, 43.636764 ], [ 3.880466, 43.636816 ], [ 3.880583, 43.636858 ], [ 3.880691, 43.63695 ], [ 3.880815, 43.637024 ], [ 3.880947, 43.637113 ], [ 3.881128, 43.637194 ], [ 3.881318, 43.637309 ], [ 3.881485, 43.637379 ], [ 3.881641, 43.637461 ], [ 3.881724, 43.637528 ], [ 3.88182, 43.637588 ], [ 3.881951, 43.637636 ], [ 3.882088, 43.637663 ], [ 3.882161, 43.63774 ], [ 3.882338, 43.637741 ], [ 3.882447, 43.637694 ], [ 3.882332, 43.637734 ], [ 3.882427, 43.637833 ], [ 3.882547, 43.637885 ], [ 3.882671, 43.637901 ], [ 3.882769, 43.637964 ], [ 3.882878, 43.638018 ], [ 3.883, 43.638 ], [ 3.882916, 43.637927 ], [ 3.883044, 43.637967 ], [ 3.883156, 43.638047 ], [ 3.883198, 43.638138 ], [ 3.883349, 43.638192 ], [ 3.883481, 43.638233 ], [ 3.883623, 43.638272 ], [ 3.883531, 43.638203 ], [ 3.883643, 43.638281 ], [ 3.883816, 43.638325 ], [ 3.884002, 43.638379 ], [ 3.8842, 43.638458 ], [ 3.884398, 43.638549 ], [ 3.88459, 43.638628 ], [ 3.884782, 43.638706 ], [ 3.884978, 43.638789 ], [ 3.885124, 43.638839 ], [ 3.885202, 43.638914 ], [ 3.885334, 43.638983 ], [ 3.885452, 43.639022 ], [ 3.885614, 43.639106 ], [ 3.885772, 43.639172 ], [ 3.885898, 43.639228 ], [ 3.885988, 43.639297 ], [ 3.886111, 43.639352 ], [ 3.886252, 43.639414 ], [ 3.886432, 43.639482 ], [ 3.886629, 43.63951 ], [ 3.886871, 43.639559 ], [ 3.887093, 43.639622 ], [ 3.887212, 43.63965 ], [ 3.887434, 43.639719 ], [ 3.887638, 43.639796 ], [ 3.88775, 43.639867 ], [ 3.887962, 43.639968 ], [ 3.888069, 43.640033 ], [ 3.888195, 43.640086 ], [ 3.888342, 43.64012 ], [ 3.888497, 43.640141 ], [ 3.888637, 43.640176 ], [ 3.888785, 43.640201 ], [ 3.888931, 43.640235 ], [ 3.889071, 43.640267 ], [ 3.889204, 43.640279 ], [ 3.889365, 43.64027 ], [ 3.889509, 43.64026 ], [ 3.889646, 43.640239 ], [ 3.889801, 43.640223 ], [ 3.889943, 43.640211 ], [ 3.890085, 43.640218 ], [ 3.89024, 43.64022 ], [ 3.890386, 43.640245 ], [ 3.89052, 43.640273 ], [ 3.890662, 43.640302 ], [ 3.890812, 43.640326 ], [ 3.891001, 43.640398 ], [ 3.891128, 43.640416 ], [ 3.891092, 43.640313 ], [ 3.89102, 43.640216 ], [ 3.891025, 43.640119 ], [ 3.891068, 43.640206 ], [ 3.891163, 43.640299 ], [ 3.891217, 43.640397 ], [ 3.891248, 43.640486 ], [ 3.891308, 43.64057 ], [ 3.8912, 43.640526 ], [ 3.891049, 43.64044 ], [ 3.890861, 43.640336 ], [ 3.890739, 43.640305 ], [ 3.890602, 43.640279 ], [ 3.890475, 43.640249 ], [ 3.890231, 43.64021 ], [ 3.890101, 43.640202 ], [ 3.889967, 43.640207 ], [ 3.889825, 43.640221 ], [ 3.889686, 43.640233 ], [ 3.88955, 43.640241 ], [ 3.88942, 43.640258 ], [ 3.889187, 43.640241 ], [ 3.888942, 43.640196 ], [ 3.888805, 43.640168 ], [ 3.888662, 43.640137 ], [ 3.888506, 43.640117 ], [ 3.888369, 43.640107 ], [ 3.888221, 43.640075 ], [ 3.888095, 43.640015 ], [ 3.887991, 43.639961 ], [ 3.887804, 43.639881 ], [ 3.887646, 43.639796 ], [ 3.887514, 43.639769 ], [ 3.887342, 43.639704 ], [ 3.887153, 43.639641 ], [ 3.887038, 43.639603 ], [ 3.886918, 43.639552 ], [ 3.886794, 43.63952 ], [ 3.886662, 43.639492 ], [ 3.886531, 43.639463 ], [ 3.88641, 43.639436 ], [ 3.886254, 43.639383 ], [ 3.886126, 43.639361 ], [ 3.886024, 43.639279 ], [ 3.885859, 43.639218 ], [ 3.885668, 43.639143 ], [ 3.885502, 43.63907 ], [ 3.885381, 43.639034 ], [ 3.885298, 43.639122 ], [ 3.885241, 43.639217 ], [ 3.885208, 43.639325 ], [ 3.885234, 43.639419 ], [ 3.885244, 43.639527 ], [ 3.885278, 43.639646 ], [ 3.88521, 43.639748 ], [ 3.885173, 43.639898 ], [ 3.885156, 43.640004 ], [ 3.88518, 43.640092 ], [ 3.885118, 43.640172 ], [ 3.885155, 43.640032 ], [ 3.885169, 43.639919 ], [ 3.885173, 43.639826 ], [ 3.885172, 43.639724 ], [ 3.885217, 43.639575 ], [ 3.885203, 43.639424 ], [ 3.885192, 43.63931 ], [ 3.885211, 43.639188 ], [ 3.88526, 43.639079 ], [ 3.885232, 43.638988 ], [ 3.885131, 43.638914 ], [ 3.884972, 43.638835 ], [ 3.88477, 43.638755 ], [ 3.884559, 43.638653 ], [ 3.884439, 43.638607 ], [ 3.884322, 43.638553 ], [ 3.884208, 43.638506 ], [ 3.88407, 43.638464 ], [ 3.883883, 43.638412 ], [ 3.883751, 43.638415 ], [ 3.883816, 43.638496 ], [ 3.88374, 43.638424 ], [ 3.883602, 43.638455 ], [ 3.883497, 43.638537 ], [ 3.883522, 43.638648 ], [ 3.883537, 43.638755 ], [ 3.883631, 43.638844 ], [ 3.88377, 43.638849 ], [ 3.883882, 43.63889 ], [ 3.88402, 43.63891 ], [ 3.884169, 43.638927 ], [ 3.884295, 43.638942 ], [ 3.884412, 43.638995 ], [ 3.884538, 43.639016 ], [ 3.884657, 43.638977 ], [ 3.88474, 43.639073 ], [ 3.884605, 43.639096 ], [ 3.884478, 43.639031 ], [ 3.884328, 43.638969 ], [ 3.884167, 43.638936 ], [ 3.884028, 43.638912 ], [ 3.883906, 43.638943 ], [ 3.883716, 43.638891 ], [ 3.883594, 43.638921 ], [ 3.883542, 43.639104 ], [ 3.883525, 43.639198 ], [ 3.883515, 43.63929 ], [ 3.883495, 43.639402 ], [ 3.883587, 43.639474 ], [ 3.883457, 43.63948 ], [ 3.88333, 43.639591 ], [ 3.883235, 43.639651 ], [ 3.883168, 43.639727 ], [ 3.882983, 43.639754 ], [ 3.882864, 43.639818 ], [ 3.882898, 43.639918 ], [ 3.883009, 43.639965 ], [ 3.883174, 43.639985 ], [ 3.883316, 43.639947 ], [ 3.883458, 43.639936 ], [ 3.8836, 43.639963 ], [ 3.883752, 43.639994 ], [ 3.883903, 43.640021 ], [ 3.884041, 43.640046 ], [ 3.884212, 43.640046 ], [ 3.884206, 43.639953 ], [ 3.884304, 43.639897 ], [ 3.884385, 43.639812 ], [ 3.884424, 43.639721 ], [ 3.884418, 43.639815 ], [ 3.884522, 43.639874 ], [ 3.884643, 43.63983 ], [ 3.88456, 43.639899 ], [ 3.88448, 43.639968 ], [ 3.88435, 43.640024 ], [ 3.88388, 43.639973 ], [ 3.883676, 43.639936 ], [ 3.883465, 43.639901 ], [ 3.883199, 43.639957 ], [ 3.883084, 43.640004 ], [ 3.882959, 43.639974 ], [ 3.882812, 43.639912 ], [ 3.88272, 43.639801 ], [ 3.882872, 43.639766 ], [ 3.88297, 43.639699 ], [ 3.883083, 43.639654 ], [ 3.883229, 43.639604 ], [ 3.883334, 43.639543 ], [ 3.883446, 43.639441 ], [ 3.883473, 43.639319 ], [ 3.883481, 43.639212 ], [ 3.883489, 43.639122 ], [ 3.883512, 43.638984 ], [ 3.883436, 43.638913 ], [ 3.883498, 43.638776 ], [ 3.883493, 43.638654 ], [ 3.88339, 43.638571 ], [ 3.88323, 43.638526 ], [ 3.883043, 43.638499 ], [ 3.882827, 43.638437 ], [ 3.882707, 43.638413 ], [ 3.882501, 43.638363 ], [ 3.882382, 43.638322 ], [ 3.882227, 43.638272 ], [ 3.882081, 43.638223 ], [ 3.881961, 43.638134 ], [ 3.881854, 43.638084 ], [ 3.881692, 43.638142 ], [ 3.881604, 43.638237 ], [ 3.881607, 43.63833 ], [ 3.881477, 43.638315 ], [ 3.881312, 43.638382 ], [ 3.88111, 43.638406 ], [ 3.880906, 43.638447 ], [ 3.880718, 43.638452 ], [ 3.88057, 43.638476 ], [ 3.880441, 43.638481 ], [ 3.880296, 43.638465 ], [ 3.880162, 43.638499 ], [ 3.880033, 43.638531 ], [ 3.879889, 43.638518 ], [ 3.87976, 43.638532 ], [ 3.879742, 43.63867 ], [ 3.879605, 43.638656 ], [ 3.879454, 43.638679 ], [ 3.87941, 43.638766 ], [ 3.879497, 43.638683 ], [ 3.879566, 43.638596 ], [ 3.879508, 43.638508 ], [ 3.879357, 43.638505 ], [ 3.879213, 43.638501 ], [ 3.879089, 43.63847 ], [ 3.878938, 43.638465 ], [ 3.878773, 43.638472 ], [ 3.8786, 43.638483 ], [ 3.878476, 43.638504 ], [ 3.87847, 43.638627 ], [ 3.878563, 43.638691 ], [ 3.878447, 43.63858 ], [ 3.87836, 43.63851 ], [ 3.87817, 43.638507 ], [ 3.878242, 43.638628 ], [ 3.878378, 43.63869 ], [ 3.878497, 43.638768 ], [ 3.878332, 43.638691 ], [ 3.878209, 43.638639 ], [ 3.878079, 43.638596 ], [ 3.877899, 43.638564 ], [ 3.877768, 43.638559 ], [ 3.877675, 43.638492 ], [ 3.877553, 43.638445 ], [ 3.877435, 43.638371 ], [ 3.877304, 43.638286 ], [ 3.877189, 43.638217 ], [ 3.877088, 43.638146 ], [ 3.876969, 43.638093 ], [ 3.876862, 43.638035 ], [ 3.876717, 43.637979 ], [ 3.876566, 43.637935 ], [ 3.87645, 43.637901 ], [ 3.876303, 43.637844 ], [ 3.876187, 43.637799 ], [ 3.876073, 43.637762 ], [ 3.875922, 43.637705 ], [ 3.875805, 43.637668 ], [ 3.875648, 43.637587 ], [ 3.875586, 43.637502 ], [ 3.875554, 43.637402 ], [ 3.875596, 43.637292 ], [ 3.875631, 43.637165 ], [ 3.875655, 43.637069 ], [ 3.875641, 43.636958 ], [ 3.875658, 43.636849 ], [ 3.875627, 43.63676 ], [ 3.875661, 43.63667 ], [ 3.875722, 43.636578 ], [ 3.875727, 43.636708 ], [ 3.875732, 43.636808 ], [ 3.875754, 43.636935 ], [ 3.875877, 43.63698 ], [ 3.87602, 43.637015 ], [ 3.876156, 43.637053 ], [ 3.876308, 43.637069 ], [ 3.876486, 43.637066 ], [ 3.87662, 43.63705 ], [ 3.876645, 43.636957 ], [ 3.876746, 43.637023 ], [ 3.876919, 43.637039 ], [ 3.877051, 43.637045 ], [ 3.87687, 43.637039 ], [ 3.876747, 43.637072 ], [ 3.876623, 43.63714 ], [ 3.876435, 43.637145 ], [ 3.87625, 43.637146 ], [ 3.876112, 43.637129 ], [ 3.876014, 43.637049 ], [ 3.87585, 43.636999 ], [ 3.875735, 43.637037 ], [ 3.875713, 43.637145 ], [ 3.875694, 43.637268 ], [ 3.875678, 43.637357 ], [ 3.875707, 43.637472 ], [ 3.875812, 43.637569 ], [ 3.875943, 43.637628 ], [ 3.8761, 43.637684 ], [ 3.876226, 43.637726 ], [ 3.876339, 43.637801 ], [ 3.876513, 43.637852 ], [ 3.876658, 43.637837 ], [ 3.876712, 43.637754 ], [ 3.876874, 43.637726 ], [ 3.877037, 43.63767 ], [ 3.877186, 43.637618 ], [ 3.877295, 43.637516 ], [ 3.877341, 43.637425 ], [ 3.877419, 43.637338 ], [ 3.87756, 43.637379 ], [ 3.877672, 43.637425 ], [ 3.8778, 43.637484 ], [ 3.877939, 43.637479 ], [ 3.878147, 43.637479 ], [ 3.878337, 43.637505 ], [ 3.878489, 43.63754 ], [ 3.878677, 43.637592 ], [ 3.878817, 43.637676 ], [ 3.87894, 43.637767 ], [ 3.879056, 43.63784 ], [ 3.879138, 43.637763 ], [ 3.879035, 43.637837 ], [ 3.87886, 43.637752 ], [ 3.878752, 43.637662 ], [ 3.878623, 43.637593 ], [ 3.878461, 43.637572 ], [ 3.878243, 43.637569 ], [ 3.878012, 43.637544 ], [ 3.877855, 43.637509 ], [ 3.877754, 43.637456 ], [ 3.877632, 43.637428 ], [ 3.877515, 43.637477 ], [ 3.877369, 43.637477 ], [ 3.877248, 43.637551 ], [ 3.877122, 43.637632 ], [ 3.877063, 43.637714 ], [ 3.876925, 43.637699 ], [ 3.876814, 43.637751 ], [ 3.876689, 43.637822 ], [ 3.876805, 43.637931 ], [ 3.876986, 43.638014 ], [ 3.877129, 43.638112 ], [ 3.877233, 43.63818 ], [ 3.877357, 43.638209 ], [ 3.877461, 43.638296 ], [ 3.877595, 43.638373 ], [ 3.877753, 43.638446 ], [ 3.877889, 43.638458 ], [ 3.878045, 43.638462 ], [ 3.878188, 43.638465 ], [ 3.878182, 43.638307 ], [ 3.878107, 43.638231 ], [ 3.878115, 43.638134 ], [ 3.878184, 43.638041 ], [ 3.878224, 43.637953 ], [ 3.878363, 43.637916 ], [ 3.878508, 43.637928 ], [ 3.878608, 43.637985 ], [ 3.878463, 43.638 ], [ 3.878306, 43.638027 ], [ 3.878188, 43.638082 ], [ 3.878125, 43.638174 ], [ 3.878167, 43.638267 ], [ 3.878191, 43.638361 ], [ 3.878253, 43.638448 ], [ 3.878456, 43.638439 ], [ 3.878579, 43.638416 ], [ 3.87875, 43.638418 ], [ 3.87896, 43.638405 ], [ 3.879156, 43.638414 ], [ 3.87929, 43.63839 ], [ 3.879418, 43.638428 ], [ 3.879567, 43.638442 ], [ 3.879695, 43.638441 ], [ 3.879808, 43.638481 ], [ 3.879989, 43.638508 ], [ 3.880214, 43.638517 ], [ 3.880467, 43.638492 ], [ 3.880604, 43.638479 ], [ 3.880741, 43.638469 ], [ 3.880879, 43.638458 ], [ 3.881009, 43.638449 ], [ 3.881229, 43.63842 ], [ 3.881395, 43.638381 ], [ 3.881528, 43.638299 ], [ 3.881645, 43.638204 ], [ 3.881719, 43.638131 ], [ 3.881735, 43.638042 ], [ 3.881583, 43.637978 ], [ 3.88148, 43.637918 ], [ 3.881382, 43.637835 ], [ 3.881175, 43.637781 ], [ 3.880972, 43.637716 ], [ 3.88083, 43.637725 ], [ 3.880698, 43.637639 ], [ 3.880536, 43.637569 ], [ 3.880373, 43.637506 ], [ 3.880257, 43.637417 ], [ 3.880109, 43.63733 ], [ 3.879992, 43.637201 ], [ 3.879889, 43.637075 ], [ 3.879851, 43.636969 ], [ 3.87996, 43.637049 ], [ 3.880027, 43.637135 ], [ 3.880131, 43.637225 ], [ 3.880237, 43.63731 ], [ 3.880369, 43.637397 ], [ 3.880484, 43.637437 ], [ 3.880622, 43.637537 ], [ 3.880783, 43.637592 ], [ 3.880916, 43.637633 ], [ 3.881069, 43.637665 ], [ 3.881237, 43.637698 ], [ 3.881352, 43.63776 ], [ 3.88144, 43.63783 ], [ 3.881563, 43.637868 ], [ 3.881678, 43.637927 ], [ 3.881826, 43.638021 ], [ 3.881938, 43.638065 ], [ 3.882043, 43.638139 ], [ 3.882145, 43.638192 ], [ 3.882374, 43.638255 ], [ 3.882494, 43.638295 ], [ 3.882675, 43.638339 ], [ 3.882963, 43.638412 ], [ 3.883139, 43.638452 ], [ 3.883302, 43.638447 ], [ 3.883395, 43.638358 ], [ 3.883366, 43.638237 ], [ 3.883225, 43.638173 ], [ 3.883079, 43.63812 ], [ 3.882917, 43.638053 ], [ 3.882733, 43.637988 ], [ 3.882552, 43.637908 ], [ 3.88237, 43.637835 ], [ 3.882163, 43.63776 ], [ 3.882049, 43.637716 ], [ 3.881891, 43.637658 ], [ 3.881761, 43.637579 ], [ 3.881671, 43.637512 ], [ 3.88153, 43.637437 ], [ 3.881368, 43.637343 ], [ 3.881174, 43.637245 ], [ 3.881069, 43.637184 ], [ 3.880958, 43.637105 ], [ 3.880836, 43.637037 ], [ 3.880723, 43.636991 ], [ 3.880601, 43.636912 ], [ 3.880483, 43.63683 ], [ 3.880383, 43.636748 ], [ 3.880267, 43.636672 ], [ 3.880157, 43.636603 ], [ 3.880045, 43.636536 ], [ 3.879962, 43.636466 ], [ 3.879867, 43.6364 ], [ 3.879746, 43.636303 ], [ 3.879772, 43.636427 ], [ 3.879893, 43.636525 ], [ 3.879947, 43.636631 ], [ 3.879966, 43.636737 ], [ 3.879902, 43.636834 ], [ 3.879802, 43.636897 ], [ 3.879673, 43.636855 ], [ 3.879496, 43.636812 ], [ 3.879337, 43.636799 ], [ 3.879174, 43.636798 ], [ 3.87905, 43.636827 ], [ 3.878924, 43.636809 ], [ 3.878764, 43.63682 ], [ 3.878635, 43.636852 ], [ 3.878577, 43.636968 ], [ 3.878596, 43.637062 ], [ 3.878649, 43.637146 ], [ 3.878639, 43.637242 ], [ 3.878569, 43.637329 ], [ 3.878559, 43.637203 ], [ 3.878504, 43.637091 ], [ 3.878557, 43.636985 ], [ 3.878551, 43.636893 ], [ 3.878441, 43.636828 ], [ 3.878281, 43.636792 ], [ 3.878088, 43.636768 ], [ 3.877923, 43.636719 ], [ 3.877781, 43.636688 ], [ 3.877649, 43.636631 ], [ 3.87753, 43.636601 ], [ 3.877402, 43.636584 ], [ 3.877258, 43.636535 ], [ 3.877093, 43.636481 ], [ 3.876909, 43.63644 ], [ 3.87669, 43.636388 ], [ 3.87655, 43.63638 ], [ 3.876376, 43.636404 ], [ 3.876225, 43.636454 ], [ 3.876091, 43.636506 ], [ 3.875969, 43.636535 ], [ 3.875844, 43.636549 ], [ 3.875712, 43.636466 ], [ 3.875603, 43.636381 ], [ 3.875479, 43.636324 ], [ 3.875354, 43.636333 ], [ 3.875219, 43.636359 ], [ 3.875104, 43.636394 ], [ 3.874941, 43.636413 ], [ 3.874773, 43.636434 ], [ 3.874606, 43.636455 ], [ 3.874448, 43.636476 ], [ 3.874273, 43.636504 ], [ 3.874118, 43.636539 ], [ 3.873948, 43.636539 ], [ 3.87374, 43.636547 ], [ 3.873569, 43.636563 ], [ 3.87354, 43.636669 ], [ 3.87356, 43.636811 ], [ 3.873596, 43.636954 ], [ 3.873608, 43.637092 ], [ 3.873636, 43.637207 ], [ 3.87366, 43.637298 ], [ 3.873804, 43.637325 ], [ 3.874021, 43.637354 ], [ 3.874177, 43.637356 ], [ 3.874036, 43.637364 ], [ 3.873877, 43.637336 ], [ 3.873745, 43.637322 ], [ 3.873678, 43.637398 ], [ 3.873649, 43.637514 ], [ 3.873705, 43.637612 ], [ 3.873778, 43.637691 ], [ 3.873737, 43.637776 ], [ 3.873766, 43.637952 ], [ 3.873782, 43.63809 ], [ 3.873794, 43.638235 ], [ 3.873816, 43.638383 ], [ 3.873805, 43.63852 ], [ 3.873787, 43.638649 ], [ 3.873749, 43.63879 ], [ 3.873705, 43.638923 ], [ 3.873663, 43.639011 ], [ 3.873618, 43.639114 ], [ 3.873592, 43.639236 ], [ 3.873618, 43.639359 ], [ 3.873572, 43.63946 ], [ 3.873508, 43.639548 ], [ 3.873431, 43.639639 ], [ 3.873355, 43.639732 ], [ 3.873271, 43.639845 ], [ 3.873197, 43.639943 ], [ 3.873089, 43.640034 ], [ 3.872999, 43.640127 ], [ 3.872922, 43.640253 ], [ 3.872884, 43.64034 ], [ 3.872792, 43.640409 ], [ 3.872733, 43.64049 ], [ 3.872684, 43.640591 ], [ 3.872555, 43.640689 ], [ 3.872428, 43.640802 ], [ 3.872304, 43.640943 ], [ 3.872208, 43.641019 ], [ 3.87211, 43.641116 ], [ 3.871979, 43.641274 ], [ 3.871901, 43.641356 ], [ 3.871739, 43.6415 ], [ 3.871665, 43.64158 ], [ 3.871583, 43.641674 ], [ 3.871499, 43.641765 ], [ 3.871429, 43.641874 ], [ 3.87136, 43.642098 ], [ 3.871346, 43.64241 ], [ 3.87135, 43.642531 ], [ 3.871364, 43.642767 ], [ 3.871379, 43.643006 ], [ 3.871383, 43.643119 ], [ 3.871393, 43.64337 ], [ 3.871371, 43.643483 ], [ 3.871312, 43.643575 ], [ 3.871235, 43.643672 ], [ 3.871142, 43.643754 ], [ 3.871023, 43.643836 ], [ 3.870889, 43.643898 ], [ 3.87077, 43.643973 ], [ 3.870643, 43.644038 ], [ 3.870508, 43.644105 ], [ 3.870371, 43.64416 ], [ 3.870124, 43.644291 ], [ 3.869997, 43.64436 ], [ 3.869865, 43.64443 ], [ 3.869732, 43.644499 ], [ 3.869503, 43.644605 ], [ 3.869411, 43.644683 ], [ 3.869435, 43.64479 ], [ 3.869546, 43.644864 ], [ 3.869685, 43.644815 ], [ 3.869776, 43.64475 ], [ 3.869921, 43.644727 ], [ 3.870082, 43.644779 ], [ 3.870196, 43.644744 ], [ 3.870312, 43.644781 ], [ 3.870455, 43.644828 ], [ 3.870536, 43.644733 ], [ 3.870538, 43.64463 ], [ 3.870599, 43.644535 ], [ 3.870747, 43.644474 ], [ 3.870945, 43.644465 ], [ 3.871108, 43.644454 ], [ 3.871245, 43.644447 ], [ 3.871352, 43.644501 ], [ 3.871379, 43.644591 ], [ 3.871359, 43.644683 ], [ 3.871499, 43.644714 ], [ 3.871625, 43.644708 ], [ 3.871503, 43.644732 ], [ 3.871363, 43.644778 ], [ 3.871201, 43.644774 ], [ 3.871058, 43.644783 ], [ 3.870917, 43.644789 ], [ 3.870793, 43.644816 ], [ 3.870921, 43.644791 ], [ 3.870973, 43.644696 ], [ 3.870987, 43.64459 ], [ 3.870848, 43.644558 ], [ 3.870676, 43.644557 ], [ 3.87057, 43.644633 ], [ 3.870539, 43.644771 ], [ 3.870539, 43.644926 ], [ 3.870566, 43.64503 ], [ 3.870756, 43.645027 ], [ 3.870891, 43.645008 ], [ 3.871003, 43.644959 ], [ 3.871132, 43.644944 ], [ 3.871264, 43.644916 ], [ 3.871441, 43.64489 ], [ 3.871578, 43.64492 ], [ 3.871704, 43.644937 ], [ 3.871593, 43.645023 ], [ 3.871412, 43.645043 ], [ 3.871191, 43.64505 ], [ 3.870995, 43.645053 ], [ 3.870862, 43.645053 ], [ 3.870737, 43.64505 ], [ 3.870535, 43.645042 ], [ 3.870403, 43.64499 ], [ 3.870492, 43.644903 ], [ 3.870601, 43.644852 ], [ 3.870637, 43.644956 ], [ 3.870768, 43.644975 ], [ 3.870919, 43.644975 ], [ 3.871087, 43.644951 ], [ 3.871204, 43.644985 ], [ 3.871346, 43.645002 ], [ 3.871527, 43.644993 ], [ 3.871682, 43.644986 ], [ 3.871761, 43.644917 ], [ 3.871726, 43.645005 ], [ 3.871866, 43.645049 ], [ 3.87209, 43.645026 ], [ 3.872498, 43.644959 ], [ 3.872721, 43.644887 ], [ 3.872839, 43.644853 ], [ 3.873076, 43.644837 ], [ 3.873281, 43.644863 ], [ 3.873502, 43.644918 ], [ 3.873632, 43.644953 ], [ 3.873749, 43.64499 ], [ 3.873963, 43.645039 ], [ 3.874184, 43.645106 ], [ 3.8743, 43.645144 ], [ 3.874525, 43.64522 ], [ 3.874645, 43.645262 ], [ 3.874871, 43.645302 ], [ 3.875097, 43.64527 ], [ 3.875314, 43.645199 ], [ 3.875504, 43.645131 ], [ 3.875707, 43.645118 ], [ 3.87585, 43.645176 ], [ 3.875959, 43.645268 ], [ 3.876054, 43.645378 ], [ 3.876134, 43.645448 ], [ 3.876254, 43.645501 ], [ 3.876343, 43.645586 ], [ 3.87643, 43.645682 ], [ 3.876538, 43.645757 ], [ 3.876696, 43.645782 ], [ 3.876822, 43.645752 ], [ 3.876979, 43.645678 ], [ 3.87715, 43.645651 ], [ 3.877358, 43.64566 ], [ 3.877586, 43.645689 ], [ 3.877706, 43.645714 ], [ 3.877836, 43.645747 ], [ 3.877974, 43.645785 ], [ 3.878123, 43.645822 ], [ 3.878313, 43.645842 ], [ 3.87844, 43.645865 ], [ 3.878568, 43.645904 ], [ 3.878474, 43.645842 ], [ 3.878567, 43.64591 ], [ 3.878418, 43.645867 ], [ 3.878271, 43.645827 ], [ 3.878143, 43.645783 ], [ 3.878003, 43.645755 ], [ 3.877849, 43.645711 ], [ 3.877665, 43.645676 ], [ 3.877512, 43.64566 ], [ 3.877356, 43.645651 ], [ 3.877168, 43.645651 ], [ 3.876971, 43.6457 ], [ 3.876815, 43.645801 ], [ 3.876735, 43.645925 ], [ 3.876731, 43.646046 ], [ 3.876764, 43.646194 ], [ 3.876793, 43.646344 ], [ 3.876842, 43.646468 ], [ 3.87692, 43.646559 ], [ 3.877009, 43.646649 ], [ 3.877128, 43.646735 ], [ 3.877301, 43.646831 ], [ 3.877455, 43.6469 ], [ 3.8776, 43.646953 ], [ 3.877792, 43.647014 ], [ 3.877967, 43.647078 ], [ 3.878132, 43.647133 ], [ 3.878255, 43.64717 ], [ 3.878408, 43.647198 ], [ 3.878522, 43.647234 ], [ 3.87855, 43.647348 ], [ 3.878496, 43.64744 ], [ 3.87847, 43.647539 ], [ 3.878578, 43.647586 ], [ 3.878737, 43.647651 ], [ 3.878779, 43.647783 ], [ 3.878735, 43.647921 ], [ 3.878656, 43.648071 ], [ 3.878579, 43.648218 ], [ 3.878545, 43.648307 ], [ 3.878503, 43.648418 ], [ 3.878533, 43.648506 ], [ 3.878691, 43.648551 ], [ 3.878829, 43.648601 ], [ 3.878956, 43.648668 ], [ 3.879038, 43.648758 ], [ 3.878998, 43.648868 ], [ 3.878884, 43.648915 ], [ 3.878761, 43.648922 ], [ 3.878815, 43.649016 ], [ 3.878869, 43.648929 ], [ 3.878748, 43.648892 ], [ 3.878899, 43.648892 ], [ 3.87901, 43.648816 ], [ 3.878998, 43.648715 ], [ 3.878889, 43.648647 ], [ 3.87877, 43.648603 ], [ 3.878602, 43.648536 ], [ 3.878457, 43.648481 ], [ 3.878458, 43.648363 ], [ 3.87853, 43.648254 ], [ 3.878602, 43.648157 ], [ 3.878685, 43.648019 ], [ 3.878757, 43.647878 ], [ 3.878768, 43.647733 ], [ 3.878652, 43.647622 ], [ 3.878528, 43.64757 ], [ 3.878508, 43.647455 ], [ 3.878564, 43.64734 ], [ 3.878469, 43.647233 ], [ 3.878293, 43.647179 ], [ 3.878111, 43.647136 ], [ 3.87788, 43.647073 ], [ 3.877655, 43.646995 ], [ 3.877468, 43.646902 ], [ 3.877363, 43.646848 ], [ 3.877248, 43.646799 ], [ 3.87715, 43.646742 ], [ 3.876984, 43.64663 ], [ 3.876872, 43.646511 ], [ 3.876777, 43.646428 ], [ 3.876778, 43.646314 ], [ 3.876755, 43.646221 ], [ 3.876732, 43.646109 ], [ 3.876701, 43.645965 ], [ 3.876596, 43.64582 ], [ 3.876408, 43.645682 ], [ 3.87631, 43.645607 ], [ 3.876217, 43.64553 ], [ 3.876134, 43.645446 ], [ 3.87606, 43.64536 ], [ 3.875968, 43.645288 ], [ 3.875832, 43.645187 ], [ 3.875651, 43.645169 ], [ 3.875442, 43.645188 ], [ 3.875239, 43.645233 ], [ 3.875126, 43.645281 ], [ 3.874943, 43.645301 ], [ 3.874741, 43.645264 ], [ 3.874519, 43.645214 ], [ 3.874291, 43.645144 ], [ 3.874168, 43.645107 ], [ 3.874027, 43.645066 ], [ 3.873828, 43.645034 ], [ 3.873704, 43.645027 ], [ 3.873579, 43.645028 ], [ 3.873501, 43.64495 ], [ 3.873337, 43.644918 ], [ 3.873102, 43.644891 ], [ 3.872976, 43.644901 ], [ 3.872832, 43.644921 ], [ 3.872698, 43.644946 ], [ 3.872571, 43.645001 ], [ 3.872418, 43.645032 ], [ 3.872267, 43.645048 ], [ 3.872126, 43.64506 ], [ 3.87197, 43.645064 ], [ 3.871802, 43.645069 ], [ 3.871636, 43.645079 ], [ 3.871498, 43.645078 ], [ 3.871343, 43.645083 ], [ 3.871188, 43.645091 ], [ 3.871034, 43.6451 ], [ 3.870884, 43.645109 ], [ 3.870733, 43.645103 ], [ 3.870585, 43.645097 ], [ 3.870444, 43.645075 ], [ 3.87033, 43.645035 ], [ 3.870104, 43.644981 ], [ 3.869864, 43.644945 ], [ 3.869663, 43.644935 ], [ 3.869532, 43.644961 ], [ 3.869428, 43.645011 ], [ 3.869324, 43.645078 ], [ 3.869188, 43.645095 ], [ 3.869052, 43.64508 ], [ 3.868905, 43.645049 ], [ 3.868743, 43.645117 ], [ 3.868619, 43.64525 ], [ 3.868574, 43.645338 ], [ 3.86855, 43.645428 ], [ 3.86853, 43.645522 ], [ 3.868524, 43.645633 ], [ 3.868516, 43.645745 ], [ 3.868516, 43.645855 ], [ 3.868514, 43.645974 ], [ 3.868526, 43.646097 ], [ 3.868526, 43.64621 ], [ 3.868526, 43.646318 ], [ 3.868529, 43.646409 ], [ 3.868547, 43.646555 ], [ 3.868568, 43.646677 ], [ 3.868557, 43.646795 ], [ 3.86858, 43.646906 ], [ 3.868585, 43.646996 ], [ 3.868629, 43.646912 ], [ 3.86858, 43.647006 ], [ 3.868501, 43.647083 ], [ 3.868385, 43.646962 ], [ 3.868356, 43.646873 ], [ 3.868186, 43.646888 ], [ 3.868072, 43.64697 ], [ 3.867966, 43.647058 ], [ 3.867917, 43.647145 ], [ 3.868044, 43.647115 ], [ 3.868168, 43.647135 ], [ 3.868295, 43.647121 ], [ 3.868168, 43.647144 ], [ 3.86804, 43.647163 ], [ 3.867977, 43.647082 ], [ 3.867847, 43.647148 ] ], [ [ 3.8679, 43.647058 ], [ 3.868041, 43.64692 ], [ 3.868239, 43.646806 ], [ 3.868374, 43.646767 ], [ 3.8685, 43.646691 ], [ 3.868512, 43.646578 ], [ 3.868496, 43.646424 ], [ 3.868491, 43.646247 ], [ 3.868492, 43.646152 ], [ 3.868491, 43.646006 ], [ 3.868474, 43.645899 ], [ 3.868454, 43.645773 ], [ 3.868461, 43.645651 ], [ 3.868474, 43.645494 ], [ 3.868473, 43.645388 ] ], [ [ 3.862551, 43.648374 ], [ 3.862617, 43.648285 ], [ 3.862564, 43.648192 ], [ 3.862568, 43.648078 ], [ 3.862467, 43.648021 ], [ 3.862576, 43.648112 ], [ 3.862553, 43.648233 ], [ 3.862419, 43.648269 ], [ 3.862526, 43.648315 ], [ 3.862668, 43.648263 ], [ 3.862832, 43.64824 ], [ 3.863014, 43.648235 ], [ 3.863177, 43.648215 ], [ 3.863322, 43.648218 ], [ 3.863486, 43.648223 ], [ 3.863494, 43.648125 ], [ 3.86342, 43.648047 ], [ 3.863404, 43.647946 ], [ 3.863569, 43.648043 ], [ 3.86371, 43.648137 ], [ 3.863833, 43.648181 ], [ 3.863947, 43.648115 ], [ 3.864052, 43.648024 ], [ 3.86418, 43.648071 ], [ 3.864343, 43.648076 ], [ 3.864463, 43.648224 ], [ 3.86455, 43.648328 ], [ 3.864642, 43.648456 ], [ 3.864773, 43.648599 ], [ 3.864838, 43.648682 ], [ 3.86491, 43.648773 ], [ 3.864987, 43.648871 ], [ 3.865066, 43.648972 ], [ 3.865147, 43.649074 ], [ 3.865224, 43.649177 ], [ 3.865294, 43.649287 ], [ 3.865372, 43.649385 ], [ 3.865452, 43.649483 ], [ 3.865539, 43.649566 ], [ 3.865615, 43.649663 ], [ 3.865678, 43.649749 ], [ 3.865737, 43.64985 ], [ 3.865851, 43.649981 ], [ 3.865938, 43.650094 ], [ 3.866014, 43.650166 ], [ 3.866083, 43.650257 ], [ 3.865961, 43.650211 ], [ 3.865847, 43.650098 ], [ 3.865711, 43.649962 ], [ 3.865594, 43.649817 ], [ 3.865532, 43.649715 ], [ 3.865402, 43.649542 ], [ 3.865328, 43.649443 ], [ 3.865249, 43.649348 ], [ 3.865163, 43.649251 ], [ 3.865059, 43.649084 ], [ 3.864946, 43.64889 ], [ 3.864882, 43.648802 ], [ 3.86482, 43.648709 ], [ 3.864752, 43.648621 ], [ 3.864669, 43.648529 ], [ 3.864594, 43.648431 ], [ 3.864516, 43.648337 ], [ 3.86438, 43.648173 ], [ 3.864316, 43.648089 ], [ 3.864192, 43.647932 ], [ 3.864075, 43.647785 ], [ 3.864015, 43.647704 ], [ 3.863854, 43.64755 ], [ 3.863784, 43.64746 ], [ 3.863704, 43.64738 ], [ 3.863644, 43.64729 ], [ 3.86358, 43.647198 ], [ 3.863506, 43.647094 ], [ 3.863441, 43.647014 ], [ 3.863382, 43.646927 ], [ 3.863314, 43.646839 ], [ 3.863249, 43.646741 ], [ 3.863107, 43.646556 ], [ 3.86304, 43.646469 ], [ 3.862991, 43.646384 ], [ 3.862882, 43.646235 ], [ 3.862816, 43.646159 ], [ 3.862753, 43.646079 ], [ 3.862646, 43.645936 ], [ 3.862545, 43.645812 ], [ 3.862442, 43.64567 ], [ 3.862314, 43.645718 ], [ 3.86217, 43.645799 ], [ 3.862045, 43.6459 ], [ 3.861931, 43.646 ], [ 3.861923, 43.646103 ], [ 3.862031, 43.646233 ], [ 3.862117, 43.646339 ], [ 3.862173, 43.646442 ], [ 3.862158, 43.646532 ], [ 3.862091, 43.646615 ], [ 3.862136, 43.646512 ], [ 3.86213, 43.646411 ], [ 3.862057, 43.646318 ], [ 3.861976, 43.646192 ], [ 3.8619, 43.646087 ], [ 3.861767, 43.646126 ], [ 3.861679, 43.646219 ], [ 3.86156, 43.6463 ], [ 3.861423, 43.646383 ], [ 3.861306, 43.646479 ], [ 3.861267, 43.646572 ], [ 3.861299, 43.646662 ], [ 3.86142, 43.646744 ], [ 3.861527, 43.646813 ], [ 3.861614, 43.646929 ], [ 3.8617, 43.646997 ], [ 3.861626, 43.646902 ], [ 3.861525, 43.646812 ], [ 3.861421, 43.646735 ], [ 3.86131, 43.646685 ], [ 3.86123, 43.646613 ], [ 3.861251, 43.646511 ], [ 3.861301, 43.64642 ], [ 3.861379, 43.646346 ], [ 3.861554, 43.646273 ], [ 3.861715, 43.64617 ], [ 3.861803, 43.646103 ], [ 3.86188, 43.64603 ], [ 3.861966, 43.645965 ], [ 3.862116, 43.645847 ], [ 3.862237, 43.64575 ], [ 3.86233, 43.64569 ], [ 3.862416, 43.645616 ], [ 3.862336, 43.645538 ], [ 3.862247, 43.645475 ], [ 3.862168, 43.64537 ], [ 3.862053, 43.645271 ], [ 3.861945, 43.645184 ], [ 3.861862, 43.645117 ], [ 3.861762, 43.64503 ], [ 3.86165, 43.64496 ], [ 3.861608, 43.644871 ], [ 3.861468, 43.644768 ], [ 3.861367, 43.644657 ], [ 3.861238, 43.644602 ], [ 3.86112, 43.64464 ], [ 3.861208, 43.644564 ], [ 3.861121, 43.644446 ], [ 3.861008, 43.644349 ], [ 3.860884, 43.644256 ], [ 3.86081, 43.644182 ], [ 3.860713, 43.644106 ], [ 3.860658, 43.644023 ], [ 3.860595, 43.643945 ], [ 3.860551, 43.643859 ], [ 3.860497, 43.643765 ], [ 3.860455, 43.643671 ], [ 3.860422, 43.643575 ], [ 3.860333, 43.643472 ], [ 3.860217, 43.643368 ], [ 3.860105, 43.643308 ], [ 3.860053, 43.643171 ], [ 3.85993, 43.643066 ], [ 3.859829, 43.642953 ], [ 3.85969, 43.642827 ], [ 3.859556, 43.642712 ], [ 3.859462, 43.6426 ], [ 3.859312, 43.642605 ], [ 3.859187, 43.642654 ], [ 3.859046, 43.642696 ], [ 3.858876, 43.642733 ], [ 3.858748, 43.642778 ], [ 3.858665, 43.642848 ], [ 3.858835, 43.642794 ], [ 3.859006, 43.642729 ], [ 3.859179, 43.642629 ], [ 3.859279, 43.642518 ], [ 3.859353, 43.642595 ], [ 3.859306, 43.642508 ], [ 3.85928, 43.642398 ], [ 3.859186, 43.642317 ], [ 3.859108, 43.642228 ], [ 3.859013, 43.642128 ], [ 3.858929, 43.642056 ], [ 3.858824, 43.641977 ], [ 3.858726, 43.641895 ], [ 3.858638, 43.641821 ], [ 3.85856, 43.641747 ], [ 3.858463, 43.641657 ], [ 3.858351, 43.641524 ], [ 3.85826, 43.641435 ], [ 3.858193, 43.641337 ], [ 3.858036, 43.641428 ], [ 3.857949, 43.641529 ], [ 3.857896, 43.641625 ], [ 3.857947, 43.641542 ], [ 3.85782, 43.641534 ], [ 3.857997, 43.641485 ], [ 3.858101, 43.641396 ], [ 3.858041, 43.641314 ], [ 3.858059, 43.641222 ], [ 3.858111, 43.641307 ], [ 3.858213, 43.641232 ], [ 3.858158, 43.641139 ], [ 3.85807, 43.641047 ], [ 3.857956, 43.64094 ], [ 3.857802, 43.640974 ], [ 3.857731, 43.641082 ], [ 3.857671, 43.641166 ], [ 3.857595, 43.641278 ], [ 3.857519, 43.641388 ], [ 3.857465, 43.641518 ], [ 3.857428, 43.641613 ], [ 3.857304, 43.641626 ], [ 3.857343, 43.641509 ], [ 3.857458, 43.641431 ], [ 3.857489, 43.641338 ], [ 3.857552, 43.641253 ], [ 3.857626, 43.64115 ], [ 3.857741, 43.641031 ], [ 3.857839, 43.640896 ], [ 3.857743, 43.640796 ], [ 3.8576, 43.640758 ], [ 3.857429, 43.640721 ], [ 3.85725, 43.640693 ], [ 3.857121, 43.640721 ], [ 3.857148, 43.640632 ], [ 3.85703, 43.640592 ], [ 3.85689, 43.640558 ], [ 3.856759, 43.640541 ], [ 3.856593, 43.640521 ], [ 3.856422, 43.64047 ], [ 3.856297, 43.640425 ], [ 3.856144, 43.640378 ], [ 3.856001, 43.64034 ], [ 3.855876, 43.640275 ], [ 3.855758, 43.640221 ], [ 3.855656, 43.640167 ] ], [ [ 3.854226, 43.639414 ], [ 3.8543, 43.639495 ], [ 3.85443, 43.639538 ], [ 3.85457, 43.63957 ], [ 3.85465, 43.6395 ], [ 3.854721, 43.639599 ], [ 3.854864, 43.63959 ], [ 3.854984, 43.639619 ], [ 3.855081, 43.639699 ], [ 3.855213, 43.639758 ], [ 3.855224, 43.63985 ], [ 3.855287, 43.639929 ], [ 3.855387, 43.639992 ], [ 3.855507, 43.640046 ], [ 3.855609, 43.640118 ], [ 3.855734, 43.640055 ], [ 3.85578, 43.639965 ], [ 3.85574, 43.639857 ], [ 3.855618, 43.639815 ], [ 3.855745, 43.639834 ], [ 3.85581, 43.639923 ], [ 3.855769, 43.640009 ], [ 3.855678, 43.640075 ], [ 3.855637, 43.640161 ] ] ] } }
]
}
