{
"type": "FeatureCollection",
"name": "saint martin",
"crs": { "type": "name", "properties": { "name": "urn:ogc:def:crs:OGC:1.3:CRS84" } },
"features": [
{ "type": "Feature", "properties": { "Name": "saint martin", "description": null }, "geometry": { "type": "Polygon", "coordinates": [ [ [ 3.877559, 43.5954325 ], [ 3.8771727, 43.5937541 ], [ 3.8785031, 43.5912054 ], [ 3.8845971, 43.5888431 ], [ 3.8895323, 43.5882525 ], [ 3.8900902, 43.5904905 ], [ 3.8896182, 43.591796 ], [ 3.8890174, 43.593319 ], [ 3.8869574, 43.5942203 ], [ 3.8812068, 43.5967689 ], [ 3.8777735, 43.5965514 ], [ 3.877559, 43.5954325 ] ] ] } }
]
}
